   00001_ACE    00046_GLY  0.00013611835290380884
   00001_ACE    00002_ILE  24.770775997174518
   00001_ACE    00087_TYR  0.046892719404419164
   00001_ACE    00049_ARG  0.06730655554277166
   00001_ACE    00004_ARG  0.037168299142558585
   00001_ACE    00007_ARG  0.01800056346199008
   00001_ACE    00003_PRO  0.016377774368678395
   00001_ACE    00089_PRO  0.01514989411560407
   00001_ACE    00047_GLU  0.011224316878570692
   00002_ILE    00046_GLY  0.00014108901055870913
   00002_ILE    00048_LEU  0.00032637773357684503
   00002_ILE    00088_LYS  0.03934718680560745
   00002_ILE    00051_GLY  0.0007534667869435848
   00002_ILE    00085_ALA  0.00037404735626759455
   00002_ILE    00036_ILE  0.00010011327002897173
   00002_ILE    00004_ARG  0.17049968326276382
   00002_ILE    00007_ARG  0.0411231894920472
   00002_ILE    00009_ILE  0.0001128214153825083
   00002_ILE    00005_GLU  0.07909029275817057
   00002_ILE    00047_GLU  0.0251762240987818
   00002_ILE    00045_SER  0.00013624541626000526
   00002_ILE    00087_TYR  0.04556192942620468
   00002_ILE    00086_GLN  0.004886185220088278
   00002_ILE    00050_LYS  0.02212321505039402
   00002_ILE    00052_ASP  0.04398953824481408
   00002_ILE    00006_PRO  0.0004921353817240356
   00002_ILE    00003_PRO  20.076432724005073
   00002_ILE    00089_PRO  0.0026883394693769506
   00002_ILE    00049_ARG  0.13576422168996993
   00003_PRO    00088_LYS  0.029836940963855283
   00003_PRO    00087_TYR  0.046898037800752856
   00003_PRO    00086_GLN  0.010924104122359527
   00003_PRO    00085_ALA  0.0005844295264822276
   00003_PRO    00047_GLU  0.009940206928951114
   00003_PRO    00004_ARG  20.872826674486966
   00003_PRO    00052_ASP  0.019387147557224062
   00003_PRO    00007_ARG  0.021694943172950523
   00003_PRO    00006_PRO  0.0007698011810081495
   00003_PRO    00008_ARG  0.005473083010851529
   00003_PRO    00009_ILE  0.00010006364506179107
   00003_PRO    00005_GLU  0.06472570716555713
   00003_PRO    00049_ARG  0.04673232558083868
   00004_ARG    00088_LYS  0.3249227222188464
   00004_ARG    00087_TYR  0.36248629939146065
   00004_ARG    00089_PRO  0.0116689586094601
   00004_ARG    00086_GLN  0.2729535026789331
   00004_ARG    00090_GLU  0.23593980959814304
   00004_ARG    00085_ALA  0.044890883137900545
   00004_ARG    00007_ARG  0.8909873328736255
   00004_ARG    00006_PRO  0.07227098729973533
   00004_ARG    00055_LEU  0.029281357577893945
   00004_ARG    00005_GLU  17.071618572251573
   00004_ARG    00091_GLU  0.16358497066000138
   00005_GLU    00084_ILE  0.037092245677990535
   00005_GLU    00088_LYS  0.1672321926674407
   00005_GLU    00087_TYR  0.21156019226345968
   00005_GLU    00086_GLN  0.340311443968304
   00005_GLU    00085_ALA  0.07236281813430975
   00005_GLU    00007_ARG  0.9994517438578229
   00005_GLU    00006_PRO  17.905167082059876
   00005_GLU    00055_LEU  0.04227419807845797
   00005_GLU    00008_ARG  0.2901037496157043
   00006_PRO    00084_ILE  0.0029540609416783227
   00006_PRO    00088_LYS  0.02182537578855022
   00006_PRO    00087_TYR  0.005673285791341623
   00006_PRO    00063_ARG  0.02395766105387351
   00006_PRO    00086_GLN  0.13029421803332245
   00006_PRO    00085_ALA  0.026454843876189786
   00006_PRO    00052_ASP  0.02564034052036479
   00006_PRO    00007_ARG  11.743955226896063
   00006_PRO    00055_LEU  0.0011629115737080322
   00006_PRO    00009_ILE  0.001317478050946345
   00006_PRO    00008_ARG  0.034517176482269235
   00006_PRO    00053_GLN  0.0018556712541450166
   00007_ARG    00084_ILE  0.0715690068662262
   00007_ARG    00046_GLY  0.06967611258549739
   00007_ARG    00048_LEU  0.28190961202024534
   00007_ARG    00054_ILE  0.05576263916176511
   00007_ARG    00088_LYS  0.49790552798165894
   00007_ARG    00033_ILE  0.06235892172919588
   00007_ARG    00051_GLY  0.06633118242638388
   00007_ARG    00085_ALA  0.3301573439924983
   00007_ARG    00036_ILE  0.039276911779139015
   00007_ARG    00083_ILE  0.07423906351085131
   00007_ARG    00055_LEU  0.06678548142710511
   00007_ARG    00009_ILE  0.16789377367840758
   00007_ARG    00082_THR  0.06592966309098293
   00007_ARG    00053_GLN  0.20913215444474118
   00007_ARG    00087_TYR  0.2934942426632733
   00007_ARG    00086_GLN  0.42061167311265724
   00007_ARG    00047_GLU  1.943600666211601
   00007_ARG    00052_ASP  3.4701211961995595
   00007_ARG    00008_ARG  13.231667812745613
   00007_ARG    00049_ARG  1.5194614557706976
   00008_ARG    00084_ILE  0.2020513449099263
   00008_ARG    00048_LEU  0.04227582732446688
   00008_ARG    00059_GLY  0.04911842951389686
   00008_ARG    00081_VAL  0.06429192271085508
   00008_ARG    00085_ALA  0.07258883714062603
   00008_ARG    00083_ILE  0.12533591549815268
   00008_ARG    00009_ILE  11.84522363032679
   00008_ARG    00080_THR  0.06808103329958969
   00008_ARG    00082_THR  0.235072767820397
   00008_ARG    00047_GLU  0.44730365411136896
   00008_ARG    00010_VAL  0.12883803645286476
   00008_ARG    00056_SER  0.08534838956586507
   00008_ARG    00063_ARG  0.45046894172636165
   00008_ARG    00058_ASN  0.12353430326433117
   00009_ILE    00084_ILE  0.008670146535517663
   00009_ILE    00046_GLY  0.0007325312910876387
   00009_ILE    00048_LEU  0.026768615652790952
   00009_ILE    00054_ILE  0.0004480128749968219
   00009_ILE    00056_SER  0.0014191651654890565
   00009_ILE    00081_VAL  0.01389019986943109
   00009_ILE    00033_ILE  0.0002092785178332362
   00009_ILE    00085_ALA  0.03277239265857528
   00009_ILE    00057_VAL  0.0014493393084592226
   00009_ILE    00083_ILE  0.28595946211514
   00009_ILE    00055_LEU  0.0006007144327148241
   00009_ILE    00018_LEU  0.001179380114585658
   00009_ILE    00042_ALA  0.0009132311507410999
   00009_ILE    00082_THR  0.05425515787449573
   00009_ILE    00047_GLU  0.20377131468913526
   00009_ILE    00011_ILE  0.09740965842564399
   00009_ILE    00045_SER  0.002341040666765084
   00009_ILE    00087_TYR  0.0005128119625027122
   00009_ILE    00012_HIE  0.0017117050477779858
   00009_ILE    00086_GLN  0.0012102817322485993
   00009_ILE    00052_ASP  0.046594399327076666
   00009_ILE    00010_VAL  13.198484769553405
   00009_ILE    00041_PRO  0.0010540333749273839
   00009_ILE    00020_PHE  0.0005678470348812135
   00009_ILE    00049_ARG  0.02663237058395081
   00010_VAL    00084_ILE  0.0009169693160823051
   00010_VAL    00048_LEU  0.0010352387010946033
   00010_VAL    00081_VAL  0.03896119937126001
   00010_VAL    00083_ILE  0.00550366890527857
   00010_VAL    00080_THR  0.0571935277849804
   00010_VAL    00018_LEU  0.0013380642971148225
   00010_VAL    00042_ALA  0.0009755507259863487
   00010_VAL    00082_THR  0.04533757411493582
   00010_VAL    00058_ASN  0.0012227817829171346
   00010_VAL    00011_ILE  10.851288097158447
   00010_VAL    00045_SER  0.0046073765887681166
   00010_VAL    00012_HIE  0.008493872892246358
   00010_VAL    00079_GLN  0.001364234301049919
   00010_VAL    00047_GLU  0.13337643497030777
   00010_VAL    00041_PRO  0.0016791866673928602
   00011_ILE    00046_GLY  0.0007174093026033659
   00011_ILE    00043_ASP  0.03477740969259006
   00011_ILE    00033_ILE  0.00014868101252564692
   00011_ILE    00013_ARG  0.0630204893661727
   00011_ILE    00085_ALA  0.0004071367180331986
   00011_ILE    00036_ILE  0.0001805115852903029
   00011_ILE    00082_THR  0.008917792265638944
   00011_ILE    00042_ALA  0.0008740426273260332
   00011_ILE    00017_GLY  0.0011339092516608543
   00011_ILE    00045_SER  0.017808560717741225
   00011_ILE    00044_LEU  0.0011255642425902284
   00011_ILE    00012_HIE  12.13856866325512
   00011_ILE    00047_GLU  0.08217851882791309
   00011_ILE    00014_GLY  0.0037718180564749013
   00011_ILE    00019_GLY  0.0006974393060465584
   00011_ILE    00048_LEU  0.0013667098705658373
   00011_ILE    00054_ILE  0.00016505311061989082
   00011_ILE    00016_THR  0.0006075515656787608
   00011_ILE    00081_VAL  0.11488241841628753
   00011_ILE    00040_GLY  0.001364900766909778
   00011_ILE    00057_VAL  0.0005211069075066508
   00011_ILE    00083_ILE  0.05290251447172283
   00011_ILE    00018_LEU  0.04394449562481043
   00011_ILE    00080_THR  0.06372972914514748
   00011_ILE    00074_LEU  0.0011140083746259178
   00011_ILE    00058_ASN  0.0014080918906112447
   00011_ILE    00077_ALA  0.0006403661614411439
   00011_ILE    00079_GLN  0.008404437194622262
   00011_ILE    00078_GLY  0.001986556213180879
   00011_ILE    00041_PRO  0.017320541056171423
   00011_ILE    00020_PHE  0.002066629030315473
   00012_HIE    00016_THR  0.007099301671711041
   00012_HIE    00081_VAL  0.011231530546890885
   00012_HIE    00013_ARG  12.952225336572694
   00012_HIE    00042_ALA  0.0058330916494312894
   00012_HIE    00018_LEU  0.01926220017889546
   00012_HIE    00080_THR  0.02043339930053665
   00012_HIE    00047_GLU  0.06082792952449003
   00012_HIE    00015_SER  0.03895792082326415
   00012_HIE    00017_GLY  0.008531665273289149
   00012_HIE    00045_SER  0.008974815523279035
   00012_HIE    00044_LEU  0.0043030999059532025
   00012_HIE    00079_GLN  0.06229894271411399
   00012_HIE    00078_GLY  0.0042819811630543355
   00012_HIE    00014_GLY  0.23286989274090447
   00012_HIE    00041_PRO  0.04054009105276043
   00013_ARG    00019_GLY  0.028485800348006594
   00013_ARG    00075_LYS  0.7686247474384116
   00013_ARG    00016_THR  0.09544786869621699
   00013_ARG    00081_VAL  0.1460500458052165
   00013_ARG    00040_GLY  0.02312909585866455
   00013_ARG    00057_VAL  0.0557174909680826
   00013_ARG    00073_ALA  0.07085620144201103
   00013_ARG    00083_ILE  0.0346906570178043
   00013_ARG    00018_LEU  0.20260949744246604
   00013_ARG    00071_ALA  0.047318027200982195
   00013_ARG    00080_THR  0.17842148367561503
   00013_ARG    00074_LEU  0.3065401380620497
   00013_ARG    00042_ALA  0.029017620211605432
   00013_ARG    00077_ALA  0.5488999507972248
   00013_ARG    00015_SER  0.12423604244164461
   00013_ARG    00017_GLY  0.08529356998269315
   00013_ARG    00044_LEU  0.03140358775666964
   00013_ARG    00076_ASN  0.2637170110199562
   00013_ARG    00079_GLN  0.42788958032862545
   00013_ARG    00058_ASN  0.2533036330765874
   00013_ARG    00078_GLY  0.3234131712812916
   00013_ARG    00014_GLY  14.621531895230667
   00013_ARG    00041_PRO  0.0180462657352558
   00013_ARG    00020_PHE  0.06458321145029747
   00014_GLY    00015_SER  41.509836173143725
   00014_GLY    00017_GLY  0.07200051338089965
   00014_GLY    00016_THR  0.04132019196907136
   00014_GLY    00081_VAL  0.0016544480513560988
   00014_GLY    00079_GLN  0.016080336982220736
   00014_GLY    00078_GLY  0.0027550341418645314
   00014_GLY    00041_PRO  0.03765641543239513
   00014_GLY    00018_LEU  0.008641847109033133
   00014_GLY    00080_THR  0.003689983839249786
   00014_GLY    00074_LEU  0.0010055006982298339
   00014_GLY    00077_ALA  0.0010030620640233041
   00015_SER    00017_GLY  0.040342429190972695
   00015_SER    00078_GLY  0.0014130532000129962
   00015_SER    00075_LYS  0.03886702542411952
   00015_SER    00016_THR  29.85212757595923
   00015_SER    00074_LEU  0.000748541025874094
   00015_SER    00079_GLN  0.006049072457934944
   00015_SER    00077_ALA  0.0006660306370566464
   00016_THR    00019_GLY  0.0065210574225966255
   00016_THR    00075_LYS  0.051897432323387525
   00016_THR    00039_GLY  0.017138207569921224
   00016_THR    00081_VAL  0.00028581269744220065
   00016_THR    00040_GLY  0.013291893724535158
   00016_THR    00037_LEU  0.006064791271150905
   00016_THR    00018_LEU  0.005614315408424999
   00016_THR    00074_LEU  0.0008659294865818184
   00016_THR    00017_GLY  17.458593248544638
   00016_THR    00044_LEU  0.0010190693190454247
   00016_THR    00079_GLN  0.0018247254148420077
   00016_THR    00041_PRO  0.0027833123150465076
   00017_GLY    00019_GLY  0.046679699309604215
   00017_GLY    00074_LEU  0.0013164929827863658
   00017_GLY    00075_LYS  0.022388428923950654
   00017_GLY    00081_VAL  0.0009893056384034237
   00017_GLY    00040_GLY  0.01395371947575242
   00017_GLY    00037_LEU  0.0033952637859637276
   00017_GLY    00018_LEU  20.805425626315454
   00017_GLY    00041_PRO  0.02871292309839876
   00017_GLY    00071_ALA  0.00031872570437090303
   00017_GLY    00042_ALA  0.0044340607938423175
   00017_GLY    00020_PHE  0.006741996085069914
   00018_LEU    00033_ILE  0.0006280821641867985
   00018_LEU    00036_ILE  0.0021853258555505914
   00018_LEU    00037_LEU  0.005511839656955303
   00018_LEU    00071_ALA  0.0007533481208911972
   00018_LEU    00082_THR  0.0013495489582769585
   00018_LEU    00021_ASN  0.0021626673961040238
   00018_LEU    00045_SER  0.005856786728924494
   00018_LEU    00044_LEU  0.0020861678829644935
   00018_LEU    00022_ILE  0.0009040317515557149
   00018_LEU    00076_ASN  0.001007452484543087
   00018_LEU    00043_ASP  0.0601236391879665
   00018_LEU    00047_GLU  0.037997017504253425
   00018_LEU    00070_ALA  0.0010670369902427146
   00018_LEU    00019_GLY  17.318019295029167
   00018_LEU    00048_LEU  0.0028930808614882125
   00018_LEU    00054_ILE  0.00035919498257036
   00018_LEU    00075_LYS  0.04268981760860053
   00018_LEU    00081_VAL  0.025019443467237522
   00018_LEU    00040_GLY  0.017629693764082254
   00018_LEU    00057_VAL  0.0008058522293110333
   00018_LEU    00073_ALA  0.00107070791526813
   00018_LEU    00083_ILE  0.001337583271137594
   00018_LEU    00042_ALA  0.10392131486786436
   00018_LEU    00074_LEU  0.05377528512443488
   00018_LEU    00058_ASN  0.0010402849573624903
   00018_LEU    00077_ALA  0.0013454128137198955
   00018_LEU    00080_THR  0.0018878571131327809
   00018_LEU    00079_GLN  0.00210944578786733
   00018_LEU    00078_GLY  0.0016844402741318203
   00018_LEU    00041_PRO  0.054780129671555836
   00018_LEU    00020_PHE  0.188387419036622
   00019_GLY    00048_LEU  0.002188655416221602
   00019_GLY    00039_GLY  0.002985194924388645
   00019_GLY    00033_ILE  0.0013859319164141728
   00019_GLY    00036_ILE  0.053725970107570374
   00019_GLY    00037_LEU  0.3727022515249699
   00019_GLY    00042_ALA  0.027765546448287704
   00019_GLY    00074_LEU  0.0009753413558851365
   00019_GLY    00021_ASN  0.011066858951547475
   00019_GLY    00038_ALA  0.0062540990017361485
   00019_GLY    00044_LEU  0.0016806537971464607
   00019_GLY    00022_ILE  0.0016418972115140515
   00019_GLY    00043_ASP  0.0532440342304368
   00019_GLY    00035_PHE  0.016843813171897478
   00019_GLY    00041_PRO  0.0032251024235869295
   00019_GLY    00020_PHE  18.45127939749475
   00019_GLY    00040_GLY  0.04030956749051411
   00020_PHE    00033_ILE  0.0541961274660208
   00020_PHE    00023_VAL  0.0013286338399406221
   00020_PHE    00085_ALA  0.000517317675350392
   00020_PHE    00036_ILE  0.0405330390292078
   00020_PHE    00037_LEU  0.043937502922496936
   00020_PHE    00082_THR  0.0007740943187233373
   00020_PHE    00021_ASN  19.07798549114754
   00020_PHE    00032_PHE  0.00232800968318475
   00020_PHE    00045_SER  0.0016746945676393088
   00020_PHE    00022_ILE  0.052453234935786304
   00020_PHE    00043_ASP  0.06011166575765745
   00020_PHE    00047_GLU  0.04131762745306916
   00020_PHE    00070_ALA  0.0016296056228189018
   00020_PHE    00049_ARG  0.0381588802321354
   00020_PHE    00048_LEU  0.01397764450158198
   00020_PHE    00054_ILE  0.0008726469594388215
   00020_PHE    00071_ALA  0.0008885275516932852
   00020_PHE    00081_VAL  0.0009271137225199812
   00020_PHE    00040_GLY  0.004139637221749222
   00020_PHE    00062_LEU  0.0002468578633882125
   00020_PHE    00057_VAL  0.0007275302498595011
   00020_PHE    00067_HID  0.0009104552227635722
   00020_PHE    00083_ILE  0.002928539471901596
   00020_PHE    00031_ILE  0.0007323599394109283
   00020_PHE    00034_SER  0.004301983576724607
   00020_PHE    00042_ALA  0.10644462962903604
   00020_PHE    00074_LEU  0.008029390382556704
   00020_PHE    00077_ALA  0.0005321816905621484
   00020_PHE    00050_LYS  0.05340475203289285
   00020_PHE    00052_ASP  0.07162393931572054
   00020_PHE    00041_PRO  0.0018062515266018
   00020_PHE    00035_PHE  0.021359158772149674
   00021_ASN    00048_LEU  0.0018530986819787943
   00021_ASN    00054_ILE  0.0007753560020360093
   00021_ASN    00071_ALA  0.001288966188769994
   00021_ASN    00092_TYR  0.005282005288394982
   00021_ASN    00033_ILE  0.032207592283469526
   00021_ASN    00034_SER  0.21000541713351653
   00021_ASN    00023_VAL  0.026846490720619603
   00021_ASN    00067_HID  0.004613430971704557
   00021_ASN    00036_ILE  0.016195382235322194
   00021_ASN    00024_GLY  0.0018737308159432707
   00021_ASN    00095_PHE  0.002837883696059635
   00021_ASN    00031_ILE  0.0019654987525288344
   00021_ASN    00098_NME  0.0002312140561135909
   00021_ASN    00037_LEU  0.010291935147254006
   00021_ASN    00074_LEU  0.0007620540524685733
   00021_ASN    00032_PHE  0.018002763649967234
   00021_ASN    00022_ILE  20.58915161651489
   00021_ASN    00050_LYS  0.25617496847309457
   00021_ASN    00097_ALA  0.0010480190328125635
   00021_ASN    00035_PHE  0.41369675702515457
   00022_ILE    00092_TYR  0.0020806147057184647
   00022_ILE    00025_GLY  0.000913341863662334
   00022_ILE    00033_ILE  0.047656307695578735
   00022_ILE    00023_VAL  14.290124489306486
   00022_ILE    00036_ILE  0.0012460815964763733
   00022_ILE    00024_GLY  0.005905020365230776
   00022_ILE    00065_ALA  0.0006004914585283614
   00022_ILE    00053_GLN  0.0021305171511137376
   00022_ILE    00032_PHE  0.0720833300225422
   00022_ILE    00070_ALA  0.009109027415170744
   00022_ILE    00072_ILE  0.0006432338399950259
   00022_ILE    00068_GLU  0.05463167658641055
   00022_ILE    00048_LEU  0.0006143707331947036
   00022_ILE    00054_ILE  0.0020826229959706732
   00022_ILE    00071_ALA  0.002834704198538382
   00022_ILE    00030_GLY  0.00152667846436635
   00022_ILE    00066_SER  0.0016513875649449066
   00022_ILE    00057_VAL  0.0005592553369258937
   00022_ILE    00067_HID  0.024923996091931543
   00022_ILE    00073_ALA  0.0004172533586559667
   00022_ILE    00083_ILE  0.0002283038704076946
   00022_ILE    00031_ILE  0.02054761379321084
   00022_ILE    00069_GLN  0.0017864464616731027
   00022_ILE    00034_SER  0.028876269584041738
   00022_ILE    00074_LEU  0.004006670663840762
   00022_ILE    00062_LEU  0.0005404867844739069
   00022_ILE    00052_ASP  0.04795083963154602
   00022_ILE    00035_PHE  0.005966390852718297
   00023_VAL    00054_ILE  0.0013306420381810863
   00023_VAL    00030_GLY  0.018334418607971335
   00023_VAL    00092_TYR  0.007867244509277452
   00023_VAL    00025_GLY  0.006594562838598347
   00023_VAL    00033_ILE  0.009141815243208588
   00023_VAL    00098_NME  0.00019228190233213827
   00023_VAL    00051_GLY  0.0009944558198866143
   00023_VAL    00067_HID  0.02325059542331193
   00023_VAL    00097_ALA  0.0008717419111436067
   00023_VAL    00029_GLU  0.04761243141635352
   00023_VAL    00095_PHE  0.02733938687365921
   00023_VAL    00031_ILE  0.03585412466453417
   00023_VAL    00034_SER  0.04278120363627564
   00023_VAL    00024_GLY  11.05125404720475
   00023_VAL    00065_ALA  0.0011316503877317685
   00023_VAL    00053_GLN  0.00460802620860244
   00023_VAL    00032_PHE  0.16736691577512616
   00023_VAL    00035_PHE  0.002292937568236647
   00023_VAL    00068_GLU  0.053650095431685633
   00023_VAL    00094_ARG  0.06357503730254808
   00023_VAL    00050_LYS  0.06565820608449394
   00023_VAL    00052_ASP  0.05715119024084559
   00023_VAL    00070_ALA  0.0012281056234264033
   00023_VAL    00066_SER  0.002162884607820037
   00023_VAL    00026_GLU  0.05601205538269695
   00023_VAL    00096_GLU  0.06662641967940397
   00024_GLY    00095_PHE  0.019620541913069698
   00024_GLY    00030_GLY  0.053430170353189296
   00024_GLY    00092_TYR  0.0012558759838273955
   00024_GLY    00025_GLY  9.651456309888763
   00024_GLY    00026_GLU  0.09080007820650654
   00024_GLY    00028_GLY  0.0015256136102081365
   00024_GLY    00067_HID  0.08728876392927759
   00024_GLY    00029_GLU  0.04525783098709265
   00024_GLY    00031_ILE  0.03266373092164082
   00024_GLY    00069_GLN  0.0014415129298922856
   00024_GLY    00034_SER  0.0013192017001284885
   00024_GLY    00065_ALA  0.0029192385420064504
   00024_GLY    00053_GLN  0.0032310268063643994
   00024_GLY    00032_PHE  0.011726300877942379
   00024_GLY    00094_ARG  0.04832909046809068
   00024_GLY    00070_ALA  0.0008987449738369946
   00024_GLY    00068_GLU  0.039262499959610855
   00024_GLY    00066_SER  0.005495728086475943
   00025_GLY    00095_PHE  0.015223945395796716
   00025_GLY    00064_ASN  0.008016954357294579
   00025_GLY    00030_GLY  0.10701171813844125
   00025_GLY    00066_SER  0.012615071480656088
   00025_GLY    00028_GLY  0.012524646211621908
   00025_GLY    00067_HID  0.030121774365397244
   00025_GLY    00029_GLU  0.1500224086833955
   00025_GLY    00031_ILE  0.006146318373356611
   00025_GLY    00069_GLN  0.002026209555110285
   00025_GLY    00065_ALA  0.018460477696633962
   00025_GLY    00053_GLN  0.003420389368898644
   00025_GLY    00062_LEU  0.0021037450368799927
   00025_GLY    00063_ARG  0.021061137029974704
   00025_GLY    00094_ARG  0.06435949285348011
   00025_GLY    00027_ASP  0.07852871242624071
   00025_GLY    00032_PHE  0.0007038364054106589
   00025_GLY    00068_GLU  0.030557943548505367
   00025_GLY    00026_GLU  13.05874380997664
   00025_GLY    00070_ALA  0.0005506071317518597
   00026_GLU    00095_PHE  0.0681301968619964
   00026_GLU    00064_ASN  0.1340167158214687
   00026_GLU    00030_GLY  0.11315081073472516
   00026_GLU    00066_SER  0.388242740624377
   00026_GLU    00028_GLY  0.22546215376662054
   00026_GLU    00067_HID  0.29365562570819975
   00026_GLU    00029_GLU  0.6884305271078462
   00026_GLU    00031_ILE  0.05821434083692335
   00026_GLU    00069_GLN  0.13762063582370526
   00026_GLU    00065_ALA  0.13255049635830976
   00026_GLU    00032_PHE  0.06284107457346697
   00026_GLU    00094_ARG  0.4094849674690381
   00026_GLU    00027_ASP  13.7326947964064
   00026_GLU    00068_GLU  0.2151059724947261
   00027_ASP    00064_ASN  0.3234107323436723
   00027_ASP    00030_GLY  0.05556572551315219
   00027_ASP    00063_ARG  0.2805541592114327
   00027_ASP    00066_SER  0.13893852583179314
   00027_ASP    00094_ARG  0.35914538896120896
   00027_ASP    00028_GLY  13.131212898455663
   00027_ASP    00067_HID  0.08820053381008018
   00027_ASP    00029_GLU  0.3213918666711092
   00027_ASP    00069_GLN  0.1294276302210489
   00027_ASP    00065_ALA  0.08894598258061488
   00028_GLY    00064_ASN  0.03903272168621442
   00028_GLY    00030_GLY  0.040702996730606414
   00028_GLY    00063_ARG  0.035994274014547106
   00028_GLY    00066_SER  0.0019312394649405136
   00028_GLY    00094_ARG  0.11272802526442055
   00028_GLY    00067_HID  0.001258819816753868
   00028_GLY    00029_GLU  13.638786942941152
   00028_GLY    00031_ILE  0.0018453651755454316
   00028_GLY    00032_PHE  0.001554285212150809
   00028_GLY    00069_GLN  0.0006002053279761518
   00028_GLY    00088_LYS  0.053259943050323735
   00028_GLY    00065_ALA  0.004995942907519785
   00028_GLY    00053_GLN  0.014269125455247902
   00028_GLY    00062_LEU  0.0015801355919410056
   00029_GLU    00095_PHE  0.12143034089581708
   00029_GLU    00064_ASN  0.13800071187077595
   00029_GLU    00030_GLY  15.328337159893637
   00029_GLU    00066_SER  0.06590201687232704
   00029_GLU    00067_HID  0.07255265159196202
   00029_GLU    00031_ILE  0.05835564300924292
   00029_GLU    00088_LYS  0.20543384098540746
   00029_GLU    00065_ALA  0.034622526111345045
   00029_GLU    00053_GLN  0.23498701997906873
   00029_GLU    00062_LEU  0.03463132231662174
   00029_GLU    00063_ARG  0.18763400178026066
   00029_GLU    00094_ARG  1.5056528017873043
   00029_GLU    00086_GLN  0.08675890757197866
   00029_GLU    00032_PHE  0.10275939975185924
   00029_GLU    00055_LEU  0.03616762983968432
   00029_GLU    00091_GLU  0.25294170427964296
   00030_GLY    00054_ILE  0.004229057626935086
   00030_GLY    00064_ASN  0.009139752506238493
   00030_GLY    00092_TYR  0.002817389460182786
   00030_GLY    00066_SER  0.004578567211508028
   00030_GLY    00067_HID  0.0071668819122205595
   00030_GLY    00095_PHE  0.01409976098426525
   00030_GLY    00031_ILE  15.035680767913599
   00030_GLY    00088_LYS  0.06543524108752598
   00030_GLY    00065_ALA  0.006819800244581967
   00030_GLY    00053_GLN  0.05832319256855516
   00030_GLY    00032_PHE  0.04202316941055538
   00030_GLY    00063_ARG  0.032951340091809625
   00030_GLY    00094_ARG  0.14942092549510544
   00030_GLY    00086_GLN  0.0017602007761871384
   00030_GLY    00062_LEU  0.003947231772129012
   00030_GLY    00055_LEU  0.0014384777435721338
   00030_GLY    00091_GLU  0.05611779923053709
   00030_GLY    00070_ALA  0.001123317440765373
   00031_ILE    00064_ASN  0.003388706909367246
   00031_ILE    00092_TYR  0.002326205111571815
   00031_ILE    00033_ILE  0.007457925130188735
   00031_ILE    00054_ILE  0.07433370697925817
   00031_ILE    00055_LEU  0.004130225077533936
   00031_ILE    00088_LYS  0.0803550513284825
   00031_ILE    00065_ALA  0.0630719125060683
   00031_ILE    00053_GLN  0.10466258943019259
   00031_ILE    00032_PHE  12.6447964202802
   00031_ILE    00070_ALA  0.011494284949364232
   00031_ILE    00068_GLU  0.039298962649346375
   00031_ILE    00095_PHE  0.0033859965582115777
   00031_ILE    00071_ALA  0.0006822496062512145
   00031_ILE    00066_SER  0.01108890541756844
   00031_ILE    00057_VAL  0.0008984910834827547
   00031_ILE    00067_HID  0.06493191185707273
   00031_ILE    00073_ALA  0.0002996053585434095
   00031_ILE    00083_ILE  0.0004999670521841608
   00031_ILE    00069_GLN  0.0018919419426478702
   00031_ILE    00034_SER  0.0019860341096839453
   00031_ILE    00074_LEU  0.0005279522066644164
   00031_ILE    00062_LEU  0.10694561619099434
   00031_ILE    00056_SER  0.0023678991175096194
   00031_ILE    00063_ARG  0.05036573663335901
   00031_ILE    00094_ARG  0.08040706658296591
   00031_ILE    00052_ASP  0.07099917396465957
   00031_ILE    00061_ASP  0.04823182642706436
   00032_PHE    00095_PHE  0.05456941488088768
   00032_PHE    00088_LYS  0.15526951766021896
   00032_PHE    00092_TYR  0.08431429051560103
   00032_PHE    00033_ILE  15.953449566695616
   00032_PHE    00051_GLY  0.015562802138809725
   00032_PHE    00090_GLU  0.042694917438401675
   00032_PHE    00067_HID  0.003890792215191242
   00032_PHE    00085_ALA  0.0009807809359278115
   00032_PHE    00054_ILE  0.0133013583735623
   00032_PHE    00055_LEU  0.0017054106839895357
   00032_PHE    00034_SER  0.034805789460312674
   00032_PHE    00091_GLU  0.10567549465766572
   00032_PHE    00065_ALA  0.0010891783172278509
   00032_PHE    00053_GLN  0.11555143464278973
   00032_PHE    00035_PHE  0.004222113092996998
   00032_PHE    00066_SER  0.001168448651963283
   00032_PHE    00087_TYR  0.0020580283692527455
   00032_PHE    00094_ARG  0.1353984624943272
   00032_PHE    00063_ARG  0.0483045621844896
   00032_PHE    00086_GLN  0.00506842994010013
   00032_PHE    00050_LYS  0.08468166871914669
   00032_PHE    00052_ASP  0.2054829515795738
   00032_PHE    00089_PRO  0.001335955754637188
   00032_PHE    00049_ARG  0.04595982987838371
   00032_PHE    00093_SER  0.0030187703892701687
   00032_PHE    00096_GLU  0.06564234450578517
   00033_ILE    00084_ILE  0.0007681666373721434
   00033_ILE    00048_LEU  0.03713728071736591
   00033_ILE    00054_ILE  0.017294897559080983
   00033_ILE    00092_TYR  0.02122001073333051
   00033_ILE    00051_GLY  0.05723394373892685
   00033_ILE    00085_ALA  0.0006731491742832446
   00033_ILE    00036_ILE  0.02588904190228704
   00033_ILE    00083_ILE  0.0004242101218096187
   00033_ILE    00034_SER  12.883665024939756
   00033_ILE    00037_LEU  0.0006870149243818149
   00033_ILE    00042_ALA  0.000778697502754471
   00033_ILE    00074_LEU  0.0003264568111025261
   00033_ILE    00053_GLN  0.01354675791884734
   00033_ILE    00049_ARG  0.11078683802288193
   00033_ILE    00057_VAL  0.00024743814608096655
   00033_ILE    00087_TYR  0.0025146992671832348
   00033_ILE    00095_PHE  0.002094350380377895
   00033_ILE    00086_GLN  0.0021799338809388013
   00033_ILE    00050_LYS  0.17038511874089923
   00033_ILE    00052_ASP  0.2617866098539814
   00033_ILE    00070_ALA  0.0004906575662055925
   00033_ILE    00035_PHE  0.047328468217182354
   00033_ILE    00096_GLU  0.07016091454396643
   00034_SER    00095_PHE  0.006973987685318558
   00034_SER    00092_TYR  0.094007520718275
   00034_SER    00051_GLY  0.004776153748208248
   00034_SER    00036_ILE  0.006270585958909913
   00034_SER    00052_ASP  0.09842138494635115
   00034_SER    00096_GLU  0.24143514940303387
   00034_SER    00054_ILE  0.0006663803907971078
   00034_SER    00098_NME  0.0003962181141245879
   00034_SER    00050_LYS  0.40634718124057895
   00034_SER    00097_ALA  0.0015960231453615984
   00034_SER    00049_ARG  0.07283200730238683
   00034_SER    00035_PHE  15.388924264628239
   00035_PHE    00038_ALA  0.0021383994487322983
   00035_PHE    00048_LEU  0.0026932859353623597
   00035_PHE    00092_TYR  0.005342026688659321
   00035_PHE    00051_GLY  0.0026495494196168
   00035_PHE    00050_LYS  0.1718220190989077
   00035_PHE    00098_NME  8.994262550459961e-05
   00035_PHE    00037_LEU  0.04444665554277727
   00035_PHE    00042_ALA  0.00233336956014254
   00035_PHE    00036_ILE  18.70822973254886
   00035_PHE    00097_ALA  0.0004383515443603283
   00035_PHE    00049_ARG  0.06976179078045561
   00035_PHE    00096_GLU  0.10092946117214856
   00036_ILE    00046_GLY  0.000986273689910111
   00036_ILE    00048_LEU  0.022770746002241122
   00036_ILE    00054_ILE  0.00017506946942089102
   00036_ILE    00039_GLY  0.0016745664538705713
   00036_ILE    00040_GLY  0.0030416483665493804
   00036_ILE    00051_GLY  0.0009216477855020562
   00036_ILE    00037_LEU  13.439078169409735
   00036_ILE    00042_ALA  0.03041974927530107
   00036_ILE    00047_GLU  0.03121270447172046
   00036_ILE    00038_ALA  0.013877583877244384
   00036_ILE    00045_SER  0.0015151439390276363
   00036_ILE    00044_LEU  0.0014352052655190993
   00036_ILE    00043_ASP  0.11646291156908403
   00036_ILE    00050_LYS  0.10037783476618858
   00036_ILE    00052_ASP  0.05717571300435369
   00036_ILE    00041_PRO  0.0008170560634706374
   00036_ILE    00049_ARG  0.1124954970940622
   00037_LEU    00038_ALA  8.939019850539683
   00037_LEU    00044_LEU  0.0034586060666343264
   00037_LEU    00039_GLY  0.014194004586060118
   00037_LEU    00040_GLY  0.045610776471694356
   00037_LEU    00043_ASP  0.12486193140851297
   00037_LEU    00041_PRO  0.0016484384661336845
   00037_LEU    00042_ALA  0.0058947541963092175
   00038_ALA    00044_LEU  0.004568072703552979
   00038_ALA    00039_GLY  20.12142330478473
   00038_ALA    00040_GLY  0.17665816357091618
   00038_ALA    00043_ASP  0.2136841610543404
   00038_ALA    00042_ALA  0.002966013124246886
   00039_GLY    00044_LEU  0.004591752616875738
   00039_GLY    00040_GLY  24.837431600762233
   00039_GLY    00043_ASP  0.48571014021512837
   00039_GLY    00041_PRO  0.0061492122653206294
   00039_GLY    00042_ALA  0.003697808575083712
   00040_GLY    00046_GLY  0.002572495305468385
   00040_GLY    00045_SER  0.01629528968969767
   00040_GLY    00044_LEU  0.10066306293372282
   00040_GLY    00043_ASP  0.2633835456797959
   00040_GLY    00041_PRO  22.412492464845737
   00040_GLY    00042_ALA  0.08640199334585132
   00041_PRO    00046_GLY  0.007719247176175249
   00041_PRO    00048_LEU  0.003517652763643997
   00041_PRO    00045_SER  0.481007064912438
   00041_PRO    00044_LEU  0.038096074073999876
   00041_PRO    00081_VAL  0.001049934575957049
   00041_PRO    00043_ASP  0.0642372470454874
   00041_PRO    00083_ILE  0.0005464210929489298
   00041_PRO    00042_ALA  26.68271043428596
   00041_PRO    00074_LEU  0.00034019058487571674
   00041_PRO    00047_GLU  0.02166715565080175
   00042_ALA    00046_GLY  0.056209329801964754
   00042_ALA    00048_LEU  0.0453725989400805
   00042_ALA    00045_SER  0.057287710115068315
   00042_ALA    00044_LEU  0.018322746642925936
   00042_ALA    00081_VAL  0.0008820486881919098
   00042_ALA    00043_ASP  22.476283126585923
   00042_ALA    00047_GLU  0.05589746888934405
   00042_ALA    00083_ILE  0.0006293235450023214
   00042_ALA    00049_ARG  0.031005902794618817
   00043_ASP    00046_GLY  0.16483526572968804
   00043_ASP    00048_LEU  0.11444473025248582
   00043_ASP    00045_SER  0.22006427260912584
   00043_ASP    00044_LEU  23.985889774685326
   00043_ASP    00049_ARG  0.516366040099686
   00043_ASP    00047_GLU  0.20228338793585035
   00044_LEU    00046_GLY  0.027526502115535183
   00044_LEU    00045_SER  19.193331444526972
   00044_LEU    00047_GLU  0.061783590958466646
   00045_SER    00046_GLY  26.64700932983167
   00045_SER    00048_LEU  0.009782259992402944
   00045_SER    00047_GLU  0.27718609724686716
   00045_SER    00083_ILE  0.0010599010635962056
   00045_SER    00049_ARG  0.06917742454538019
   00046_GLY    00048_LEU  0.06093334942227008
   00046_GLY    00047_GLU  16.475583096204332
   00046_GLY    00049_ARG  0.05514147188067553
   00047_GLU    00048_LEU  13.882879962316036
   00047_GLU    00087_TYR  0.1042325492834323
   00047_GLU    00085_ALA  0.06596342484589583
   00047_GLU    00052_ASP  0.21340867075433925
   00047_GLU    00083_ILE  0.06385051678891716
   00047_GLU    00049_ARG  0.5163278667194682
   00048_LEU    00084_ILE  0.0014669839892717032
   00048_LEU    00054_ILE  0.003208128870449275
   00048_LEU    00081_VAL  0.0007167907332186167
   00048_LEU    00057_VAL  0.00039275042216445176
   00048_LEU    00085_ALA  0.007742791770941052
   00048_LEU    00083_ILE  0.012752872499074702
   00048_LEU    00055_LEU  0.000524968082213997
   00048_LEU    00074_LEU  0.0004024478627860473
   00048_LEU    00082_THR  0.0010046381944109005
   00048_LEU    00053_GLN  0.0028333795301660573
   00048_LEU    00087_TYR  0.0030748553805056244
   00048_LEU    00086_GLN  0.00247676080841244
   00048_LEU    00050_LYS  0.05171433478185908
   00048_LEU    00052_ASP  0.31226332177162186
   00048_LEU    00049_ARG  11.16102613327524
   00049_ARG    00054_ILE  0.028120903530070983
   00049_ARG    00088_LYS  0.3712581270060903
   00049_ARG    00087_TYR  0.5128094085721494
   00049_ARG    00092_TYR  0.10025055846687496
   00049_ARG    00086_GLN  0.1779206126338877
   00049_ARG    00051_GLY  0.0875718573734557
   00049_ARG    00085_ALA  0.0481876338198326
   00049_ARG    00050_LYS  13.568892747572026
   00049_ARG    00052_ASP  1.6210943086519842
   00049_ARG    00089_PRO  0.024350779225915907
   00049_ARG    00053_GLN  0.12612134578264897
   00050_LYS    00095_PHE  0.08739292711965319
   00050_LYS    00088_LYS  0.20611463928279214
   00050_LYS    00087_TYR  0.15521076177432502
   00050_LYS    00092_TYR  0.6068590457216564
   00050_LYS    00097_ALA  0.06949944213002475
   00050_LYS    00051_GLY  20.61743204311014
   00050_LYS    00052_ASP  0.40811385638357944
   00050_LYS    00098_NME  0.036338478565760834
   00050_LYS    00089_PRO  0.02714136245625137
   00050_LYS    00093_SER  0.11715637441354326
   00050_LYS    00096_GLU  1.4715081525735099
   00051_GLY    00095_PHE  0.0014584395136486969
   00051_GLY    00088_LYS  0.09817600510980465
   00051_GLY    00092_TYR  0.06882531955337963
   00051_GLY    00090_GLU  0.039223946942604955
   00051_GLY    00053_GLN  0.021766021256940413
   00051_GLY    00087_TYR  0.02385925836718324
   00051_GLY    00089_PRO  0.010441497866492813
   00051_GLY    00086_GLN  0.01093666042310671
   00051_GLY    00052_ASP  15.252848429156531
   00051_GLY    00091_GLU  0.03765929632544496
   00051_GLY    00093_SER  0.002437925482774927
   00051_GLY    00096_GLU  0.06965267433578318
   00052_ASP    00084_ILE  0.05307500121421844
   00052_ASP    00054_ILE  0.0938704632904025
   00052_ASP    00088_LYS  0.37444341309112156
   00052_ASP    00087_TYR  0.36784652371944093
   00052_ASP    00092_TYR  0.13826131691965993
   00052_ASP    00086_GLN  0.3359137765682794
   00052_ASP    00085_ALA  0.11232808498221218
   00052_ASP    00083_ILE  0.052439651383184085
   00052_ASP    00055_LEU  0.06817415238615183
   00052_ASP    00089_PRO  0.025515764311537247
   00052_ASP    00053_GLN  11.615574859283154
   00053_GLN    00084_ILE  0.01204321407914734
   00053_GLN    00054_ILE  12.913690355261771
   00053_GLN    00064_ASN  0.020277683549826342
   00053_GLN    00092_TYR  0.0070157141971014855
   00053_GLN    00085_ALA  0.05652954998347588
   00053_GLN    00095_PHE  0.0037593112471083242
   00053_GLN    00055_LEU  0.09560798720042558
   00053_GLN    00088_LYS  1.0911545678606076
   00053_GLN    00065_ALA  0.006485268028117469
   00053_GLN    00091_GLU  0.2530744824972972
   00053_GLN    00062_LEU  0.022837537669149047
   00053_GLN    00056_SER  0.009246733266115765
   00053_GLN    00087_TYR  0.01328487588925077
   00053_GLN    00063_ARG  0.40619022462951443
   00053_GLN    00094_ARG  0.3957641295063934
   00053_GLN    00086_GLN  0.13418386804730717
   00053_GLN    00083_ILE  0.0033641971086080264
   00053_GLN    00089_PRO  0.002302637200831821
   00054_ILE    00084_ILE  0.012519304831855874
   00054_ILE    00064_ASN  0.0035874660298217806
   00054_ILE    00081_VAL  0.00036787700446799635
   00054_ILE    00071_ALA  0.0005398090750156732
   00054_ILE    00057_VAL  0.008660863064186534
   00054_ILE    00067_HID  0.001832695363067599
   00054_ILE    00085_ALA  0.01985341938389744
   00054_ILE    00073_ALA  0.0006070117081504126
   00054_ILE    00083_ILE  0.02022655144205945
   00054_ILE    00055_LEU  8.258967219342887
   00054_ILE    00088_LYS  0.0748897667540155
   00054_ILE    00074_LEU  0.0007348323714862026
   00054_ILE    00082_THR  0.001182703831065659
   00054_ILE    00062_LEU  0.05998332140695098
   00054_ILE    00056_SER  0.03045416068006379
   00054_ILE    00065_ALA  0.002263020465306701
   00054_ILE    00060_VAL  0.0018862268212403515
   00054_ILE    00063_ARG  0.06879106189103597
   00054_ILE    00086_GLN  0.008630600402056222
   00054_ILE    00070_ALA  0.0017046595210933044
   00054_ILE    00061_ASP  0.05620361887765185
   00055_LEU    00084_ILE  0.07951941204372774
   00055_LEU    00064_ASN  0.005864109447863101
   00055_LEU    00088_LYS  0.13123705918245643
   00055_LEU    00057_VAL  0.007675112551153851
   00055_LEU    00085_ALA  0.027434021014921768
   00055_LEU    00083_ILE  0.0031299075480419655
   00055_LEU    00059_GLY  0.0022789672484012087
   00055_LEU    00065_ALA  0.0019490326714358857
   00055_LEU    00062_LEU  0.06569613288172983
   00055_LEU    00056_SER  20.385169935112557
   00055_LEU    00087_TYR  0.0018108210179482195
   00055_LEU    00060_VAL  0.007294146459641778
   00055_LEU    00063_ARG  0.23519076193789176
   00055_LEU    00086_GLN  0.04232492816350682
   00055_LEU    00061_ASP  0.13711496302720408
   00056_SER    00084_ILE  0.07605879716678969
   00056_SER    00059_GLY  0.05990200650042842
   00056_SER    00081_VAL  0.002057195196693477
   00056_SER    00057_VAL  14.64262733793479
   00056_SER    00085_ALA  0.005258672362232983
   00056_SER    00073_ALA  0.0029340750680403207
   00056_SER    00083_ILE  0.016604973183529555
   00056_SER    00074_LEU  0.0025425485776775464
   00056_SER    00082_THR  0.014178191386765416
   00056_SER    00058_ASN  0.02412375276732947
   00056_SER    00062_LEU  0.019621974482680927
   00056_SER    00060_VAL  0.17390889962414086
   00056_SER    00063_ARG  0.1511982565974857
   00056_SER    00086_GLN  0.002141605241018542
   00056_SER    00070_ALA  0.0026682329048706467
   00056_SER    00061_ASP  0.20709423346451541
   00057_VAL    00084_ILE  0.009698166189863551
   00057_VAL    00059_GLY  0.05825535293714745
   00057_VAL    00081_VAL  0.008399619822824686
   00057_VAL    00061_ASP  0.09691436978244922
   00057_VAL    00085_ALA  0.0012088748765254937
   00057_VAL    00073_ALA  0.0391583196244648
   00057_VAL    00083_ILE  0.1720825918122399
   00057_VAL    00069_GLN  0.008491517611793927
   00057_VAL    00071_ALA  0.0016197380075338966
   00057_VAL    00080_THR  0.0011859784549814636
   00057_VAL    00074_LEU  0.05240568477558844
   00057_VAL    00082_THR  0.023216696203132624
   00057_VAL    00058_ASN  19.584494191520246
   00057_VAL    00062_LEU  0.07851630616563289
   00057_VAL    00065_ALA  0.0009092101061079518
   00057_VAL    00060_VAL  0.19880989112038144
   00057_VAL    00063_ARG  0.0549793785371195
   00057_VAL    00076_ASN  0.0055007519609253635
   00057_VAL    00078_GLY  0.0011741602289173086
   00057_VAL    00077_ALA  0.0019859144391042734
   00057_VAL    00072_ILE  0.0026642287289908987
   00057_VAL    00075_LYS  0.04416308192661228
   00057_VAL    00070_ALA  0.008652521235575257
   00058_ASN    00084_ILE  0.0020695007768269484
   00058_ASN    00075_LYS  0.19281781994911285
   00058_ASN    00081_VAL  0.01794444791905984
   00058_ASN    00073_ALA  0.13973172902039324
   00058_ASN    00083_ILE  0.008160805012236925
   00058_ASN    00059_GLY  15.963452376681156
   00058_ASN    00080_THR  0.007895785140220444
   00058_ASN    00074_LEU  0.010471272394072998
   00058_ASN    00082_THR  0.07323859302471064
   00058_ASN    00077_ALA  0.08832827884281286
   00058_ASN    00060_VAL  0.07178259171507101
   00058_ASN    00076_ASN  0.33446170584386503
   00058_ASN    00079_GLN  0.004492365789760024
   00058_ASN    00078_GLY  0.019457614871892168
   00058_ASN    00062_LEU  0.0013011777182153096
   00058_ASN    00072_ILE  0.015970077542208732
   00058_ASN    00070_ALA  0.003324241946594833
   00059_GLY    00084_ILE  0.0011319230446130706
   00059_GLY    00060_VAL  10.815632080001652
   00059_GLY    00081_VAL  0.0009181307214879267
   00059_GLY    00076_ASN  0.0029452652700466164
   00059_GLY    00073_ALA  0.001934091636483536
   00059_GLY    00083_ILE  0.002857101143258261
   00059_GLY    00062_LEU  0.0018899754752364822
   00059_GLY    00061_ASP  0.08103659235332226
   00059_GLY    00082_THR  0.011678632975958114
   00059_GLY    00077_ALA  0.0005151947188495203
   00059_GLY    00063_ARG  0.040090508521887495
   00060_VAL    00084_ILE  0.001718950335685146
   00060_VAL    00072_ILE  0.0026355330126074062
   00060_VAL    00073_ALA  0.059533675004556974
   00060_VAL    00083_ILE  0.0014090978965738883
   00060_VAL    00069_GLN  0.08935932853047542
   00060_VAL    00065_ALA  0.0019571710314880593
   00060_VAL    00082_THR  0.0033500580772142536
   00060_VAL    00062_LEU  0.07094423656908687
   00060_VAL    00074_LEU  0.002157321073736535
   00060_VAL    00063_ARG  0.07042603844001934
   00060_VAL    00076_ASN  0.004757767269737284
   00060_VAL    00077_ALA  0.001081169599715395
   00060_VAL    00061_ASP  23.282170331674525
   00060_VAL    00070_ALA  0.002975815062920325
   00061_ASP    00084_ILE  0.05269810915978569
   00061_ASP    00064_ASN  0.5307258517902289
   00061_ASP    00063_ARG  1.9724405723667295
   00061_ASP    00073_ALA  0.04416862543866896
   00061_ASP    00070_ALA  0.051257785666461754
   00061_ASP    00069_GLN  0.36926449564390934
   00061_ASP    00065_ALA  0.1253984118073624
   00061_ASP    00062_LEU  13.864397160617441
   00062_LEU    00084_ILE  0.0019117551607846833
   00062_LEU    00064_ASN  0.07907509806844275
   00062_LEU    00066_SER  0.006597262599308644
   00062_LEU    00067_HID  0.0036085095043316695
   00062_LEU    00073_ALA  0.0014932544446027993
   00062_LEU    00083_ILE  0.0007981715945095546
   00062_LEU    00069_GLN  0.0233504370579661
   00062_LEU    00071_ALA  0.0012805143836798116
   00062_LEU    00065_ALA  0.08322169470019268
   00062_LEU    00074_LEU  0.0010967048204506636
   00062_LEU    00063_ARG  18.097798023454917
   00062_LEU    00070_ALA  0.04565369876030867
   00062_LEU    00072_ILE  0.0009345668563538821
   00062_LEU    00068_GLU  0.04468217860076272
   00063_ARG    00084_ILE  0.07516466852488274
   00063_ARG    00065_ALA  0.09817393337764543
   00063_ARG    00088_LYS  0.8134312673325901
   00063_ARG    00064_ASN  16.3872666026508
   00063_ARG    00086_GLN  0.24953315269399276
   00063_ARG    00091_GLU  0.30205279818134595
   00064_ASN    00069_GLN  0.008701255879832425
   00064_ASN    00066_SER  0.020154840392106566
   00064_ASN    00065_ALA  11.416504599897822
   00065_ALA    00071_ALA  0.0010212177455916588
   00065_ALA    00066_SER  14.331588031588662
   00065_ALA    00067_HID  0.019935707342790637
   00065_ALA    00073_ALA  0.0007117106892147042
   00065_ALA    00070_ALA  0.0030847838402588306
   00065_ALA    00069_GLN  0.057806532416023806
   00065_ALA    00068_GLU  0.03832504363387827
   00066_SER    00071_ALA  0.003798490191269244
   00066_SER    00067_HID  13.096675304263915
   00066_SER    00070_ALA  0.024188571299580307
   00066_SER    00069_GLN  0.24467168920324403
   00066_SER    00072_ILE  0.003256461923559442
   00066_SER    00068_GLU  0.3182376553820866
   00067_HID    00095_PHE  0.0026633063215108907
   00067_HID    00071_ALA  0.013064250851537984
   00067_HID    00073_ALA  0.0020019070635607186
   00067_HID    00070_ALA  0.047622017371745595
   00067_HID    00069_GLN  0.06122656248848059
   00067_HID    00072_ILE  0.0044478560653281474
   00067_HID    00074_LEU  0.0016949609743790927
   00067_HID    00068_GLU  11.860774271477055
   00068_GLU    00071_ALA  0.13330104922623642
   00068_GLU    00073_ALA  0.08167614754493653
   00068_GLU    00070_ALA  0.12753246808198576
   00068_GLU    00069_GLN  13.628191135216515
   00068_GLU    00072_ILE  0.20300315897423
   00068_GLU    00075_LYS  0.4828197574368665
   00068_GLU    00074_LEU  0.08183195575394463
   00069_GLN    00075_LYS  0.16595822892990159
   00069_GLN    00076_ASN  0.011231144353426453
   00069_GLN    00073_ALA  0.04266575661203178
   00069_GLN    00070_ALA  14.693192493709546
   00069_GLN    00072_ILE  0.07011300562395963
   00069_GLN    00071_ALA  0.0368915464854682
   00069_GLN    00074_LEU  0.01230023345465585
   00070_ALA    00075_LYS  0.05920399839690859
   00070_ALA    00076_ASN  0.0023255228478344307
   00070_ALA    00073_ALA  0.029370861468655137
   00070_ALA    00083_ILE  0.0006750314352798443
   00070_ALA    00072_ILE  0.025843821882164896
   00070_ALA    00071_ALA  15.353680100001412
   00070_ALA    00074_LEU  0.21232029318502216
   00071_ALA    00075_LYS  0.22001039796405228
   00071_ALA    00076_ASN  0.007598000324478795
   00071_ALA    00073_ALA  0.02651449154163798
   00071_ALA    00072_ILE  24.436747325250646
   00071_ALA    00074_LEU  0.048682710614591534
   00071_ALA    00077_ALA  0.0013293779991084415
   00072_ILE    00075_LYS  0.20993181792689958
   00072_ILE    00076_ASN  0.08550855911157057
   00072_ILE    00073_ALA  17.24906969847814
   00072_ILE    00074_LEU  0.029212884670515384
   00072_ILE    00077_ALA  0.0044483995822922244
   00073_ALA    00075_LYS  0.13714035448181064
   00073_ALA    00081_VAL  0.0016776012022366217
   00073_ALA    00076_ASN  0.06015927847552935
   00073_ALA    00078_GLY  0.0016549965899511209
   00073_ALA    00074_LEU  16.861802577172202
   00073_ALA    00077_ALA  0.03662313390548565
   00074_LEU    00084_ILE  0.00044465567209426606
   00074_LEU    00075_LYS  19.457725160247012
   00074_LEU    00081_VAL  0.013214599322420216
   00074_LEU    00076_ASN  0.06932580369002982
   00074_LEU    00079_GLN  0.001681840141075771
   00074_LEU    00078_GLY  0.0037312052969461214
   00074_LEU    00083_ILE  0.001383565743727343
   00074_LEU    00082_THR  0.002321557276099091
   00074_LEU    00080_THR  0.0015506683898817686
   00074_LEU    00077_ALA  0.13248984122497076
   00075_LYS    00078_GLY  0.03045253871264325
   00075_LYS    00081_VAL  0.03011452953526007
   00075_LYS    00076_ASN  22.720068105590247
   00075_LYS    00077_ALA  0.17261296884868108
   00076_ASN    00078_GLY  0.02274664755094881
   00076_ASN    00081_VAL  0.002435562330402483
   00076_ASN    00080_THR  0.0030067423804141674
   00076_ASN    00077_ALA  22.95861054865153
   00077_ALA    00083_ILE  0.00039973473119675154
   00077_ALA    00081_VAL  0.08278653994739678
   00077_ALA    00079_GLN  0.01142272988833876
   00077_ALA    00078_GLY  21.07865147811026
   00077_ALA    00080_THR  0.006195869946157439
   00077_ALA    00082_THR  0.001885166175460831
   00078_GLY    00081_VAL  0.012955566530677682
   00078_GLY    00080_THR  0.0899121336910685
   00078_GLY    00082_THR  0.00408009319071103
   00078_GLY    00079_GLN  13.85339292783901
   00079_GLN    00081_VAL  0.011440607151226138
   00079_GLN    00080_THR  14.480816378067182
   00080_THR    00081_VAL  10.789492422135845
   00080_THR    00083_ILE  0.00121073856954374
   00080_THR    00082_THR  0.02336597795602006
   00081_VAL    00084_ILE  0.0016840496847889304
   00081_VAL    00083_ILE  0.03849170839395311
   00081_VAL    00082_THR  14.34389370995599
   00082_THR    00084_ILE  0.011909995657764188
   00082_THR    00083_ILE  13.22618231009573
   00083_ILE    00084_ILE  11.258977328963779
   00083_ILE    00086_GLN  0.002359389666153282
   00083_ILE    00085_ALA  0.024080561033877703
   00084_ILE    00086_GLN  0.011844729638772972
   00084_ILE    00085_ALA  11.949022603384892
   00085_ALA    00086_GLN  15.761036371421381
   00085_ALA    00088_LYS  0.06035880819510092
   00085_ALA    00087_TYR  0.011334590057762401
   00086_GLN    00088_LYS  0.8421311133493046
   00086_GLN    00087_TYR  14.60388047363398
   00086_GLN    00091_GLU  0.17187851968199552
   00086_GLN    00089_PRO  0.0028054426787848027
   00087_TYR    00088_LYS  19.347904679679182
   00087_TYR    00092_TYR  0.006020078348563953
   00087_TYR    00089_PRO  0.13524585180360849
   00087_TYR    00090_GLU  0.1325605811671545
   00087_TYR    00091_GLU  0.09115829033337994
   00088_LYS    00095_PHE  0.04818120335108004
   00088_LYS    00092_TYR  0.10657776729958979
   00088_LYS    00091_GLU  0.7715951199654757
   00088_LYS    00094_ARG  0.9742511035450064
   00088_LYS    00090_GLU  0.3993215745895403
   00088_LYS    00089_PRO  10.624446111805302
   00088_LYS    00093_SER  0.08190295902436574
   00089_PRO    00095_PHE  0.0009903426091650222
   00089_PRO    00092_TYR  0.07330185343945904
   00089_PRO    00094_ARG  0.03316520479858299
   00089_PRO    00090_GLU  16.299797437317267
   00089_PRO    00091_GLU  0.05211141358519663
   00089_PRO    00093_SER  0.04452067451193031
   00089_PRO    00096_GLU  0.019044722551423473
   00090_GLU    00095_PHE  0.05233293476507312
   00090_GLU    00092_TYR  0.11672742775766412
   00090_GLU    00094_ARG  0.4831568692003817
   00090_GLU    00091_GLU  16.714554230812293
   00090_GLU    00093_SER  1.1333476734342147
   00091_GLU    00095_PHE  0.14428733292948823
   00091_GLU    00092_TYR  17.625523540716625
   00091_GLU    00094_ARG  3.12837360520261
   00091_GLU    00093_SER  0.33924400745206973
   00091_GLU    00096_GLU  0.1714370374970221
   00092_TYR    00095_PHE  0.14716795443359534
   00092_TYR    00094_ARG  0.29287067325419747
   00092_TYR    00098_NME  0.000917874449185641
   00092_TYR    00097_ALA  0.012041915862191527
   00092_TYR    00093_SER  15.68666162979631
   00092_TYR    00096_GLU  1.8535658157259145
   00093_SER    00095_PHE  0.03608294816579653
   00093_SER    00094_ARG  14.090276945991162
   00093_SER    00098_NME  0.001683260345764829
   00093_SER    00097_ALA  0.055450306802234374
   00093_SER    00096_GLU  0.18011784669889877
   00094_ARG    00095_PHE  17.517530501578165
   00094_ARG    00098_NME  0.022977700223913444
   00094_ARG    00097_ALA  0.10883078404167419
   00094_ARG    00096_GLU  0.4636243188401459
   00095_PHE    00098_NME  0.002071962743650916
   00095_PHE    00097_ALA  0.049544946429194124
   00095_PHE    00096_GLU  21.670443846634278
   00096_GLU    00097_ALA  17.85006770860971
   00096_GLU    00098_NME  0.09810887333783537
   00097_ALA    00098_NME  17.685152999270993
