   00001_ACE    00046_GLY  1.8436352919965398e-07
   00001_ACE    00002_ILE  1.7220468153401964
   00001_ACE    00087_TYR  0.00011211877472541472
   00001_ACE    00049_ARG  0.00025163018799973294
   00001_ACE    00004_ARG  0.0002296600926287987
   00001_ACE    00007_ARG  7.297779987894535e-05
   00001_ACE    00003_PRO  0.00117298105272118
   00001_ACE    00089_PRO  0.010236296522867335
   00001_ACE    00047_GLU  2.3505631799497833e-05
   00002_ILE    00046_GLY  4.300199687919121e-07
   00002_ILE    00048_LEU  9.132391010083527e-07
   00002_ILE    00088_LYS  0.0007243574421924536
   00002_ILE    00051_GLY  6.767279691052156e-06
   00002_ILE    00085_ALA  1.0913188994714377e-06
   00002_ILE    00036_ILE  2.1881607916445988e-07
   00002_ILE    00004_ARG  0.0012360207873215472
   00002_ILE    00007_ARG  0.00017658294308236667
   00002_ILE    00009_ILE  1.33938359132372e-07
   00002_ILE    00005_GLU  0.0006129489826343449
   00002_ILE    00047_GLU  5.4342896691203056e-05
   00002_ILE    00045_SER  2.394981042289926e-07
   00002_ILE    00087_TYR  0.0010612044551895697
   00002_ILE    00086_GLN  7.632799687576019e-05
   00002_ILE    00050_LYS  6.952490970987908e-05
   00002_ILE    00052_ASP  0.0002104569636601919
   00002_ILE    00006_PRO  1.2692040868835353e-06
   00002_ILE    00003_PRO  1.3180288332121732
   00002_ILE    00089_PRO  0.00025382680879250516
   00002_ILE    00049_ARG  0.0007116139875946487
   00003_PRO    00088_LYS  0.011295612999282063
   00003_PRO    00087_TYR  0.002344031040796448
   00003_PRO    00086_GLN  0.0013376457793187729
   00003_PRO    00085_ALA  7.100593464159252e-06
   00003_PRO    00047_GLU  4.277754529462113e-05
   00003_PRO    00004_ARG  1.6967366691058197
   00003_PRO    00052_ASP  0.0001918052359948089
   00003_PRO    00007_ARG  0.00024376428188116822
   00003_PRO    00006_PRO  7.981160486532902e-06
   00003_PRO    00008_ARG  1.5765324557126582e-05
   00003_PRO    00009_ILE  4.2474848550317595e-07
   00003_PRO    00005_GLU  0.001968656681471129
   00003_PRO    00049_ARG  0.00036897127546180034
   00004_ARG    00088_LYS  0.0032720221228205314
   00004_ARG    00087_TYR  0.03125530201081417
   00004_ARG    00089_PRO  0.00014110747347629302
   00004_ARG    00086_GLN  0.048624298811224084
   00004_ARG    00090_GLU  0.0007606762207372997
   00004_ARG    00085_ALA  0.0004957443869595932
   00004_ARG    00007_ARG  0.01942364422767199
   00004_ARG    00006_PRO  0.0018092082462947596
   00004_ARG    00055_LEU  0.00016745490686909925
   00004_ARG    00005_GLU  1.9887342768094254
   00004_ARG    00091_GLU  0.0006607365189021584
   00005_GLU    00084_ILE  0.0002752759429704005
   00005_GLU    00088_LYS  0.0019017517253530048
   00005_GLU    00087_TYR  0.00687592198583219
   00005_GLU    00086_GLN  0.010482015592952228
   00005_GLU    00085_ALA  0.0013483338901013984
   00005_GLU    00007_ARG  0.02177058624095024
   00005_GLU    00006_PRO  1.2197888282013973
   00005_GLU    00055_LEU  0.0003468618682560911
   00005_GLU    00008_ARG  0.0019263684789637275
   00006_PRO    00084_ILE  0.00013099277752693004
   00006_PRO    00088_LYS  0.00027340388105182945
   00006_PRO    00087_TYR  6.283194161072333e-05
   00006_PRO    00063_ARG  0.00013692547275759976
   00006_PRO    00086_GLN  0.01310733864733861
   00006_PRO    00085_ALA  0.0039005634164378396
   00006_PRO    00052_ASP  0.00029781690497299174
   00006_PRO    00007_ARG  1.6560225940134092
   00006_PRO    00055_LEU  0.0014620102489930795
   00006_PRO    00009_ILE  1.3726820304483286e-05
   00006_PRO    00008_ARG  0.0004320409858681919
   00006_PRO    00053_GLN  3.845434616287713e-05
   00007_ARG    00084_ILE  0.00441290704826071
   00007_ARG    00046_GLY  0.0010966554830214032
   00007_ARG    00048_LEU  0.016229957028285995
   00007_ARG    00054_ILE  0.0005291748329928903
   00007_ARG    00088_LYS  0.004873960433956405
   00007_ARG    00033_ILE  0.0006452325393805482
   00007_ARG    00051_GLY  0.001174163770580558
   00007_ARG    00085_ALA  0.04255829031751161
   00007_ARG    00036_ILE  0.00020957027000697133
   00007_ARG    00083_ILE  0.0008971403824172298
   00007_ARG    00055_LEU  0.0008917212058046224
   00007_ARG    00009_ILE  0.006031443089185126
   00007_ARG    00082_THR  0.00042845791301004564
   00007_ARG    00053_GLN  0.003465791767796783
   00007_ARG    00087_TYR  0.010041857865445971
   00007_ARG    00086_GLN  0.014805691620053801
   00007_ARG    00047_GLU  0.13418747154575134
   00007_ARG    00052_ASP  0.6191705146290395
   00007_ARG    00008_ARG  1.858858651909487
   00007_ARG    00049_ARG  0.03368848614101107
   00008_ARG    00084_ILE  0.016458399625174504
   00008_ARG    00048_LEU  0.0002734316768094335
   00008_ARG    00059_GLY  0.00042331238311213036
   00008_ARG    00081_VAL  0.0006209728071793115
   00008_ARG    00085_ALA  0.0008799288383100821
   00008_ARG    00083_ILE  0.006669718209307371
   00008_ARG    00009_ILE  1.8049543111696782
   00008_ARG    00080_THR  0.0005867863537407584
   00008_ARG    00082_THR  0.011028533660721502
   00008_ARG    00047_GLU  0.004709285592567749
   00008_ARG    00010_VAL  0.0050197932047090525
   00008_ARG    00056_SER  0.0011444205840408488
   00008_ARG    00063_ARG  0.0008506251516787948
   00008_ARG    00058_ASN  0.0014867857367400848
   00009_ILE    00084_ILE  0.00045620158371582187
   00009_ILE    00046_GLY  9.951734084939879e-06
   00009_ILE    00048_LEU  0.01508727315602798
   00009_ILE    00054_ILE  8.395903319413341e-06
   00009_ILE    00056_SER  7.342212425025402e-05
   00009_ILE    00081_VAL  0.0005466364087265508
   00009_ILE    00033_ILE  1.1747300374237693e-06
   00009_ILE    00085_ALA  6.152904252018004e-05
   00009_ILE    00057_VAL  2.6155891924865223e-05
   00009_ILE    00083_ILE  0.03158586268941357
   00009_ILE    00055_LEU  1.4403642468258116e-05
   00009_ILE    00018_LEU  7.365506412782958e-06
   00009_ILE    00042_ALA  1.0990299985909448e-05
   00009_ILE    00082_THR  0.0020909732566120314
   00009_ILE    00047_GLU  0.011749169139158204
   00009_ILE    00011_ILE  0.01476892999127318
   00009_ILE    00045_SER  6.761045671565263e-05
   00009_ILE    00087_TYR  1.8646099441319076e-06
   00009_ILE    00012_HIE  1.7368975668715243e-05
   00009_ILE    00086_GLN  1.6506946465512613e-05
   00009_ILE    00052_ASP  0.0006916999718727116
   00009_ILE    00010_VAL  1.6116680255688545
   00009_ILE    00041_PRO  7.593253811847097e-06
   00009_ILE    00020_PHE  3.71691587758365e-06
   00009_ILE    00049_ARG  0.00015964528873983186
   00010_VAL    00084_ILE  1.1127178832107428e-05
   00010_VAL    00048_LEU  1.2016227354617759e-05
   00010_VAL    00081_VAL  0.009088990748365373
   00010_VAL    00083_ILE  0.000327587672360703
   00010_VAL    00080_THR  0.0032075712856030262
   00010_VAL    00018_LEU  1.3009301480331426e-05
   00010_VAL    00042_ALA  1.3170112355158544e-05
   00010_VAL    00082_THR  0.013224640109094132
   00010_VAL    00058_ASN  6.568268358794437e-05
   00010_VAL    00011_ILE  1.9354957257818968
   00010_VAL    00045_SER  0.00022631506906792715
   00010_VAL    00012_HIE  0.00018997267766160064
   00010_VAL    00079_GLN  3.511120366520403e-05
   00010_VAL    00047_GLU  0.0018596015630292
   00010_VAL    00041_PRO  3.878883621672171e-05
   00011_ILE    00046_GLY  1.0393077500209084e-05
   00011_ILE    00043_ASP  0.00020318287337055453
   00011_ILE    00033_ILE  8.456707136209268e-07
   00011_ILE    00013_ARG  0.0013304017319880283
   00011_ILE    00085_ALA  1.86904401715264e-06
   00011_ILE    00036_ILE  1.9253020524533984e-06
   00011_ILE    00082_THR  0.00017333373652602226
   00011_ILE    00042_ALA  0.00028850333233628253
   00011_ILE    00017_GLY  1.8632299506591742e-05
   00011_ILE    00045_SER  0.0015538458579397222
   00011_ILE    00044_LEU  2.901901265648775e-05
   00011_ILE    00012_HIE  1.686877518764798
   00011_ILE    00047_GLU  0.0005880893135285445
   00011_ILE    00014_GLY  3.593653958607041e-05
   00011_ILE    00019_GLY  8.138878144365372e-06
   00011_ILE    00048_LEU  0.00034312213667466183
   00011_ILE    00054_ILE  1.3767863380585034e-06
   00011_ILE    00016_THR  6.507001114992702e-06
   00011_ILE    00081_VAL  0.03700004614527543
   00011_ILE    00040_GLY  2.2986852647030346e-05
   00011_ILE    00057_VAL  1.3107508102553053e-05
   00011_ILE    00083_ILE  0.0043919396742643875
   00011_ILE    00018_LEU  0.003797722472368678
   00011_ILE    00080_THR  0.006088304142097634
   00011_ILE    00074_LEU  9.387730485882693e-06
   00011_ILE    00058_ASN  0.00014692647738379902
   00011_ILE    00077_ALA  1.7001339476721845e-05
   00011_ILE    00079_GLN  0.001676011937771771
   00011_ILE    00078_GLY  6.822066691448026e-05
   00011_ILE    00041_PRO  0.013721421436363106
   00011_ILE    00020_PHE  0.0013333790060145803
   00012_HIE    00016_THR  8.7169174196975e-05
   00012_HIE    00081_VAL  0.00033657084239482524
   00012_HIE    00013_ARG  2.1530341603926177
   00012_HIE    00042_ALA  8.071259205514796e-05
   00012_HIE    00018_LEU  9.274005849106237e-05
   00012_HIE    00080_THR  0.0017508651314457864
   00012_HIE    00047_GLU  0.00028473853476455765
   00012_HIE    00015_SER  0.00025357566663321426
   00012_HIE    00017_GLY  0.0002303984168041722
   00012_HIE    00045_SER  7.508118924970977e-05
   00012_HIE    00044_LEU  3.1549708228620775e-05
   00012_HIE    00079_GLN  0.0069384222399203905
   00012_HIE    00078_GLY  5.718538754256001e-05
   00012_HIE    00014_GLY  -0.0005597861910825288
   00012_HIE    00041_PRO  0.008468274589701917
   00013_ARG    00019_GLY  0.0004845719534155074
   00013_ARG    00075_LYS  0.019688896344849098
   00013_ARG    00016_THR  0.0012020926921960699
   00013_ARG    00081_VAL  0.006956432228127056
   00013_ARG    00040_GLY  0.00012912332661646082
   00013_ARG    00057_VAL  0.0008174375042918437
   00013_ARG    00073_ALA  0.0016906324703189078
   00013_ARG    00083_ILE  0.0003137147754311739
   00013_ARG    00018_LEU  0.012917929424787805
   00013_ARG    00071_ALA  0.0007608891049606363
   00013_ARG    00080_THR  0.004438404686370016
   00013_ARG    00074_LEU  0.08747934804813431
   00013_ARG    00042_ALA  0.00018704198918516345
   00013_ARG    00077_ALA  0.06242469420145331
   00013_ARG    00015_SER  0.001953442884566684
   00013_ARG    00017_GLY  0.00802583692399237
   00013_ARG    00044_LEU  9.441556041465556e-05
   00013_ARG    00076_ASN  0.0050857367010495895
   00013_ARG    00079_GLN  0.045926739817499944
   00013_ARG    00058_ASN  0.0052218693484398886
   00013_ARG    00078_GLY  0.0692924673705941
   00013_ARG    00014_GLY  1.8706301379784982
   00013_ARG    00041_PRO  0.0006313426546337862
   00013_ARG    00020_PHE  0.0006899849008744545
   00014_GLY    00015_SER  1.5601222645542827
   00014_GLY    00017_GLY  0.0024880743099390946
   00014_GLY    00016_THR  0.0023926227731159567
   00014_GLY    00081_VAL  1.393759999418362e-05
   00014_GLY    00079_GLN  0.00542738214519962
   00014_GLY    00078_GLY  5.078169945963488e-05
   00014_GLY    00041_PRO  4.210968004677794e-05
   00014_GLY    00018_LEU  0.00011818695509097778
   00014_GLY    00080_THR  2.3721512574212454e-05
   00014_GLY    00074_LEU  1.0359486351032957e-05
   00014_GLY    00077_ALA  1.167255613658174e-05
   00015_SER    00017_GLY  0.005031512913358965
   00015_SER    00078_GLY  6.666446348446043e-06
   00015_SER    00075_LYS  0.0002506644558569938
   00015_SER    00016_THR  2.0268429971140107
   00015_SER    00074_LEU  3.7118232330739926e-06
   00015_SER    00079_GLN  0.00017987708684929785
   00015_SER    00077_ALA  2.954840008371232e-06
   00016_THR    00019_GLY  0.0002577574558683124
   00016_THR    00075_LYS  0.00022211823849150865
   00016_THR    00039_GLY  0.0002584600929353753
   00016_THR    00081_VAL  3.3782625245283736e-06
   00016_THR    00040_GLY  0.0003037397935000948
   00016_THR    00037_LEU  0.00010507030332605307
   00016_THR    00018_LEU  0.00014848786190809903
   00016_THR    00074_LEU  2.3259600820067954e-06
   00016_THR    00017_GLY  2.4638972318745687
   00016_THR    00044_LEU  2.579512040702646e-05
   00016_THR    00079_GLN  5.6933726203812266e-05
   00016_THR    00041_PRO  7.464981464762912e-05
   00017_GLY    00019_GLY  0.003598596081093818
   00017_GLY    00074_LEU  1.965188006123117e-05
   00017_GLY    00075_LYS  0.00022502754198645264
   00017_GLY    00081_VAL  1.4029946468901751e-05
   00017_GLY    00040_GLY  0.0007002243010038723
   00017_GLY    00037_LEU  6.433124852455161e-05
   00017_GLY    00018_LEU  1.5969583626939292
   00017_GLY    00041_PRO  0.003247058000971675
   00017_GLY    00071_ALA  3.7467019279844365e-06
   00017_GLY    00042_ALA  0.00010431317710332062
   00017_GLY    00020_PHE  0.00013397210163977206
   00018_LEU    00033_ILE  6.9991789816078534e-06
   00018_LEU    00036_ILE  3.471425454789528e-05
   00018_LEU    00037_LEU  0.00012283125164001493
   00018_LEU    00071_ALA  9.967553341177747e-06
   00018_LEU    00082_THR  4.687833614861856e-06
   00018_LEU    00021_ASN  2.5507596339850024e-05
   00018_LEU    00045_SER  0.00013867237243730615
   00018_LEU    00044_LEU  7.402623768836748e-05
   00018_LEU    00022_ILE  1.0023465173754817e-05
   00018_LEU    00076_ASN  8.402687130287733e-06
   00018_LEU    00043_ASP  0.0006463766343360441
   00018_LEU    00047_GLU  0.00015988583720298675
   00018_LEU    00070_ALA  8.939945226567294e-06
   00018_LEU    00019_GLY  1.9115598929328346
   00018_LEU    00048_LEU  5.5907552853634256e-05
   00018_LEU    00054_ILE  2.8112592572610064e-06
   00018_LEU    00075_LYS  0.00028608773190954716
   00018_LEU    00081_VAL  0.008489405554886757
   00018_LEU    00040_GLY  0.0007653051934195745
   00018_LEU    00057_VAL  1.0739366218597641e-05
   00018_LEU    00073_ALA  7.622306717998719e-06
   00018_LEU    00083_ILE  5.895916183020217e-05
   00018_LEU    00042_ALA  0.01343141019270543
   00018_LEU    00074_LEU  0.002831020901485918
   00018_LEU    00058_ASN  1.579648165959266e-05
   00018_LEU    00077_ALA  1.8345620861890817e-05
   00018_LEU    00080_THR  1.749963398847329e-05
   00018_LEU    00079_GLN  0.00011661124483892572
   00018_LEU    00078_GLY  8.574623875662178e-05
   00018_LEU    00041_PRO  0.009055058051341958
   00018_LEU    00020_PHE  0.019105344899536435
   00019_GLY    00048_LEU  2.7707878939534982e-05
   00019_GLY    00039_GLY  0.00015991579415198362
   00019_GLY    00033_ILE  2.6845580322019725e-05
   00019_GLY    00036_ILE  0.00855569056152755
   00019_GLY    00037_LEU  0.021962560427338056
   00019_GLY    00042_ALA  0.002679005463629427
   00019_GLY    00074_LEU  8.750132628545642e-06
   00019_GLY    00021_ASN  0.00020745213151286958
   00019_GLY    00038_ALA  0.00012842944708743858
   00019_GLY    00044_LEU  2.3021359499002733e-05
   00019_GLY    00022_ILE  2.2277384661527467e-05
   00019_GLY    00043_ASP  0.000838680813989492
   00019_GLY    00035_PHE  0.0003529955100149199
   00019_GLY    00041_PRO  7.175443816542375e-05
   00019_GLY    00020_PHE  2.060977689159722
   00019_GLY    00040_GLY  0.003737862663107041
   00020_PHE    00033_ILE  0.007400665983183365
   00020_PHE    00023_VAL  2.0902047954854552e-05
   00020_PHE    00085_ALA  3.1183762506987066e-06
   00020_PHE    00036_ILE  0.004986335336320435
   00020_PHE    00037_LEU  0.003597128312157597
   00020_PHE    00082_THR  2.6383273576969567e-06
   00020_PHE    00021_ASN  1.7816674553411025
   00020_PHE    00032_PHE  2.902222697687211e-05
   00020_PHE    00045_SER  1.1366786942517766e-05
   00020_PHE    00022_ILE  0.018223119242681208
   00020_PHE    00043_ASP  0.0005813917616633185
   00020_PHE    00047_GLU  0.00017806818594762755
   00020_PHE    00070_ALA  8.285386252841437e-06
   00020_PHE    00049_ARG  0.00016524392882801003
   00020_PHE    00048_LEU  0.01728426939245504
   00020_PHE    00054_ILE  3.838224607421701e-05
   00020_PHE    00071_ALA  8.228695286559102e-06
   00020_PHE    00081_VAL  1.3165952658900502e-05
   00020_PHE    00040_GLY  8.613466959596164e-05
   00020_PHE    00062_LEU  9.95152801985565e-07
   00020_PHE    00057_VAL  3.892275780301137e-06
   00020_PHE    00067_HID  2.3631328416788723e-05
   00020_PHE    00083_ILE  0.0076878836272634785
   00020_PHE    00031_ILE  5.286515646480551e-06
   00020_PHE    00034_SER  0.00017757624986697047
   00020_PHE    00042_ALA  0.001777804569192406
   00020_PHE    00074_LEU  0.0005977946971746491
   00020_PHE    00077_ALA  2.8360382832465633e-06
   00020_PHE    00050_LYS  0.0003245269700561929
   00020_PHE    00052_ASP  0.0005749010232963947
   00020_PHE    00041_PRO  2.858875398082997e-05
   00020_PHE    00035_PHE  0.00146670545368376
   00021_ASN    00048_LEU  9.935046601565611e-06
   00021_ASN    00054_ILE  7.553044489788004e-06
   00021_ASN    00071_ALA  5.777373829120432e-06
   00021_ASN    00092_TYR  7.217923084915784e-05
   00021_ASN    00033_ILE  0.001753502375689437
   00021_ASN    00034_SER  0.061661386373953624
   00021_ASN    00023_VAL  0.0011271099972050929
   00021_ASN    00067_HID  0.00018701043122398375
   00021_ASN    00036_ILE  0.0001757195869669488
   00021_ASN    00024_GLY  2.639197152095003e-05
   00021_ASN    00095_PHE  2.9797956642588116e-05
   00021_ASN    00031_ILE  2.616254781674141e-05
   00021_ASN    00098_NME  1.9205578168468336e-06
   00021_ASN    00037_LEU  0.004804454940514814
   00021_ASN    00074_LEU  8.06346947141888e-06
   00021_ASN    00032_PHE  0.0009607940984639516
   00021_ASN    00022_ILE  1.4871595281910608
   00021_ASN    00050_LYS  0.002370617682362938
   00021_ASN    00097_ALA  1.1446177673125971e-05
   00021_ASN    00035_PHE  0.0504819631925863
   00022_ILE    00092_TYR  2.208214968576349e-05
   00022_ILE    00025_GLY  1.4367408768239745e-05
   00022_ILE    00033_ILE  0.005218574946148544
   00022_ILE    00023_VAL  1.6060796573760399
   00022_ILE    00036_ILE  7.43568318583941e-06
   00022_ILE    00024_GLY  0.0001582991538594998
   00022_ILE    00065_ALA  3.6975755235851416e-06
   00022_ILE    00053_GLN  3.257275676733005e-05
   00022_ILE    00032_PHE  0.01480686159505498
   00022_ILE    00070_ALA  0.00026341995389523844
   00022_ILE    00072_ILE  4.073765514016242e-06
   00022_ILE    00068_GLU  0.00032639176913614734
   00022_ILE    00048_LEU  4.026946104598831e-06
   00022_ILE    00054_ILE  0.004269931141789766
   00022_ILE    00071_ALA  1.6049459883136382e-05
   00022_ILE    00030_GLY  1.6830657064158115e-05
   00022_ILE    00066_SER  1.1428232662465236e-05
   00022_ILE    00057_VAL  2.4170569462196395e-06
   00022_ILE    00067_HID  0.005362454726478168
   00022_ILE    00073_ALA  5.198971591113583e-06
   00022_ILE    00083_ILE  2.624126389674654e-06
   00022_ILE    00031_ILE  0.006358992984239809
   00022_ILE    00069_GLN  6.962751761377662e-06
   00022_ILE    00034_SER  0.0007593526194666757
   00022_ILE    00074_LEU  0.0006245080728808984
   00022_ILE    00062_LEU  6.332765403914244e-06
   00022_ILE    00052_ASP  0.00040116651836789326
   00022_ILE    00035_PHE  0.00013269701320145285
   00023_VAL    00054_ILE  4.4861644834455285e-05
   00023_VAL    00030_GLY  0.0005901786807473089
   00023_VAL    00092_TYR  5.766380395151823e-05
   00023_VAL    00025_GLY  0.00015724368986560255
   00023_VAL    00033_ILE  0.00030762335378282414
   00023_VAL    00098_NME  2.305181571474735e-06
   00023_VAL    00051_GLY  2.4745640302605863e-05
   00023_VAL    00067_HID  0.0020444727289701493
   00023_VAL    00097_ALA  1.3358767052929237e-05
   00023_VAL    00029_GLU  0.00033752827322422056
   00023_VAL    00095_PHE  0.005856594223526909
   00023_VAL    00031_ILE  0.00580574603019068
   00023_VAL    00034_SER  0.007285614956701067
   00023_VAL    00024_GLY  1.5417193131771751
   00023_VAL    00065_ALA  1.2705630943092014e-05
   00023_VAL    00053_GLN  8.085064736008672e-05
   00023_VAL    00032_PHE  0.08868071331744412
   00023_VAL    00035_PHE  2.8732912699094933e-05
   00023_VAL    00068_GLU  0.0002941724107667451
   00023_VAL    00094_ARG  0.0006130289931037809
   00023_VAL    00050_LYS  0.0006307967559135982
   00023_VAL    00052_ASP  0.0006634789061532321
   00023_VAL    00070_ALA  2.3274151381459378e-05
   00023_VAL    00066_SER  1.5062181914341356e-05
   00023_VAL    00026_GLU  0.00019570291514020872
   00023_VAL    00096_GLU  0.000806461602368754
   00024_GLY    00095_PHE  0.024209350646536114
   00024_GLY    00030_GLY  0.004453445278198867
   00024_GLY    00092_TYR  1.532779064200496e-05
   00024_GLY    00025_GLY  1.683899346614754
   00024_GLY    00026_GLU  0.000860827493128655
   00024_GLY    00028_GLY  2.647710946479907e-05
   00024_GLY    00067_HID  0.004898934175474195
   00024_GLY    00029_GLU  0.000671228368864696
   00024_GLY    00031_ILE  0.008058872812625554
   00024_GLY    00069_GLN  1.0216108363918735e-05
   00024_GLY    00034_SER  1.4631150223313487e-05
   00024_GLY    00065_ALA  7.934174679839667e-05
   00024_GLY    00053_GLN  7.27452561069608e-05
   00024_GLY    00032_PHE  0.00031636889710569315
   00024_GLY    00094_ARG  0.001100201565674547
   00024_GLY    00070_ALA  1.8657327362354663e-05
   00024_GLY    00068_GLU  0.0005103092867225215
   00024_GLY    00066_SER  0.00010212107388757247
   00025_GLY    00095_PHE  0.001355944172310507
   00025_GLY    00064_ASN  0.00015437512479313549
   00025_GLY    00030_GLY  0.018224943030294788
   00025_GLY    00066_SER  0.0021339613269745514
   00025_GLY    00028_GLY  0.0006200385020930604
   00025_GLY    00067_HID  0.0027044849324586472
   00025_GLY    00029_GLU  0.00899034652073235
   00025_GLY    00031_ILE  0.0003136718929405662
   00025_GLY    00069_GLN  4.3961931602493e-05
   00025_GLY    00065_ALA  0.0018359400873495385
   00025_GLY    00053_GLN  9.48468616956075e-05
   00025_GLY    00062_LEU  4.3469238525199693e-05
   00025_GLY    00063_ARG  0.00010491719610171974
   00025_GLY    00094_ARG  0.0015355621816722641
   00025_GLY    00027_ASP  0.0012682813742626732
   00025_GLY    00032_PHE  2.4183046280577497e-05
   00025_GLY    00068_GLU  0.00030268187640220435
   00025_GLY    00026_GLU  1.559696015199942
   00025_GLY    00070_ALA  2.6607638788302945e-05
   00026_GLU    00095_PHE  0.0003856266693753915
   00026_GLU    00064_ASN  0.00162162422863275
   00026_GLU    00030_GLY  0.0014956460338167497
   00026_GLU    00066_SER  0.019993721244121753
   00026_GLU    00028_GLY  0.006556212980999394
   00026_GLU    00067_HID  0.00238986911165784
   00026_GLU    00029_GLU  0.02151352309221287
   00026_GLU    00031_ILE  0.00026568424185903185
   00026_GLU    00069_GLN  0.0014085328029503992
   00026_GLU    00065_ALA  0.0029530887540923636
   00026_GLU    00032_PHE  0.00020802524850526736
   00026_GLU    00094_ARG  0.003229121649674897
   00026_GLU    00027_ASP  1.8397736819866357
   00026_GLU    00068_GLU  0.0016400059878639152
   00027_ASP    00064_ASN  0.01829461252676819
   00027_ASP    00030_GLY  0.0005817135204687408
   00027_ASP    00063_ARG  0.0027647468858187996
   00027_ASP    00066_SER  0.0034562082242080047
   00027_ASP    00094_ARG  0.0021145723495653093
   00027_ASP    00028_GLY  1.9786455329342771
   00027_ASP    00067_HID  0.0007161806164542782
   00027_ASP    00029_GLU  0.004669226909410244
   00027_ASP    00069_GLN  0.0008829126210359459
   00027_ASP    00065_ALA  0.003124512208382931
   00028_GLY    00064_ASN  0.006380272230494196
   00028_GLY    00030_GLY  0.006898010939547378
   00028_GLY    00063_ARG  0.0011314345865790258
   00028_GLY    00066_SER  4.4825568268593665e-05
   00028_GLY    00094_ARG  0.003244904065266176
   00028_GLY    00067_HID  1.9259208533327812e-05
   00028_GLY    00029_GLU  2.2464519280432813
   00028_GLY    00031_ILE  3.0541470306446515e-05
   00028_GLY    00032_PHE  1.5866007673048442e-05
   00028_GLY    00069_GLN  1.2256525590639087e-05
   00028_GLY    00088_LYS  0.0006235947305701572
   00028_GLY    00065_ALA  0.0008615165376403026
   00028_GLY    00053_GLN  0.00034476075686371797
   00028_GLY    00062_LEU  4.905673714944291e-05
   00029_GLU    00095_PHE  0.010442441664348793
   00029_GLU    00064_ASN  0.0019323804121229872
   00029_GLU    00030_GLY  2.381042136178613
   00029_GLU    00066_SER  0.00038653417540816944
   00029_GLU    00067_HID  0.0004033471535871827
   00029_GLU    00031_ILE  0.0006569249951507112
   00029_GLU    00088_LYS  0.002854290806173599
   00029_GLU    00065_ALA  0.0004921130457304266
   00029_GLU    00053_GLN  0.0031305822136448455
   00029_GLU    00062_LEU  0.00019336349873441105
   00029_GLU    00063_ARG  0.0023210571940625335
   00029_GLU    00094_ARG  0.16565372324465702
   00029_GLU    00086_GLN  0.0003626775358928239
   00029_GLU    00032_PHE  0.0026941864752490986
   00029_GLU    00055_LEU  0.00021238332763468128
   00029_GLU    00091_GLU  0.0059757275400259486
   00030_GLY    00054_ILE  0.000258897846227711
   00030_GLY    00064_ASN  0.00033047461893163336
   00030_GLY    00092_TYR  2.416705409421718e-05
   00030_GLY    00066_SER  7.171127178896024e-05
   00030_GLY    00067_HID  0.00011600007978226971
   00030_GLY    00095_PHE  0.0010047372967117165
   00030_GLY    00031_ILE  1.9979048737390142
   00030_GLY    00088_LYS  0.0009726082313606296
   00030_GLY    00065_ALA  0.0006410018855091664
   00030_GLY    00053_GLN  0.006279507093453803
   00030_GLY    00032_PHE  0.0017341015888948368
   00030_GLY    00063_ARG  0.00034957039806146454
   00030_GLY    00094_ARG  0.006406349128989767
   00030_GLY    00086_GLN  2.3936909315174606e-05
   00030_GLY    00062_LEU  0.00025615741260532856
   00030_GLY    00055_LEU  5.077263790888072e-05
   00030_GLY    00091_GLU  0.0008960981057138905
   00030_GLY    00070_ALA  1.5237901084092673e-05
   00031_ILE    00064_ASN  3.210207971527262e-05
   00031_ILE    00092_TYR  2.6973304626047363e-05
   00031_ILE    00033_ILE  0.00030436873911105335
   00031_ILE    00054_ILE  0.021949266667009144
   00031_ILE    00055_LEU  9.556420998878799e-05
   00031_ILE    00088_LYS  0.001002450814764169
   00031_ILE    00065_ALA  0.012465937885079601
   00031_ILE    00053_GLN  0.014181349741954534
   00031_ILE    00032_PHE  1.5880862385826855
   00031_ILE    00070_ALA  0.01835869394830668
   00031_ILE    00068_GLU  0.00024234740964788553
   00031_ILE    00095_PHE  4.03872017244588e-05
   00031_ILE    00071_ALA  1.0813161479647551e-05
   00031_ILE    00066_SER  0.002350159665016154
   00031_ILE    00057_VAL  5.296989320872395e-06
   00031_ILE    00067_HID  0.009136572280555205
   00031_ILE    00073_ALA  6.808133828933083e-06
   00031_ILE    00083_ILE  5.681488746147646e-06
   00031_ILE    00069_GLN  2.13228060447883e-05
   00031_ILE    00034_SER  2.6750545352129706e-05
   00031_ILE    00074_LEU  1.177956158532854e-05
   00031_ILE    00062_LEU  0.0032779138602276174
   00031_ILE    00056_SER  1.5316845835297267e-05
   00031_ILE    00063_ARG  0.00024362952164124486
   00031_ILE    00094_ARG  0.0013889663987827973
   00031_ILE    00052_ASP  0.0011005575871528995
   00031_ILE    00061_ASP  0.00047825194763958335
   00032_PHE    00095_PHE  0.0008109944924270074
   00032_PHE    00088_LYS  0.011748158476433184
   00032_PHE    00092_TYR  0.04099122013224092
   00032_PHE    00033_ILE  1.7632887369417198
   00032_PHE    00051_GLY  0.0010765328075295491
   00032_PHE    00090_GLU  0.00027900380905970817
   00032_PHE    00067_HID  0.00011386235676297902
   00032_PHE    00085_ALA  1.91230825158298e-05
   00032_PHE    00054_ILE  0.0010182614744316983
   00032_PHE    00055_LEU  1.2362490839659898e-05
   00032_PHE    00034_SER  0.0013958363337425077
   00032_PHE    00091_GLU  0.007808028222127948
   00032_PHE    00065_ALA  1.6308438829014424e-05
   00032_PHE    00053_GLN  0.015977152017725222
   00032_PHE    00035_PHE  5.8165485158332037e-05
   00032_PHE    00066_SER  1.2763675405730922e-05
   00032_PHE    00087_TYR  5.0860685763044445e-05
   00032_PHE    00094_ARG  0.005247971263059012
   00032_PHE    00063_ARG  0.00023436034116477533
   00032_PHE    00086_GLN  0.00015434472274375162
   00032_PHE    00050_LYS  0.0008174306813088767
   00032_PHE    00052_ASP  0.00803619045523147
   00032_PHE    00089_PRO  1.993151338813433e-05
   00032_PHE    00049_ARG  0.00020413751214031536
   00032_PHE    00093_SER  9.995593479994625e-06
   00032_PHE    00096_GLU  0.00047060699023199616
   00033_ILE    00084_ILE  5.956059149408343e-06
   00033_ILE    00048_LEU  0.005937756632040056
   00033_ILE    00054_ILE  0.003169732610373698
   00033_ILE    00092_TYR  0.0008171984451563186
   00033_ILE    00051_GLY  0.015558911218833729
   00033_ILE    00085_ALA  1.6739510470237166e-05
   00033_ILE    00036_ILE  0.007666737845447407
   00033_ILE    00083_ILE  3.45685756426951e-06
   00033_ILE    00034_SER  1.748111775223265
   00033_ILE    00037_LEU  1.5851033850020397e-05
   00033_ILE    00042_ALA  6.080672234737885e-06
   00033_ILE    00074_LEU  4.231448273370043e-06
   00033_ILE    00053_GLN  0.0002643165779520149
   00033_ILE    00049_ARG  0.0018541198681291057
   00033_ILE    00057_VAL  5.617528170590761e-07
   00033_ILE    00087_TYR  3.517411227985612e-05
   00033_ILE    00095_PHE  2.8714039262775455e-05
   00033_ILE    00086_GLN  3.171071022106891e-05
   00033_ILE    00050_LYS  0.0156335500652604
   00033_ILE    00052_ASP  0.03941140268561546
   00033_ILE    00070_ALA  2.234608105063886e-06
   00033_ILE    00035_PHE  0.001675965081611868
   00033_ILE    00096_GLU  0.0008374317688270769
   00034_SER    00095_PHE  9.569914551807588e-05
   00034_SER    00092_TYR  0.005534801134076114
   00034_SER    00051_GLY  0.00014289240564254255
   00034_SER    00036_ILE  0.00011177343172282309
   00034_SER    00052_ASP  0.0011674376870093944
   00034_SER    00096_GLU  0.0045323664279526745
   00034_SER    00054_ILE  3.036194310170405e-06
   00034_SER    00098_NME  3.7923816803993074e-06
   00034_SER    00050_LYS  0.012337269522489725
   00034_SER    00097_ALA  1.9202649468719507e-05
   00034_SER    00049_ARG  0.00044781544495860556
   00034_SER    00035_PHE  2.113345766746789
   00035_PHE    00038_ALA  1.7119711896897426e-05
   00035_PHE    00048_LEU  9.642869795408041e-06
   00035_PHE    00092_TYR  8.946433983568224e-05
   00035_PHE    00051_GLY  3.900136815665104e-05
   00035_PHE    00050_LYS  0.004128038844629553
   00035_PHE    00098_NME  3.345933919151553e-07
   00035_PHE    00037_LEU  0.01007328204084313
   00035_PHE    00042_ALA  1.566450671651334e-05
   00035_PHE    00036_ILE  1.6372057962354492
   00035_PHE    00097_ALA  4.031512788077123e-06
   00035_PHE    00049_ARG  0.0006146111642486746
   00035_PHE    00096_GLU  0.0016757747792222985
   00036_ILE    00046_GLY  2.2772911135045655e-05
   00036_ILE    00048_LEU  0.016326513770291408
   00036_ILE    00054_ILE  8.986548008074756e-07
   00036_ILE    00039_GLY  0.0001579253214109192
   00036_ILE    00040_GLY  0.00011308089908793855
   00036_ILE    00051_GLY  7.4599280808430025e-06
   00036_ILE    00037_LEU  1.7706981866563047
   00036_ILE    00042_ALA  0.0023333668121270947
   00036_ILE    00047_GLU  0.00014556752761894524
   00036_ILE    00038_ALA  0.00013419911167967454
   00036_ILE    00045_SER  2.0090291426354724e-05
   00036_ILE    00044_LEU  2.1142989231428226e-05
   00036_ILE    00043_ASP  0.022026762430700057
   00036_ILE    00050_LYS  0.0017676561398625884
   00036_ILE    00052_ASP  0.0004719667600684897
   00036_ILE    00041_PRO  1.2730143708942448e-05
   00036_ILE    00049_ARG  0.004163344205777135
   00037_LEU    00038_ALA  1.988515280579792
   00037_LEU    00044_LEU  4.151266978047089e-05
   00037_LEU    00039_GLY  0.008571751990584185
   00037_LEU    00040_GLY  0.008501247710471947
   00037_LEU    00043_ASP  0.002901940233431065
   00037_LEU    00041_PRO  2.0989004478686233e-05
   00037_LEU    00042_ALA  0.00014137213601019216
   00038_ALA    00044_LEU  1.5385820389516638e-05
   00038_ALA    00039_GLY  2.1630088649647377
   00038_ALA    00040_GLY  0.009495493051304447
   00038_ALA    00043_ASP  0.0027579431975207945
   00038_ALA    00042_ALA  1.99209994425218e-05
   00039_GLY    00044_LEU  0.001127868721739075
   00039_GLY    00040_GLY  2.233869893296757
   00039_GLY    00043_ASP  0.009641928696521623
   00039_GLY    00041_PRO  1.1226159893429906e-05
   00039_GLY    00042_ALA  6.480598195827042e-05
   00040_GLY    00046_GLY  0.00014435375954580226
   00040_GLY    00045_SER  0.0006641285476543454
   00040_GLY    00044_LEU  0.015356479277664885
   00040_GLY    00043_ASP  0.019287479490663017
   00040_GLY    00041_PRO  1.1612103416023503
   00040_GLY    00042_ALA  0.00510931020800964
   00041_PRO    00046_GLY  0.0007487490157194483
   00041_PRO    00048_LEU  6.393124738281873e-05
   00041_PRO    00045_SER  0.08565146538198319
   00041_PRO    00044_LEU  0.020689347944121167
   00041_PRO    00081_VAL  1.3521640972193906e-05
   00041_PRO    00043_ASP  0.005832809807388438
   00041_PRO    00083_ILE  2.858333774010238e-06
   00041_PRO    00042_ALA  2.4058148029401414
   00041_PRO    00074_LEU  2.493057875584901e-06
   00041_PRO    00047_GLU  0.0004374412841635645
   00042_ALA    00046_GLY  0.008374641518860268
   00042_ALA    00048_LEU  0.006222374580984381
   00042_ALA    00045_SER  0.003452326999489211
   00042_ALA    00044_LEU  0.001005482370273366
   00042_ALA    00081_VAL  6.74660468360995e-06
   00042_ALA    00043_ASP  2.0707777786092136
   00042_ALA    00047_GLU  0.0023534434910612565
   00042_ALA    00083_ILE  4.480811690753387e-06
   00042_ALA    00049_ARG  0.00026551925728138736
   00043_ASP    00046_GLY  0.010603465003574704
   00043_ASP    00048_LEU  0.0018184124110296905
   00043_ASP    00045_SER  0.0070981123490143775
   00043_ASP    00044_LEU  1.897819298184662
   00043_ASP    00049_ARG  0.002661962038994415
   00043_ASP    00047_GLU  0.0029134314445771743
   00044_LEU    00046_GLY  0.0010927650652675673
   00044_LEU    00045_SER  1.7277234506929926
   00044_LEU    00047_GLU  0.000577118659092772
   00045_SER    00046_GLY  1.805016560594907
   00045_SER    00048_LEU  0.0002880478868644379
   00045_SER    00047_GLU  0.014283856278133646
   00045_SER    00083_ILE  4.499394758147691e-06
   00045_SER    00049_ARG  0.00037029438788549994
   00046_GLY    00048_LEU  0.00756853400030855
   00046_GLY    00047_GLU  2.1871417482638416
   00046_GLY    00049_ARG  0.0007816386094359554
   00047_GLU    00048_LEU  2.188326355600215
   00047_GLU    00087_TYR  0.0006210571115772911
   00047_GLU    00085_ALA  0.0007318737150021648
   00047_GLU    00052_ASP  0.006089003239836777
   00047_GLU    00083_ILE  0.00048467684513816964
   00047_GLU    00049_ARG  0.007006291004975099
   00048_LEU    00084_ILE  1.8472996845693104e-05
   00048_LEU    00054_ILE  0.00017787681241307888
   00048_LEU    00081_VAL  1.0387416996710613e-05
   00048_LEU    00057_VAL  2.958413714682681e-06
   00048_LEU    00085_ALA  0.002046886729978755
   00048_LEU    00083_ILE  0.0014521377299247865
   00048_LEU    00055_LEU  1.1149196749296474e-05
   00048_LEU    00074_LEU  3.0696855364617173e-06
   00048_LEU    00082_THR  7.791159382709186e-06
   00048_LEU    00053_GLN  4.873983153738424e-05
   00048_LEU    00087_TYR  2.8868302355138717e-05
   00048_LEU    00086_GLN  2.0858746373900397e-05
   00048_LEU    00050_LYS  0.0003700019261131537
   00048_LEU    00052_ASP  0.010936667260388928
   00048_LEU    00049_ARG  1.770954771779452
   00049_ARG    00054_ILE  0.00011297490591469747
   00049_ARG    00088_LYS  0.0030258773126524215
   00049_ARG    00087_TYR  0.0262938088795806
   00049_ARG    00092_TYR  0.0006638886505057732
   00049_ARG    00086_GLN  0.0015939130541402931
   00049_ARG    00051_GLY  0.002018346383671888
   00049_ARG    00085_ALA  0.00041162212444954767
   00049_ARG    00050_LYS  1.6789708777803276
   00049_ARG    00052_ASP  0.11328441731457359
   00049_ARG    00089_PRO  0.00034021608128287616
   00049_ARG    00053_GLN  0.0005932838945280589
   00050_LYS    00095_PHE  0.001099021292348767
   00050_LYS    00088_LYS  0.001037941714098546
   00050_LYS    00087_TYR  0.0033131755911427144
   00050_LYS    00092_TYR  0.05140694856465969
   00050_LYS    00097_ALA  0.0008831127052100918
   00050_LYS    00051_GLY  1.969668220303964
   00050_LYS    00052_ASP  0.010940105939808367
   00050_LYS    00098_NME  0.0002742399462706275
   00050_LYS    00089_PRO  0.0002475097274154664
   00050_LYS    00093_SER  0.000999501313817622
   00050_LYS    00096_GLU  0.20813842143110356
   00051_GLY    00095_PHE  1.8888176998696152e-05
   00051_GLY    00088_LYS  0.015055713602789405
   00051_GLY    00092_TYR  0.0066327697950130625
   00051_GLY    00090_GLU  0.00033962410900955693
   00051_GLY    00053_GLN  0.0013540634883841564
   00051_GLY    00087_TYR  0.006295064573681873
   00051_GLY    00089_PRO  0.00018987522183752258
   00051_GLY    00086_GLN  0.0003717374335575825
   00051_GLY    00052_ASP  2.0081503238920617
   00051_GLY    00091_GLU  0.0001951915944756207
   00051_GLY    00093_SER  1.7378756408884874e-05
   00051_GLY    00096_GLU  0.0012124192264401832
   00052_ASP    00084_ILE  0.0006703451133929841
   00052_ASP    00054_ILE  0.0028659468929358857
   00052_ASP    00088_LYS  0.005246581716217898
   00052_ASP    00087_TYR  0.016525193041029743
   00052_ASP    00092_TYR  0.0014545417952202357
   00052_ASP    00086_GLN  0.0055739329107484985
   00052_ASP    00085_ALA  0.004442987399868604
   00052_ASP    00083_ILE  0.0005356756820920114
   00052_ASP    00055_LEU  0.0007823965500928218
   00052_ASP    00089_PRO  0.00022997079385794205
   00052_ASP    00053_GLN  1.7876693009505427
   00053_GLN    00084_ILE  0.00024667119782030664
   00053_GLN    00054_ILE  1.9017226012706252
   00053_GLN    00064_ASN  0.0010269732758942023
   00053_GLN    00092_TYR  6.748919727295633e-05
   00053_GLN    00085_ALA  0.020201462714153212
   00053_GLN    00095_PHE  4.564959929111562e-05
   00053_GLN    00055_LEU  0.0063917785547333355
   00053_GLN    00088_LYS  0.09755580832381597
   00053_GLN    00065_ALA  0.00016076934366394366
   00053_GLN    00091_GLU  0.0033482770499441653
   00053_GLN    00062_LEU  0.001143824966327128
   00053_GLN    00056_SER  0.00014505984356586566
   00053_GLN    00087_TYR  0.00046904436334472145
   00053_GLN    00063_ARG  0.011221413356809502
   00053_GLN    00094_ARG  0.007040249783186634
   00053_GLN    00086_GLN  0.03015758887430401
   00053_GLN    00083_ILE  4.313688966637754e-05
   00053_GLN    00089_PRO  2.1906542093024566e-05
   00054_ILE    00084_ILE  0.0010305266951593712
   00054_ILE    00064_ASN  7.215269928494585e-05
   00054_ILE    00081_VAL  3.5875731613508916e-06
   00054_ILE    00071_ALA  4.5909844020708515e-06
   00054_ILE    00057_VAL  0.00011155436858864257
   00054_ILE    00067_HID  1.759433589099008e-05
   00054_ILE    00085_ALA  0.0007305352923563188
   00054_ILE    00073_ALA  8.972644733382068e-06
   00054_ILE    00083_ILE  0.01806232951703462
   00054_ILE    00055_LEU  1.5702106375634335
   00054_ILE    00088_LYS  0.0013839143742478308
   00054_ILE    00074_LEU  3.4140968041691595e-05
   00054_ILE    00082_THR  1.2678363216136795e-05
   00054_ILE    00062_LEU  0.005325114723567885
   00054_ILE    00056_SER  0.0009197923607412754
   00054_ILE    00065_ALA  5.1863403746693875e-05
   00054_ILE    00060_VAL  3.713015837538815e-05
   00054_ILE    00063_ARG  0.0008037063692015406
   00054_ILE    00086_GLN  0.00021397804121183836
   00054_ILE    00070_ALA  2.0628431273041008e-05
   00054_ILE    00061_ASP  0.0006696141033975122
   00055_LEU    00084_ILE  0.02425749923321951
   00055_LEU    00064_ASN  0.0001350642417236185
   00055_LEU    00088_LYS  0.005345231130563554
   00055_LEU    00057_VAL  0.00019818241077429124
   00055_LEU    00085_ALA  0.003954148468972525
   00055_LEU    00083_ILE  0.00018492323416962597
   00055_LEU    00059_GLY  2.6214391514030214e-05
   00055_LEU    00065_ALA  4.3084290706431485e-05
   00055_LEU    00062_LEU  0.01753217708337728
   00055_LEU    00056_SER  1.8326057344535118
   00055_LEU    00087_TYR  1.2209128229216654e-05
   00055_LEU    00060_VAL  0.00047421281359349396
   00055_LEU    00063_ARG  0.008795239230809295
   00055_LEU    00086_GLN  0.0051057233742852585
   00055_LEU    00061_ASP  0.0077552740535270755
   00056_SER    00084_ILE  0.032314764420336074
   00056_SER    00059_GLY  0.002922231802750165
   00056_SER    00081_VAL  3.3028196445192297e-05
   00056_SER    00057_VAL  2.0531638533023764
   00056_SER    00085_ALA  0.00013564637309342932
   00056_SER    00073_ALA  3.112920735573161e-05
   00056_SER    00083_ILE  0.009122138842983638
   00056_SER    00074_LEU  2.7808067608990985e-05
   00056_SER    00082_THR  0.00039954536275431873
   00056_SER    00058_ASN  0.0005633884096988587
   00056_SER    00062_LEU  0.004095669990810546
   00056_SER    00060_VAL  0.03823742472839185
   00056_SER    00063_ARG  0.0009026269100246896
   00056_SER    00086_GLN  3.862853667438025e-05
   00056_SER    00070_ALA  1.6906637295710982e-05
   00056_SER    00061_ASP  0.005678172656058184
   00057_VAL    00084_ILE  0.00015600711552978019
   00057_VAL    00059_GLY  0.009418842592738378
   00057_VAL    00081_VAL  0.0046049913184887745
   00057_VAL    00061_ASP  0.001742889061306509
   00057_VAL    00085_ALA  6.005831549272501e-06
   00057_VAL    00073_ALA  0.004945374637900525
   00057_VAL    00083_ILE  0.004082644994572184
   00057_VAL    00069_GLN  7.194056310586937e-05
   00057_VAL    00071_ALA  8.908646629250479e-06
   00057_VAL    00080_THR  2.235523662114595e-05
   00057_VAL    00074_LEU  0.009210653752533297
   00057_VAL    00082_THR  0.0034961888879819197
   00057_VAL    00058_ASN  1.9562345871556543
   00057_VAL    00062_LEU  0.009300405918577675
   00057_VAL    00065_ALA  5.333296437265398e-06
   00057_VAL    00060_VAL  0.03649344235081896
   00057_VAL    00063_ARG  0.00022789007729583246
   00057_VAL    00076_ASN  0.00016242173195033413
   00057_VAL    00078_GLY  3.5587559732942894e-05
   00057_VAL    00077_ALA  0.004121794126003806
   00057_VAL    00072_ILE  1.7529521677143254e-05
   00057_VAL    00075_LYS  0.0001980786401441753
   00057_VAL    00070_ALA  7.314159370774559e-05
   00058_ASN    00084_ILE  5.175158625821179e-05
   00058_ASN    00075_LYS  0.00043844381218600286
   00058_ASN    00081_VAL  0.01113870113601177
   00058_ASN    00073_ALA  0.0002508808451871451
   00058_ASN    00083_ILE  0.00026384503366114903
   00058_ASN    00059_GLY  2.078264149087635
   00058_ASN    00080_THR  0.027515342918588565
   00058_ASN    00074_LEU  0.00011866015376911844
   00058_ASN    00082_THR  0.04343707934241532
   00058_ASN    00077_ALA  0.01326282353269485
   00058_ASN    00060_VAL  0.0020059043375223497
   00058_ASN    00076_ASN  0.0008185889827890744
   00058_ASN    00079_GLN  0.0002840189902983107
   00058_ASN    00078_GLY  0.021967423209187202
   00058_ASN    00062_LEU  1.2896375093065996e-05
   00058_ASN    00072_ILE  2.066100662054616e-05
   00058_ASN    00070_ALA  1.815388755151208e-05
   00059_GLY    00084_ILE  3.126924725874926e-05
   00059_GLY    00060_VAL  2.405991557097551
   00059_GLY    00081_VAL  2.0542801524185708e-05
   00059_GLY    00076_ASN  3.52561589019863e-05
   00059_GLY    00073_ALA  1.712907019562654e-05
   00059_GLY    00083_ILE  3.365731311982457e-05
   00059_GLY    00062_LEU  3.466078988838282e-05
   00059_GLY    00061_ASP  0.0019323452606894481
   00059_GLY    00082_THR  0.00029212810015497313
   00059_GLY    00077_ALA  1.2562694649923237e-05
   00059_GLY    00063_ARG  0.00014051355613458894
   00060_VAL    00084_ILE  8.543909386488512e-05
   00060_VAL    00072_ILE  2.515060967569981e-05
   00060_VAL    00073_ALA  0.008292224976026184
   00060_VAL    00083_ILE  2.5427035535778725e-05
   00060_VAL    00069_GLN  0.0010397962438329215
   00060_VAL    00065_ALA  1.638374714228267e-05
   00060_VAL    00082_THR  3.299328889364288e-05
   00060_VAL    00062_LEU  0.0037984495404187095
   00060_VAL    00074_LEU  2.7170298558394433e-05
   00060_VAL    00063_ARG  0.00037204677313289875
   00060_VAL    00076_ASN  0.0001489320303048466
   00060_VAL    00077_ALA  2.0815598587846275e-05
   00060_VAL    00061_ASP  1.800680754237424
   00060_VAL    00070_ALA  2.136497591278713e-05
   00061_ASP    00084_ILE  0.0005385826534238742
   00061_ASP    00064_ASN  0.025635582985177912
   00061_ASP    00063_ARG  0.07717183003733177
   00061_ASP    00073_ALA  0.0004789204262035408
   00061_ASP    00070_ALA  0.00038743326685924864
   00061_ASP    00069_GLN  0.00539881521829071
   00061_ASP    00065_ALA  0.00362550587311045
   00061_ASP    00062_LEU  1.656799483987709
   00062_LEU    00084_ILE  5.9263716963922955e-05
   00062_LEU    00064_ASN  0.002005388108473813
   00062_LEU    00066_SER  0.0002936813378683136
   00062_LEU    00067_HID  4.16743124717669e-05
   00062_LEU    00073_ALA  0.004361157992319571
   00062_LEU    00083_ILE  2.3061989577332297e-05
   00062_LEU    00069_GLN  0.0008761664232004947
   00062_LEU    00071_ALA  1.601678096474651e-05
   00062_LEU    00065_ALA  0.02901390202897574
   00062_LEU    00074_LEU  2.7411858762496558e-05
   00062_LEU    00063_ARG  1.9855461573653992
   00062_LEU    00070_ALA  -0.00026084747907442274
   00062_LEU    00072_ILE  2.0782414320411786e-05
   00062_LEU    00068_GLU  0.0003349241531257009
   00063_ARG    00084_ILE  0.00034874317526289
   00063_ARG    00065_ALA  0.0040750448158577484
   00063_ARG    00088_LYS  0.02836194032334419
   00063_ARG    00064_ASN  1.9550176018343164
   00063_ARG    00086_GLN  0.002375063634002998
   00063_ARG    00091_GLU  0.004063288680842181
   00064_ASN    00069_GLN  8.032881639222222e-05
   00064_ASN    00066_SER  0.0002733019303743851
   00064_ASN    00065_ALA  2.110232103805036
   00065_ALA    00071_ALA  1.6188319641058035e-05
   00065_ALA    00066_SER  1.4872475636973574
   00065_ALA    00067_HID  0.00042009009681471496
   00065_ALA    00073_ALA  1.6875138698954137e-05
   00065_ALA    00070_ALA  0.00021206302172343858
   00065_ALA    00069_GLN  0.009885488191587041
   00065_ALA    00068_GLU  0.0002291866970896153
   00066_SER    00071_ALA  0.00043911489961871
   00066_SER    00067_HID  1.660557089456737
   00066_SER    00070_ALA  0.012897302722733484
   00066_SER    00069_GLN  0.033255168080149396
   00066_SER    00072_ILE  0.00012505071923355377
   00066_SER    00068_GLU  0.01153559835819152
   00067_HID    00095_PHE  2.2643472965845684e-05
   00067_HID    00071_ALA  0.013009127109704297
   00067_HID    00073_ALA  6.838575106617134e-05
   00067_HID    00070_ALA  0.006990468114288476
   00067_HID    00069_GLN  0.0029368756869991744
   00067_HID    00072_ILE  0.0002429491258679791
   00067_HID    00074_LEU  0.00010887295048174806
   00067_HID    00068_GLU  1.747281491774569
   00068_GLU    00071_ALA  0.014850463383805626
   00068_GLU    00073_ALA  0.0021858947167340366
   00068_GLU    00070_ALA  0.003367656684149828
   00068_GLU    00069_GLN  1.6830135408086206
   00068_GLU    00072_ILE  0.024010030275230448
   00068_GLU    00075_LYS  0.0020051538446955544
   00068_GLU    00074_LEU  0.0010544841553446998
   00069_GLN    00075_LYS  0.0009907769303656598
   00069_GLN    00076_ASN  0.0005749483074195341
   00069_GLN    00073_ALA  0.025722521759171033
   00069_GLN    00070_ALA  1.5930911482290584
   00069_GLN    00072_ILE  0.09021591475121958
   00069_GLN    00071_ALA  0.0020874861127304386
   00069_GLN    00074_LEU  0.0004375358318514556
   00070_ALA    00075_LYS  0.0010176840930538184
   00070_ALA    00076_ASN  0.0001390311010041627
   00070_ALA    00073_ALA  0.009300144327729068
   00070_ALA    00083_ILE  4.153121888382137e-06
   00070_ALA    00072_ILE  0.004164017915009464
   00070_ALA    00071_ALA  2.1652723775590847
   00070_ALA    00074_LEU  0.024563829911280078
   00071_ALA    00075_LYS  0.019448219803216853
   00071_ALA    00076_ASN  0.0003355684338004495
   00071_ALA    00073_ALA  0.0015491322215090875
   00071_ALA    00072_ILE  2.2468677362719625
   00071_ALA    00074_LEU  0.001944724819721561
   00071_ALA    00077_ALA  5.2920247352568103e-05
   00072_ILE    00075_LYS  0.02550155297658043
   00072_ILE    00076_ASN  0.02678190523638123
   00072_ILE    00073_ALA  2.422468140640921
   00072_ILE    00074_LEU  0.0006842129201353181
   00072_ILE    00077_ALA  0.0004284319013033253
   00073_ALA    00075_LYS  0.0035637125640324173
   00073_ALA    00081_VAL  2.3329835529183255e-05
   00073_ALA    00076_ASN  0.004777861700113564
   00073_ALA    00078_GLY  6.917447632496044e-05
   00073_ALA    00074_LEU  1.8791707737356254
   00073_ALA    00077_ALA  0.006852568549059571
   00074_LEU    00084_ILE  6.906477505199408e-06
   00074_LEU    00075_LYS  2.266056504260722
   00074_LEU    00081_VAL  0.0001924403851012302
   00074_LEU    00076_ASN  0.0021532477474192624
   00074_LEU    00079_GLN  5.934342582213619e-05
   00074_LEU    00078_GLY  0.00018404446497390507
   00074_LEU    00083_ILE  0.00015784630497049296
   00074_LEU    00082_THR  2.3169115003570087e-05
   00074_LEU    00080_THR  2.4375787608401217e-05
   00074_LEU    00077_ALA  0.006193728667415053
   00075_LYS    00078_GLY  0.000312345366110574
   00075_LYS    00081_VAL  0.00013935116444372406
   00075_LYS    00076_ASN  2.1515092000461937
   00075_LYS    00077_ALA  0.007481255783100936
   00076_ASN    00078_GLY  0.0006503549407647963
   00076_ASN    00081_VAL  2.2448793145347478e-05
   00076_ASN    00080_THR  4.030832873968551e-05
   00076_ASN    00077_ALA  2.1443807943320503
   00077_ALA    00083_ILE  9.985692931338394e-06
   00077_ALA    00081_VAL  0.006387089450015908
   00077_ALA    00079_GLN  0.000876793534839489
   00077_ALA    00078_GLY  2.226043109732652
   00077_ALA    00080_THR  0.00028895769922237467
   00077_ALA    00082_THR  0.00012199805878364238
   00078_GLY    00081_VAL  0.0038455686095145557
   00078_GLY    00080_THR  0.004345197274355981
   00078_GLY    00082_THR  0.00010931522133877263
   00078_GLY    00079_GLN  2.237096531460747
   00079_GLN    00081_VAL  0.0012053509392582114
   00079_GLN    00080_THR  1.9578037490054505
   00080_THR    00081_VAL  1.6003906450754017
   00080_THR    00083_ILE  1.6152278887986344e-05
   00080_THR    00082_THR  0.0012594959295712475
   00081_VAL    00084_ILE  2.1358952545220887e-05
   00081_VAL    00083_ILE  0.004719606736825944
   00081_VAL    00082_THR  1.6468485228302503
   00082_THR    00084_ILE  0.0002621428588184183
   00082_THR    00083_ILE  1.6065775194976246
   00083_ILE    00084_ILE  1.6784493856168832
   00083_ILE    00086_GLN  2.0990990649694097e-05
   00083_ILE    00085_ALA  0.005653765284092417
   00084_ILE    00086_GLN  0.00024732420394946424
   00084_ILE    00085_ALA  1.655095976291918
   00085_ALA    00086_GLN  2.005614295774509
   00085_ALA    00088_LYS  0.0008439196945389413
   00085_ALA    00087_TYR  0.00033042657522711674
   00086_GLN    00088_LYS  0.022857822133994645
   00086_GLN    00087_TYR  1.970343996078859
   00086_GLN    00091_GLU  0.0014537179101122774
   00086_GLN    00089_PRO  1.6680655936997043e-05
   00087_TYR    00088_LYS  1.6483186085689954
   00087_TYR    00092_TYR  5.070880877866836e-05
   00087_TYR    00089_PRO  0.005729877862447673
   00087_TYR    00090_GLU  0.0012757849700086637
   00087_TYR    00091_GLU  0.0004056905332488519
   00088_LYS    00095_PHE  0.00032537502485718134
   00088_LYS    00092_TYR  0.013172747695632866
   00088_LYS    00091_GLU  0.03460180935142109
   00088_LYS    00094_ARG  0.02100292639040565
   00088_LYS    00090_GLU  0.015444925905440445
   00088_LYS    00089_PRO  1.3291504002868653
   00088_LYS    00093_SER  0.0004196438736590116
   00089_PRO    00095_PHE  6.0399881844063066e-05
   00089_PRO    00092_TYR  0.00655121292861394
   00089_PRO    00094_ARG  0.0005367272616359028
   00089_PRO    00090_GLU  1.976995179636316
   00089_PRO    00091_GLU  0.0023860573536164426
   00089_PRO    00093_SER  0.01045958308946434
   00089_PRO    00096_GLU  0.00026777559604246234
   00090_GLU    00095_PHE  0.0008734384259051193
   00090_GLU    00092_TYR  0.0027138431701320058
   00090_GLU    00094_ARG  0.011711468559028274
   00090_GLU    00091_GLU  1.7310235543501922
   00090_GLU    00093_SER  0.1660255767326429
   00091_GLU    00095_PHE  0.004312566986038356
   00091_GLU    00092_TYR  1.600909616620391
   00091_GLU    00094_ARG  0.41631564552325095
   00091_GLU    00093_SER  0.009921881278361806
   00091_GLU    00096_GLU  0.0013315975834766616
   00092_TYR    00095_PHE  0.02448992481007681
   00092_TYR    00094_ARG  0.007214280589990421
   00092_TYR    00098_NME  1.3484236611716202e-05
   00092_TYR    00097_ALA  0.00041138896205722647
   00092_TYR    00093_SER  2.0138204981283514
   00092_TYR    00096_GLU  0.4117342144406521
   00093_SER    00095_PHE  0.00524693925769095
   00093_SER    00094_ARG  2.0085878489919105
   00093_SER    00098_NME  0.00031979495801912614
   00093_SER    00097_ALA  0.0076610424075318675
   00093_SER    00096_GLU  0.011985646690300129
   00094_ARG    00095_PHE  2.4103590842979545
   00094_ARG    00098_NME  0.00017594598516152996
   00094_ARG    00097_ALA  0.0015826051275603617
   00094_ARG    00096_GLU  0.006485736239802021
   00095_PHE    00098_NME  0.00011742528420505417
   00095_PHE    00097_ALA  0.004929300765929304
   00095_PHE    00096_GLU  1.9741197317025256
   00096_GLU    00097_ALA  2.0593145906092123
   00096_GLU    00098_NME  0.002467271306101338
   00097_ALA    00098_NME  1.786780653292833
