   00001_ACE    00046_GLY  2.1694824876207683e-07
   00001_ACE    00002_ILE  1.6479034596837048
   00001_ACE    00087_TYR  0.00040890600602215316
   00001_ACE    00049_ARG  0.00041276728142501835
   00001_ACE    00004_ARG  0.00021311175655829758
   00001_ACE    00007_ARG  9.749568727680895e-05
   00001_ACE    00003_PRO  0.0004359520797506896
   00001_ACE    00089_PRO  0.00786902618289459
   00001_ACE    00047_GLU  2.9095565410819928e-05
   00002_ILE    00046_GLY  6.295970757001913e-07
   00002_ILE    00048_LEU  1.6960087502718937e-06
   00002_ILE    00088_LYS  0.0008790195921568223
   00002_ILE    00051_GLY  1.1457000140079231e-05
   00002_ILE    00085_ALA  1.801570848659708e-06
   00002_ILE    00036_ILE  3.8107397046400503e-07
   00002_ILE    00004_ARG  0.0017441227684030077
   00002_ILE    00007_ARG  0.0002144743907339961
   00002_ILE    00009_ILE  2.511403953902717e-07
   00002_ILE    00005_GLU  0.0006522122186713276
   00002_ILE    00047_GLU  5.930689560167105e-05
   00002_ILE    00045_SER  4.034559888625754e-07
   00002_ILE    00087_TYR  0.0012803931604974457
   00002_ILE    00086_GLN  0.00010488886282265699
   00002_ILE    00050_LYS  9.046804804061161e-05
   00002_ILE    00052_ASP  0.00027829548119209796
   00002_ILE    00006_PRO  1.2166768164954098e-06
   00002_ILE    00003_PRO  1.1647595875879606
   00002_ILE    00089_PRO  0.00033258065102657886
   00002_ILE    00049_ARG  0.0011838633226062512
   00003_PRO    00088_LYS  0.010868546407486893
   00003_PRO    00087_TYR  0.005967248925079893
   00003_PRO    00086_GLN  0.001503769935919469
   00003_PRO    00085_ALA  6.6585657516810035e-06
   00003_PRO    00047_GLU  4.597133385781372e-05
   00003_PRO    00004_ARG  1.9364992343979721
   00003_PRO    00052_ASP  0.00023221935418446724
   00003_PRO    00007_ARG  0.0002824991625663367
   00003_PRO    00006_PRO  6.679350882796695e-06
   00003_PRO    00008_ARG  1.456593301693405e-05
   00003_PRO    00009_ILE  4.873573995443684e-07
   00003_PRO    00005_GLU  0.001897258819403382
   00003_PRO    00049_ARG  0.0005656681520932426
   00004_ARG    00088_LYS  0.0028663193264533583
   00004_ARG    00087_TYR  0.04180298326443447
   00004_ARG    00089_PRO  0.00011116292857760775
   00004_ARG    00086_GLN  0.05851422074882797
   00004_ARG    00090_GLU  0.0007782439557590833
   00004_ARG    00085_ALA  0.00042790319232442937
   00004_ARG    00007_ARG  0.017859625146304996
   00004_ARG    00006_PRO  0.0013912636509547218
   00004_ARG    00055_LEU  0.00012660231125201469
   00004_ARG    00005_GLU  2.1595623655881573
   00004_ARG    00091_GLU  0.0006076886234617727
   00005_GLU    00084_ILE  0.0002405314895468493
   00005_GLU    00088_LYS  0.0016101955586350493
   00005_GLU    00087_TYR  0.0052874425110208565
   00005_GLU    00086_GLN  0.010588230517289837
   00005_GLU    00085_ALA  0.0011034322970250915
   00005_GLU    00007_ARG  0.020583648163055183
   00005_GLU    00006_PRO  1.1706849023802652
   00005_GLU    00055_LEU  0.0002646702935035998
   00005_GLU    00008_ARG  0.0014690310056332835
   00006_PRO    00084_ILE  0.00018458615457842044
   00006_PRO    00088_LYS  0.00012715229344979618
   00006_PRO    00087_TYR  6.0718384624301535e-05
   00006_PRO    00063_ARG  9.778951372091315e-05
   00006_PRO    00086_GLN  0.01076337431585347
   00006_PRO    00085_ALA  0.005658588160216588
   00006_PRO    00052_ASP  0.00027025006547331685
   00006_PRO    00007_ARG  1.9778369673265617
   00006_PRO    00055_LEU  0.003104140659576245
   00006_PRO    00009_ILE  1.6197780805716934e-05
   00006_PRO    00008_ARG  0.0002952176799332283
   00006_PRO    00053_GLN  6.878661661329801e-05
   00007_ARG    00084_ILE  0.008375632637989494
   00007_ARG    00046_GLY  0.0010441226136839816
   00007_ARG    00048_LEU  0.021349464648165218
   00007_ARG    00054_ILE  0.0004903161178978757
   00007_ARG    00088_LYS  0.0029001712742585182
   00007_ARG    00033_ILE  0.0007258493140993446
   00007_ARG    00051_GLY  0.0011307084637623848
   00007_ARG    00085_ALA  0.05098531744663585
   00007_ARG    00036_ILE  0.0002494393395123145
   00007_ARG    00083_ILE  0.0007982708151857604
   00007_ARG    00055_LEU  0.0006768957779769121
   00007_ARG    00009_ILE  0.007903697805186374
   00007_ARG    00082_THR  0.0003962512771837331
   00007_ARG    00053_GLN  0.002930614791140991
   00007_ARG    00087_TYR  0.013042765456731099
   00007_ARG    00086_GLN  0.0138701235282025
   00007_ARG    00047_GLU  0.12558726887382485
   00007_ARG    00052_ASP  0.6080975940336848
   00007_ARG    00008_ARG  1.9357222153800344
   00007_ARG    00049_ARG  0.04177853486466595
   00008_ARG    00084_ILE  0.01863519245116399
   00008_ARG    00048_LEU  0.0002602087133122249
   00008_ARG    00059_GLY  0.0012027938737013584
   00008_ARG    00081_VAL  0.0007357612468003408
   00008_ARG    00085_ALA  0.0010493767301366945
   00008_ARG    00083_ILE  0.006479113705625334
   00008_ARG    00009_ILE  1.8518423621955336
   00008_ARG    00080_THR  0.0008789286380635932
   00008_ARG    00082_THR  0.010512200770382469
   00008_ARG    00047_GLU  0.005454944437229539
   00008_ARG    00010_VAL  0.002734060779367549
   00008_ARG    00056_SER  0.0021697432668620594
   00008_ARG    00063_ARG  0.0017020516835508969
   00008_ARG    00058_ASN  0.002307499758524429
   00009_ILE    00084_ILE  0.00025123153754064994
   00009_ILE    00046_GLY  1.2480021549057127e-05
   00009_ILE    00048_LEU  0.006407307872655116
   00009_ILE    00054_ILE  8.729048461880624e-06
   00009_ILE    00056_SER  7.765195707456247e-05
   00009_ILE    00081_VAL  0.0003185476136747284
   00009_ILE    00033_ILE  1.1515669997722585e-06
   00009_ILE    00085_ALA  0.0123220267322066
   00009_ILE    00057_VAL  2.4726559406032368e-05
   00009_ILE    00083_ILE  0.049986212265228515
   00009_ILE    00055_LEU  1.6548599440783227e-05
   00009_ILE    00018_LEU  7.517717106265162e-06
   00009_ILE    00042_ALA  1.3865194947550812e-05
   00009_ILE    00082_THR  0.003899284175141148
   00009_ILE    00047_GLU  0.012523965884589254
   00009_ILE    00011_ILE  0.002875587395822821
   00009_ILE    00045_SER  6.559983143195671e-05
   00009_ILE    00087_TYR  8.979264281868547e-07
   00009_ILE    00012_HIE  2.607828237550792e-05
   00009_ILE    00086_GLN  7.808197930780617e-06
   00009_ILE    00052_ASP  0.0007195140463661723
   00009_ILE    00010_VAL  1.7869280891092747
   00009_ILE    00041_PRO  1.229230762250122e-05
   00009_ILE    00020_PHE  4.111302176019382e-06
   00009_ILE    00049_ARG  0.00016992477029628957
   00010_VAL    00084_ILE  1.1475104188783934e-05
   00010_VAL    00048_LEU  2.109275483905874e-05
   00010_VAL    00081_VAL  0.04752983003553312
   00010_VAL    00083_ILE  0.0006512787097717523
   00010_VAL    00080_THR  0.0012383845278715006
   00010_VAL    00018_LEU  1.7002865923771005e-05
   00010_VAL    00042_ALA  1.1687798575556146e-05
   00010_VAL    00082_THR  0.0025283758706162733
   00010_VAL    00058_ASN  5.0220267566276844e-05
   00010_VAL    00011_ILE  1.7014100524466458
   00010_VAL    00045_SER  0.00024317299653498262
   00010_VAL    00012_HIE  0.00021420207232941596
   00010_VAL    00079_GLN  2.1545563563512176e-05
   00010_VAL    00047_GLU  0.0036646724775508373
   00010_VAL    00041_PRO  2.7065190869712443e-05
   00011_ILE    00046_GLY  1.5177148585684738e-05
   00011_ILE    00043_ASP  0.00023261774554755903
   00011_ILE    00033_ILE  8.778006926440293e-07
   00011_ILE    00013_ARG  0.0007926449515680181
   00011_ILE    00085_ALA  3.6415773076889414e-06
   00011_ILE    00036_ILE  1.7823077420943097e-06
   00011_ILE    00082_THR  0.00016738409267846285
   00011_ILE    00042_ALA  0.00024387444114902694
   00011_ILE    00017_GLY  1.0669432805874123e-05
   00011_ILE    00045_SER  0.003445281130459021
   00011_ILE    00044_LEU  2.787516362162707e-05
   00011_ILE    00012_HIE  1.849233803217808
   00011_ILE    00047_GLU  0.0009919090092207802
   00011_ILE    00014_GLY  3.9322165091625165e-05
   00011_ILE    00019_GLY  7.841785767912205e-06
   00011_ILE    00048_LEU  0.0006422456347755595
   00011_ILE    00054_ILE  1.356748094888145e-06
   00011_ILE    00016_THR  3.3123183292448424e-06
   00011_ILE    00081_VAL  0.04252252028683338
   00011_ILE    00040_GLY  2.5007106856018394e-05
   00011_ILE    00057_VAL  8.818565450325676e-06
   00011_ILE    00083_ILE  0.002121021796098237
   00011_ILE    00018_LEU  0.0205853218779084
   00011_ILE    00080_THR  0.009074018167376153
   00011_ILE    00074_LEU  8.952667628728745e-06
   00011_ILE    00058_ASN  5.292389861583845e-05
   00011_ILE    00077_ALA  1.6998996269028452e-05
   00011_ILE    00079_GLN  0.00032042829219621556
   00011_ILE    00078_GLY  6.591691053200663e-05
   00011_ILE    00041_PRO  0.002461353290356869
   00011_ILE    00020_PHE  0.001134859220493603
   00012_HIE    00016_THR  5.645019377673059e-05
   00012_HIE    00081_VAL  0.0004325267793057997
   00012_HIE    00013_ARG  1.6661769828040514
   00012_HIE    00042_ALA  0.00016996643482986525
   00012_HIE    00018_LEU  0.018572622517400574
   00012_HIE    00080_THR  0.0046652389142449934
   00012_HIE    00047_GLU  0.00036698298964592626
   00012_HIE    00015_SER  0.00041546605427189543
   00012_HIE    00017_GLY  0.00012909928424986497
   00012_HIE    00045_SER  0.00016545812336066126
   00012_HIE    00044_LEU  6.881693879902727e-05
   00012_HIE    00079_GLN  0.02071819448431581
   00012_HIE    00078_GLY  9.169408226746234e-05
   00012_HIE    00014_GLY  0.018500152019396837
   00012_HIE    00041_PRO  0.0031445234915747386
   00013_ARG    00019_GLY  8.198533891048741e-05
   00013_ARG    00075_LYS  0.003352998576754318
   00013_ARG    00016_THR  0.0012323651093313728
   00013_ARG    00081_VAL  0.0007371311131424255
   00013_ARG    00040_GLY  0.00019733625251830818
   00013_ARG    00057_VAL  9.739219886161061e-05
   00013_ARG    00073_ALA  0.00016681075443880915
   00013_ARG    00083_ILE  7.483532873405274e-05
   00013_ARG    00018_LEU  0.0023660115778744227
   00013_ARG    00071_ALA  0.00010345804340526491
   00013_ARG    00080_THR  0.0036453053636895127
   00013_ARG    00074_LEU  0.0004614594756296244
   00013_ARG    00042_ALA  0.0001302269216704599
   00013_ARG    00077_ALA  0.0010613658536254304
   00013_ARG    00015_SER  0.004514869737795557
   00013_ARG    00017_GLY  0.00028609094166949175
   00013_ARG    00044_LEU  0.00018177530509038363
   00013_ARG    00076_ASN  0.000760284154882963
   00013_ARG    00079_GLN  0.21075923841234062
   00013_ARG    00058_ASN  0.0008702551410305117
   00013_ARG    00078_GLY  0.003869263502676877
   00013_ARG    00014_GLY  2.057360751175441
   00013_ARG    00041_PRO  0.00027381721027347424
   00013_ARG    00020_PHE  0.00011554779919976019
   00014_GLY    00015_SER  1.6553413938221275
   00014_GLY    00017_GLY  0.0016380825927685741
   00014_GLY    00016_THR  0.0013642487550952647
   00014_GLY    00081_VAL  5.371924546999287e-06
   00014_GLY    00079_GLN  0.0007707702130197254
   00014_GLY    00078_GLY  4.0575403063518756e-05
   00014_GLY    00041_PRO  0.0023706312868341244
   00014_GLY    00018_LEU  0.00011183303594207032
   00014_GLY    00080_THR  3.510936900257569e-05
   00014_GLY    00074_LEU  1.1987236368288575e-05
   00014_GLY    00077_ALA  1.1452859704638712e-05
   00015_SER    00017_GLY  0.0019229849224975343
   00015_SER    00078_GLY  7.864698830040144e-06
   00015_SER    00075_LYS  0.000274305193667172
   00015_SER    00016_THR  2.028528536537282
   00015_SER    00074_LEU  2.619609823047514e-06
   00015_SER    00079_GLN  7.380028940598293e-05
   00015_SER    00077_ALA  5.912742501094022e-06
   00016_THR    00019_GLY  0.00016328298519702628
   00016_THR    00075_LYS  0.00046312576162790755
   00016_THR    00039_GLY  5.2168192791435864e-05
   00016_THR    00081_VAL  1.5441860787365499e-06
   00016_THR    00040_GLY  8.163710457286147e-05
   00016_THR    00037_LEU  6.814979764824829e-05
   00016_THR    00018_LEU  0.00020325942955715714
   00016_THR    00074_LEU  7.79540352810845e-06
   00016_THR    00017_GLY  2.092578846080852
   00016_THR    00044_LEU  7.641747227144992e-06
   00016_THR    00079_GLN  2.220244814141911e-05
   00016_THR    00041_PRO  2.8836462784061123e-05
   00017_GLY    00019_GLY  0.007016512880420455
   00017_GLY    00074_LEU  3.534636442357108e-05
   00017_GLY    00075_LYS  0.00024803326207104937
   00017_GLY    00081_VAL  6.932459845715632e-06
   00017_GLY    00040_GLY  0.0004390202476048269
   00017_GLY    00037_LEU  6.054353697739907e-05
   00017_GLY    00018_LEU  1.7213504277424958
   00017_GLY    00041_PRO  0.0009725400201926999
   00017_GLY    00071_ALA  7.4169827694125524e-06
   00017_GLY    00042_ALA  7.549207087568241e-05
   00017_GLY    00020_PHE  0.00016158790317779507
   00018_LEU    00033_ILE  6.48704058479111e-06
   00018_LEU    00036_ILE  3.617214548581714e-05
   00018_LEU    00037_LEU  0.00011608229399555326
   00018_LEU    00071_ALA  2.4214315380103837e-05
   00018_LEU    00082_THR  7.538779075945985e-06
   00018_LEU    00021_ASN  2.763507939996257e-05
   00018_LEU    00045_SER  0.00016965810730394158
   00018_LEU    00044_LEU  6.118411128927924e-05
   00018_LEU    00022_ILE  1.0911060445662123e-05
   00018_LEU    00076_ASN  1.3563096976151434e-05
   00018_LEU    00043_ASP  0.0005857526749906701
   00018_LEU    00047_GLU  0.00020550085718989774
   00018_LEU    00070_ALA  1.5768873618747018e-05
   00018_LEU    00019_GLY  2.1806367039242747
   00018_LEU    00048_LEU  8.004655025172587e-05
   00018_LEU    00054_ILE  2.945580169179515e-06
   00018_LEU    00075_LYS  0.0003988139383074388
   00018_LEU    00081_VAL  0.02162276216720379
   00018_LEU    00040_GLY  0.0007933017255148052
   00018_LEU    00057_VAL  8.583348197577768e-06
   00018_LEU    00073_ALA  1.4452581587991057e-05
   00018_LEU    00083_ILE  8.136468145896568e-05
   00018_LEU    00042_ALA  0.017533192146494993
   00018_LEU    00074_LEU  0.051529091341569376
   00018_LEU    00058_ASN  8.121421858031142e-06
   00018_LEU    00077_ALA  2.5059216847627235e-05
   00018_LEU    00080_THR  4.38203153537726e-05
   00018_LEU    00079_GLN  4.8580081213056976e-05
   00018_LEU    00078_GLY  6.611086888607018e-05
   00018_LEU    00041_PRO  0.007612975841775479
   00018_LEU    00020_PHE  0.0057779874598882066
   00019_GLY    00048_LEU  6.202641560884522e-05
   00019_GLY    00039_GLY  2.4117893863111224e-05
   00019_GLY    00033_ILE  2.347513086003009e-05
   00019_GLY    00036_ILE  0.01201059889709737
   00019_GLY    00037_LEU  0.02950338435446841
   00019_GLY    00042_ALA  0.0044407740153436
   00019_GLY    00074_LEU  1.102448309393938e-05
   00019_GLY    00021_ASN  0.00023179770624497911
   00019_GLY    00038_ALA  0.00016476047576781212
   00019_GLY    00044_LEU  2.2490847663071472e-05
   00019_GLY    00022_ILE  1.5530581866985907e-05
   00019_GLY    00043_ASP  0.0006663091615273553
   00019_GLY    00035_PHE  0.00024402105171328388
   00019_GLY    00041_PRO  0.00020183415978045703
   00019_GLY    00020_PHE  1.8276578668350172
   00019_GLY    00040_GLY  0.004500968686725378
   00020_PHE    00033_ILE  0.010930366226902797
   00020_PHE    00023_VAL  2.0023196986941754e-05
   00020_PHE    00085_ALA  1.4545705069386872e-06
   00020_PHE    00036_ILE  0.009407616589286955
   00020_PHE    00037_LEU  0.0052295077723833825
   00020_PHE    00082_THR  2.9756546966422718e-06
   00020_PHE    00021_ASN  1.7384118434045084
   00020_PHE    00032_PHE  2.8859223841772032e-05
   00020_PHE    00045_SER  1.352659449979769e-05
   00020_PHE    00022_ILE  0.015172192809795457
   00020_PHE    00043_ASP  0.000476586488286066
   00020_PHE    00047_GLU  0.00017141521685950915
   00020_PHE    00070_ALA  1.5232960877838679e-05
   00020_PHE    00049_ARG  0.00014447998721610813
   00020_PHE    00048_LEU  -0.0003316384309806625
   00020_PHE    00054_ILE  0.0002893617978025316
   00020_PHE    00071_ALA  1.4889046787274375e-05
   00020_PHE    00081_VAL  8.109589207684941e-06
   00020_PHE    00040_GLY  5.883107952446756e-05
   00020_PHE    00062_LEU  7.034346478380827e-07
   00020_PHE    00057_VAL  4.186107816684347e-06
   00020_PHE    00067_HID  1.0446670759383478e-05
   00020_PHE    00083_ILE  -0.001209817389198809
   00020_PHE    00031_ILE  6.664333688390574e-06
   00020_PHE    00034_SER  0.0002096682778119782
   00020_PHE    00042_ALA  0.04154183355861279
   00020_PHE    00074_LEU  0.004377819669412479
   00020_PHE    00077_ALA  3.999030906560539e-06
   00020_PHE    00050_LYS  0.00042896470565150814
   00020_PHE    00052_ASP  0.0004901357117968704
   00020_PHE    00041_PRO  3.6804710244587415e-05
   00020_PHE    00035_PHE  0.003036172077282954
   00021_ASN    00048_LEU  1.4330136388831612e-05
   00021_ASN    00054_ILE  1.0718642712507116e-05
   00021_ASN    00071_ALA  7.971879415518077e-06
   00021_ASN    00092_TYR  9.023429702534832e-05
   00021_ASN    00033_ILE  0.004744429185286112
   00021_ASN    00034_SER  0.03421906371614164
   00021_ASN    00023_VAL  0.0020515717578954377
   00021_ASN    00067_HID  6.28513196270044e-05
   00021_ASN    00036_ILE  0.00023636672341053035
   00021_ASN    00024_GLY  2.5961368958192694e-05
   00021_ASN    00095_PHE  4.878778005590125e-05
   00021_ASN    00031_ILE  3.216408185312147e-05
   00021_ASN    00098_NME  7.833185989263159e-07
   00021_ASN    00037_LEU  0.0005460819458029195
   00021_ASN    00074_LEU  8.005091019897594e-06
   00021_ASN    00032_PHE  0.00040153235884660284
   00021_ASN    00022_ILE  1.5007069733535439
   00021_ASN    00050_LYS  0.0038466601389371734
   00021_ASN    00097_ALA  1.2538424623907131e-05
   00021_ASN    00035_PHE  0.02886796391344764
   00022_ILE    00092_TYR  2.7454882161769376e-05
   00022_ILE    00025_GLY  1.265830995948117e-05
   00022_ILE    00033_ILE  0.004233343202720025
   00022_ILE    00023_VAL  1.719168725169288
   00022_ILE    00036_ILE  6.8623591442046615e-06
   00022_ILE    00024_GLY  0.00020944622533101235
   00022_ILE    00065_ALA  6.0248084418612046e-06
   00022_ILE    00053_GLN  4.024433205267675e-05
   00022_ILE    00032_PHE  0.005114016932939644
   00022_ILE    00070_ALA  -0.00048616058361009435
   00022_ILE    00072_ILE  4.539622359606594e-06
   00022_ILE    00068_GLU  0.0004181334701605363
   00022_ILE    00048_LEU  6.277527338741287e-06
   00022_ILE    00054_ILE  0.002904874457616571
   00022_ILE    00071_ALA  0.0012314241568174434
   00022_ILE    00030_GLY  1.5608843678057094e-05
   00022_ILE    00066_SER  2.8873570261598532e-05
   00022_ILE    00057_VAL  2.236623391750188e-06
   00022_ILE    00067_HID  0.002520996231984411
   00022_ILE    00073_ALA  7.0582640547497e-06
   00022_ILE    00083_ILE  3.858669843447335e-06
   00022_ILE    00031_ILE  0.001615465305114889
   00022_ILE    00069_GLN  1.3528593062730618e-05
   00022_ILE    00034_SER  0.0009947067765938061
   00022_ILE    00074_LEU  0.0020315948772115277
   00022_ILE    00062_LEU  5.629477930283701e-06
   00022_ILE    00052_ASP  0.0005377899788276001
   00022_ILE    00035_PHE  9.559307240473816e-05
   00023_VAL    00054_ILE  4.3091893285209696e-05
   00023_VAL    00030_GLY  0.0003534123611456302
   00023_VAL    00092_TYR  0.00032853935248495944
   00023_VAL    00025_GLY  0.000234903035708522
   00023_VAL    00033_ILE  0.0005521949714589383
   00023_VAL    00098_NME  6.55559134063932e-07
   00023_VAL    00051_GLY  2.0510847045165493e-05
   00023_VAL    00067_HID  0.01021459106288724
   00023_VAL    00097_ALA  5.652354954513077e-06
   00023_VAL    00029_GLU  0.00041809739394229884
   00023_VAL    00095_PHE  0.004676719109134168
   00023_VAL    00031_ILE  0.0020619505544681132
   00023_VAL    00034_SER  0.005487775321865075
   00023_VAL    00024_GLY  1.7718448340658943
   00023_VAL    00065_ALA  5.657204017933166e-05
   00023_VAL    00053_GLN  8.782351551739863e-05
   00023_VAL    00032_PHE  0.05123079422966471
   00023_VAL    00035_PHE  9.404827845539436e-06
   00023_VAL    00068_GLU  0.00037283622085869026
   00023_VAL    00094_ARG  0.0005977066408453507
   00023_VAL    00050_LYS  0.0008421285813386737
   00023_VAL    00052_ASP  0.0006293163642724461
   00023_VAL    00070_ALA  3.16187946632437e-05
   00023_VAL    00066_SER  9.81188359379077e-05
   00023_VAL    00026_GLU  0.00033251257541075217
   00023_VAL    00096_GLU  0.0005223706476114324
   00024_GLY    00095_PHE  0.024623211929894296
   00024_GLY    00030_GLY  0.0007411545821823624
   00024_GLY    00092_TYR  2.013287885981326e-05
   00024_GLY    00025_GLY  1.563626711095613
   00024_GLY    00026_GLU  0.0038425804683510983
   00024_GLY    00028_GLY  5.425587338345205e-05
   00024_GLY    00067_HID  0.05557101783412583
   00024_GLY    00029_GLU  0.0005535943392893807
   00024_GLY    00031_ILE  0.00042211955453042043
   00024_GLY    00069_GLN  8.829072243403333e-05
   00024_GLY    00034_SER  2.7944644902594677e-05
   00024_GLY    00065_ALA  0.0003192325451899358
   00024_GLY    00053_GLN  4.276244990668157e-05
   00024_GLY    00032_PHE  0.0003808260272477514
   00024_GLY    00094_ARG  0.000777823702940691
   00024_GLY    00070_ALA  5.064431362583161e-05
   00024_GLY    00068_GLU  0.0007543128890491956
   00024_GLY    00066_SER  0.0048368230382206
   00025_GLY    00095_PHE  7.208897074441526e-05
   00025_GLY    00064_ASN  0.00036202012311341454
   00025_GLY    00030_GLY  0.003915078040798898
   00025_GLY    00066_SER  0.012438955416254605
   00025_GLY    00028_GLY  0.005270322441687283
   00025_GLY    00067_HID  0.0005876131935551177
   00025_GLY    00029_GLU  0.0015086628290351032
   00025_GLY    00031_ILE  0.0008547379233069463
   00025_GLY    00069_GLN  4.311199453473886e-05
   00025_GLY    00065_ALA  0.0019667785987925444
   00025_GLY    00053_GLN  6.575724407412854e-05
   00025_GLY    00062_LEU  2.3987061292255233e-05
   00025_GLY    00063_ARG  0.00010201273511375779
   00025_GLY    00094_ARG  0.0010822003549089436
   00025_GLY    00027_ASP  0.0019990933498552185
   00025_GLY    00032_PHE  6.657800184049294e-05
   00025_GLY    00068_GLU  0.0003859712177138739
   00025_GLY    00026_GLU  2.128583630004772
   00025_GLY    00070_ALA  5.890015372057064e-06
   00026_GLU    00095_PHE  0.0004487659354960457
   00026_GLU    00064_ASN  0.0013328566853810179
   00026_GLU    00030_GLY  0.002907096319897598
   00026_GLU    00066_SER  0.004429522607195323
   00026_GLU    00028_GLY  0.022238508380346148
   00026_GLU    00067_HID  0.0017161309157956702
   00026_GLU    00029_GLU  0.02329972285300522
   00026_GLU    00031_ILE  0.00037680117733152925
   00026_GLU    00069_GLN  0.0008628830317695881
   00026_GLU    00065_ALA  0.0007257026298051403
   00026_GLU    00032_PHE  0.0003687568590763642
   00026_GLU    00094_ARG  0.007967219562578225
   00026_GLU    00027_ASP  1.895747637713403
   00026_GLU    00068_GLU  0.0016023688267815552
   00027_ASP    00064_ASN  0.001275621573242157
   00027_ASP    00030_GLY  0.0006772500462636733
   00027_ASP    00063_ARG  0.0006367496819603161
   00027_ASP    00066_SER  0.0008233185833757502
   00027_ASP    00094_ARG  0.016255293756704346
   00027_ASP    00028_GLY  2.2565603644764582
   00027_ASP    00067_HID  0.0003959950452675836
   00027_ASP    00029_GLU  0.013015175395211154
   00027_ASP    00069_GLN  0.0004200048242391722
   00027_ASP    00065_ALA  0.00029543056875978895
   00028_GLY    00064_ASN  0.00859029575374129
   00028_GLY    00030_GLY  0.004699256851944046
   00028_GLY    00063_ARG  0.0005363315840433763
   00028_GLY    00066_SER  9.237301844227885e-05
   00028_GLY    00094_ARG  0.0007580324109523362
   00028_GLY    00067_HID  3.615721296919328e-05
   00028_GLY    00029_GLU  2.2505416285225177
   00028_GLY    00031_ILE  2.9144004573440236e-05
   00028_GLY    00032_PHE  1.4593964492761008e-05
   00028_GLY    00069_GLN  2.2969680734979572e-05
   00028_GLY    00088_LYS  0.0006892094436280834
   00028_GLY    00065_ALA  0.00037781944519826985
   00028_GLY    00053_GLN  0.0005647710348209448
   00028_GLY    00062_LEU  2.16660835454907e-05
   00029_GLU    00095_PHE  0.002061365912245292
   00029_GLU    00064_ASN  0.0013179864824045204
   00029_GLU    00030_GLY  2.280173876701128
   00029_GLU    00066_SER  0.0004666751510329251
   00029_GLU    00067_HID  0.0004756865309506612
   00029_GLU    00031_ILE  0.0006051456339444832
   00029_GLU    00088_LYS  0.006720261639773413
   00029_GLU    00065_ALA  0.00041371934229532517
   00029_GLU    00053_GLN  0.009658194736799316
   00029_GLU    00062_LEU  0.00021453279106245453
   00029_GLU    00063_ARG  0.0009816571666237735
   00029_GLU    00094_ARG  0.4222124976505304
   00029_GLU    00086_GLN  0.000720821669968416
   00029_GLU    00032_PHE  0.0042303513262101165
   00029_GLU    00055_LEU  0.000286015890723756
   00029_GLU    00091_GLU  0.024753383693917975
   00030_GLY    00054_ILE  0.00022786185063793996
   00030_GLY    00064_ASN  0.0003488377614736373
   00030_GLY    00092_TYR  4.0966226610194694e-05
   00030_GLY    00066_SER  8.380634639545681e-05
   00030_GLY    00067_HID  0.00014015162056690082
   00030_GLY    00095_PHE  0.00011095042968083052
   00030_GLY    00031_ILE  1.553752446208501
   00030_GLY    00088_LYS  0.00098147346266845
   00030_GLY    00065_ALA  0.0008690575951180861
   00030_GLY    00053_GLN  0.006629892170042086
   00030_GLY    00032_PHE  -4.977164982015949e-05
   00030_GLY    00063_ARG  0.00061209355635954
   00030_GLY    00094_ARG  0.0008355659758304569
   00030_GLY    00086_GLN  2.841763478715387e-05
   00030_GLY    00062_LEU  0.00022971641522238697
   00030_GLY    00055_LEU  5.0498281130295194e-05
   00030_GLY    00091_GLU  0.0014809933730437976
   00030_GLY    00070_ALA  1.3595407940031918e-05
   00031_ILE    00064_ASN  4.09244269552135e-05
   00031_ILE    00092_TYR  2.3537289675742478e-05
   00031_ILE    00033_ILE  0.00027641483050199974
   00031_ILE    00054_ILE  0.019907033311734688
   00031_ILE    00055_LEU  9.207811601606608e-05
   00031_ILE    00088_LYS  0.0005428011111144349
   00031_ILE    00065_ALA  0.012264550257952294
   00031_ILE    00053_GLN  0.011992559573845363
   00031_ILE    00032_PHE  1.6419399535627945
   00031_ILE    00070_ALA  0.01572494088668467
   00031_ILE    00068_GLU  0.0002776334243776065
   00031_ILE    00095_PHE  1.959939189419968e-05
   00031_ILE    00071_ALA  1.3110164892472838e-05
   00031_ILE    00066_SER  0.0035245731322228026
   00031_ILE    00057_VAL  4.3918622378478905e-06
   00031_ILE    00067_HID  0.014533784409859696
   00031_ILE    00073_ALA  5.22694893191338e-06
   00031_ILE    00083_ILE  6.3697052790492985e-06
   00031_ILE    00069_GLN  5.913899403677995e-05
   00031_ILE    00034_SER  2.7401416474266312e-05
   00031_ILE    00074_LEU  7.834581384762347e-06
   00031_ILE    00062_LEU  0.013726927124164998
   00031_ILE    00056_SER  1.9133171315399852e-05
   00031_ILE    00063_ARG  0.0003166986181323071
   00031_ILE    00094_ARG  0.0003124126017764724
   00031_ILE    00052_ASP  0.0010980713696892655
   00031_ILE    00061_ASP  0.0004138394287392502
   00032_PHE    00095_PHE  -2.69048244830743e-05
   00032_PHE    00088_LYS  0.009887688088762602
   00032_PHE    00092_TYR  0.025947080688818208
   00032_PHE    00033_ILE  2.0980371964874793
   00032_PHE    00051_GLY  0.00443014160189974
   00032_PHE    00090_GLU  0.00027515112734664474
   00032_PHE    00067_HID  0.00012894750712759114
   00032_PHE    00085_ALA  1.9922543976476836e-05
   00032_PHE    00054_ILE  0.00035402944951686525
   00032_PHE    00055_LEU  1.0303155720043405e-05
   00032_PHE    00034_SER  0.0013876831472715645
   00032_PHE    00091_GLU  0.012505331195073762
   00032_PHE    00065_ALA  3.938289522242234e-05
   00032_PHE    00053_GLN  0.01372953760452529
   00032_PHE    00035_PHE  5.2111003817697856e-05
   00032_PHE    00066_SER  2.9328081199578038e-05
   00032_PHE    00087_TYR  7.340603044490289e-05
   00032_PHE    00094_ARG  0.0008138047517552192
   00032_PHE    00063_ARG  0.00010532213966294765
   00032_PHE    00086_GLN  0.00019463442505418183
   00032_PHE    00050_LYS  0.0008800385303767429
   00032_PHE    00052_ASP  0.009087625638134434
   00032_PHE    00089_PRO  2.8233907489531247e-05
   00032_PHE    00049_ARG  0.0002656306187672589
   00032_PHE    00093_SER  2.1127420901508514e-05
   00032_PHE    00096_GLU  0.00035274869305991225
   00033_ILE    00084_ILE  5.0619273366172344e-06
   00033_ILE    00048_LEU  0.025140398246063324
   00033_ILE    00054_ILE  0.01301254078180704
   00033_ILE    00092_TYR  0.0007796040925241745
   00033_ILE    00051_GLY  0.014168880660344253
   00033_ILE    00085_ALA  1.8554036598034233e-05
   00033_ILE    00036_ILE  0.0150546747529085
   00033_ILE    00083_ILE  3.4927257778224654e-06
   00033_ILE    00034_SER  1.7377942007604572
   00033_ILE    00037_LEU  1.3979520199114302e-05
   00033_ILE    00042_ALA  1.1261780963402299e-05
   00033_ILE    00074_LEU  4.450062572197574e-06
   00033_ILE    00053_GLN  0.0002874215400003564
   00033_ILE    00049_ARG  0.0023309312296293464
   00033_ILE    00057_VAL  9.879329546904604e-07
   00033_ILE    00087_TYR  3.46071097850733e-05
   00033_ILE    00095_PHE  3.1955476100809664e-05
   00033_ILE    00086_GLN  3.004213541486345e-05
   00033_ILE    00050_LYS  0.008042757865042788
   00033_ILE    00052_ASP  0.03387610256231101
   00033_ILE    00070_ALA  3.335874190408838e-06
   00033_ILE    00035_PHE  0.0018894445277929178
   00033_ILE    00096_GLU  0.0007397854951761608
   00034_SER    00095_PHE  0.00015336679824455926
   00034_SER    00092_TYR  0.00559408322210678
   00034_SER    00051_GLY  0.0002346245168172313
   00034_SER    00036_ILE  0.00013084916468657847
   00034_SER    00052_ASP  0.0012204076311667764
   00034_SER    00096_GLU  0.005197759261455777
   00034_SER    00054_ILE  3.193835062540068e-06
   00034_SER    00098_NME  1.975891165971628e-06
   00034_SER    00050_LYS  0.06103210368210485
   00034_SER    00097_ALA  2.4080280209770968e-05
   00034_SER    00049_ARG  0.0005311961795721025
   00034_SER    00035_PHE  2.1828107453350705
   00035_PHE    00038_ALA  3.789068240342016e-05
   00035_PHE    00048_LEU  2.982972776902955e-05
   00035_PHE    00092_TYR  7.913071150597628e-05
   00035_PHE    00051_GLY  4.18971824574788e-05
   00035_PHE    00050_LYS  0.007673680318043786
   00035_PHE    00098_NME  3.4062951465383774e-07
   00035_PHE    00037_LEU  0.010987302151582983
   00035_PHE    00042_ALA  2.495101463406646e-05
   00035_PHE    00036_ILE  1.7966711740271837
   00035_PHE    00097_ALA  2.315073841352462e-06
   00035_PHE    00049_ARG  0.0005903582560383557
   00035_PHE    00096_GLU  0.0013619686701136686
   00036_ILE    00046_GLY  2.0283997717959674e-05
   00036_ILE    00048_LEU  0.003869244431065734
   00036_ILE    00054_ILE  1.9664560639530522e-07
   00036_ILE    00039_GLY  3.294005790840854e-05
   00036_ILE    00040_GLY  0.00011403566645778324
   00036_ILE    00051_GLY  6.302186687681638e-06
   00036_ILE    00037_LEU  1.5858466913838782
   00036_ILE    00042_ALA  0.005278935189289132
   00036_ILE    00047_GLU  0.00015695425054172726
   00036_ILE    00038_ALA  0.0010328534878390353
   00036_ILE    00045_SER  2.1199808240806664e-05
   00036_ILE    00044_LEU  2.6079179055249088e-05
   00036_ILE    00043_ASP  0.016897087887554747
   00036_ILE    00050_LYS  0.0037000584656255594
   00036_ILE    00052_ASP  0.0005744728036943556
   00036_ILE    00041_PRO  1.0406519484665123e-05
   00036_ILE    00049_ARG  0.006153548066668638
   00037_LEU    00038_ALA  1.7932169931422688
   00037_LEU    00044_LEU  0.00010864396500627894
   00037_LEU    00039_GLY  0.0013893855426773346
   00037_LEU    00040_GLY  0.010386170866476717
   00037_LEU    00043_ASP  0.005191434737798092
   00037_LEU    00041_PRO  4.670752081356304e-05
   00037_LEU    00042_ALA  0.00028549732618921605
   00038_ALA    00044_LEU  8.666652358784164e-05
   00038_ALA    00039_GLY  1.6428822486478742
   00038_ALA    00040_GLY  0.00546200963127559
   00038_ALA    00043_ASP  0.007233583539696162
   00038_ALA    00042_ALA  3.484773405597724e-05
   00039_GLY    00044_LEU  0.0072888504653625405
   00039_GLY    00040_GLY  2.485163720373108
   00039_GLY    00043_ASP  0.07632786590118072
   00039_GLY    00041_PRO  8.120387304943913e-05
   00039_GLY    00042_ALA  7.237615045191094e-05
   00040_GLY    00046_GLY  0.00011944985045995673
   00040_GLY    00045_SER  0.0007709966843707874
   00040_GLY    00044_LEU  0.022273476930118375
   00040_GLY    00043_ASP  0.05530046867286511
   00040_GLY    00041_PRO  1.1731748469583034
   00040_GLY    00042_ALA  0.002534692621445183
   00041_PRO    00046_GLY  0.0006364104142013915
   00041_PRO    00048_LEU  6.169463731123533e-05
   00041_PRO    00045_SER  0.12000157774734165
   00041_PRO    00044_LEU  0.005916929642411346
   00041_PRO    00081_VAL  1.533982663401577e-05
   00041_PRO    00043_ASP  0.002445155786920121
   00041_PRO    00083_ILE  2.9424448875294556e-06
   00041_PRO    00042_ALA  1.972038259561853
   00041_PRO    00074_LEU  4.7750189769944466e-06
   00041_PRO    00047_GLU  0.0004158800620926171
   00042_ALA    00046_GLY  0.006045849497681907
   00042_ALA    00048_LEU  0.01199671866757607
   00042_ALA    00045_SER  0.0013908841718111879
   00042_ALA    00044_LEU  0.00033784882188147024
   00042_ALA    00081_VAL  7.867725835091483e-06
   00042_ALA    00043_ASP  1.6958327608516457
   00042_ALA    00047_GLU  0.0029531614056439916
   00042_ALA    00083_ILE  4.023122567331247e-06
   00042_ALA    00049_ARG  0.00021196597114130772
   00043_ASP    00046_GLY  0.012330068661403593
   00043_ASP    00048_LEU  0.0015516197410869008
   00043_ASP    00045_SER  0.008977912021784815
   00043_ASP    00044_LEU  1.8348209598924687
   00043_ASP    00049_ARG  0.0022266179936720706
   00043_ASP    00047_GLU  0.0025633627828306536
   00044_LEU    00046_GLY  0.001938529316475651
   00044_LEU    00045_SER  1.7840711028312342
   00044_LEU    00047_GLU  0.0005258462158374662
   00045_SER    00046_GLY  1.901857276749784
   00045_SER    00048_LEU  0.00017813776423812036
   00045_SER    00047_GLU  0.01832030349888457
   00045_SER    00083_ILE  5.4398199242375104e-06
   00045_SER    00049_ARG  0.0003868911485642569
   00046_GLY    00048_LEU  0.003676398343263814
   00046_GLY    00047_GLU  2.2049813789108397
   00046_GLY    00049_ARG  0.0005954433866123632
   00047_GLU    00048_LEU  2.1961297574506164
   00047_GLU    00087_TYR  0.0006963766987429148
   00047_GLU    00085_ALA  0.0008611081123371079
   00047_GLU    00052_ASP  0.006918343157705668
   00047_GLU    00083_ILE  0.0007380497905025232
   00047_GLU    00049_ARG  0.006219330636479846
   00048_LEU    00084_ILE  2.1041078277118593e-05
   00048_LEU    00054_ILE  -3.4104638651462895e-05
   00048_LEU    00081_VAL  1.3773945686413673e-05
   00048_LEU    00057_VAL  3.1126602617437686e-06
   00048_LEU    00085_ALA  0.0009119865641614482
   00048_LEU    00083_ILE  0.0017684410982137437
   00048_LEU    00055_LEU  7.955755031991861e-06
   00048_LEU    00074_LEU  6.449982851645132e-06
   00048_LEU    00082_THR  7.962964697474547e-06
   00048_LEU    00053_GLN  4.9868286845684417e-05
   00048_LEU    00087_TYR  3.7375851900562063e-05
   00048_LEU    00086_GLN  2.5604850256385773e-05
   00048_LEU    00050_LYS  0.0004886023688970253
   00048_LEU    00052_ASP  0.018950501677054997
   00048_LEU    00049_ARG  1.7272863233262497
   00049_ARG    00054_ILE  0.00010185238746478581
   00049_ARG    00088_LYS  0.0022784979116760246
   00049_ARG    00087_TYR  0.06289452547290929
   00049_ARG    00092_TYR  0.0007727209140787627
   00049_ARG    00086_GLN  0.0017858104485812716
   00049_ARG    00051_GLY  0.0022223045334416724
   00049_ARG    00085_ALA  0.00036492622597482523
   00049_ARG    00050_LYS  1.6662898126958163
   00049_ARG    00052_ASP  0.15322276287032285
   00049_ARG    00089_PRO  0.0003134340583076021
   00049_ARG    00053_GLN  0.0006172213057095322
   00050_LYS    00095_PHE  0.0025167987224951585
   00050_LYS    00088_LYS  0.0010143861376171242
   00050_LYS    00087_TYR  0.002850059440550741
   00050_LYS    00092_TYR  0.06566491787985479
   00050_LYS    00097_ALA  0.0007604088306353751
   00050_LYS    00051_GLY  1.5650870070689524
   00050_LYS    00052_ASP  0.011630368583058352
   00050_LYS    00098_NME  0.00019761845069071963
   00050_LYS    00089_PRO  0.0003225193332535862
   00050_LYS    00093_SER  0.0010757142352379287
   00050_LYS    00096_GLU  0.27750106913816786
   00051_GLY    00095_PHE  2.10174354219356e-05
   00051_GLY    00088_LYS  0.02405103565150804
   00051_GLY    00092_TYR  0.0016334167552056122
   00051_GLY    00090_GLU  0.0003902034027662847
   00051_GLY    00053_GLN  0.001112011955440419
   00051_GLY    00087_TYR  0.0032708848101402877
   00051_GLY    00089_PRO  0.002430029349844358
   00051_GLY    00086_GLN  0.0003102873223932666
   00051_GLY    00052_ASP  2.046420242606307
   00051_GLY    00091_GLU  0.00018803826481588262
   00051_GLY    00093_SER  3.3163677690100374e-05
   00051_GLY    00096_GLU  0.0012630070071039197
   00052_ASP    00084_ILE  0.0007296715456165439
   00052_ASP    00054_ILE  0.002068325134200962
   00052_ASP    00088_LYS  0.004332798938579274
   00052_ASP    00087_TYR  0.026568110752793944
   00052_ASP    00092_TYR  0.0014539413606473052
   00052_ASP    00086_GLN  0.007732672235955018
   00052_ASP    00085_ALA  0.006473650090201131
   00052_ASP    00083_ILE  0.0005676092169477959
   00052_ASP    00055_LEU  0.0005955037340454669
   00052_ASP    00089_PRO  0.00032816281098648343
   00052_ASP    00053_GLN  1.5814555448322134
   00053_GLN    00084_ILE  0.0003311937095000523
   00053_GLN    00054_ILE  1.7344102658932303
   00053_GLN    00064_ASN  0.00031878400804934463
   00053_GLN    00092_TYR  4.393331280955187e-05
   00053_GLN    00085_ALA  0.012185390400414605
   00053_GLN    00095_PHE  1.2512107732887508e-05
   00053_GLN    00055_LEU  0.004303257312549969
   00053_GLN    00088_LYS  0.015285124515190832
   00053_GLN    00065_ALA  0.00027539038149983474
   00053_GLN    00091_GLU  0.0028734305340951433
   00053_GLN    00062_LEU  0.0010029557466882662
   00053_GLN    00056_SER  0.0001643040484610865
   00053_GLN    00087_TYR  0.0003370955618835898
   00053_GLN    00063_ARG  0.014143139144161307
   00053_GLN    00094_ARG  0.0007796045008973117
   00053_GLN    00086_GLN  0.023408694806893886
   00053_GLN    00083_ILE  4.2689808445762074e-05
   00053_GLN    00089_PRO  6.185904603148948e-06
   00054_ILE    00084_ILE  0.0012850475175961722
   00054_ILE    00064_ASN  7.618070532968031e-05
   00054_ILE    00081_VAL  3.3056409999382473e-06
   00054_ILE    00071_ALA  6.246256704187635e-06
   00054_ILE    00057_VAL  0.0019367055315528297
   00054_ILE    00067_HID  1.3123041504654649e-05
   00054_ILE    00085_ALA  0.00014436199228216068
   00054_ILE    00073_ALA  9.281103742326304e-06
   00054_ILE    00083_ILE  0.0056679808331062086
   00054_ILE    00055_LEU  1.5204272659909823
   00054_ILE    00088_LYS  0.0003805832334568396
   00054_ILE    00074_LEU  5.898486979717699e-05
   00054_ILE    00082_THR  1.1705066190419449e-05
   00054_ILE    00062_LEU  0.0017995072259640572
   00054_ILE    00056_SER  0.0017687875422946692
   00054_ILE    00065_ALA  7.760977862378808e-05
   00054_ILE    00060_VAL  3.6750907494961284e-05
   00054_ILE    00063_ARG  0.0009870247935650797
   00054_ILE    00086_GLN  0.00014905206010348173
   00054_ILE    00070_ALA  4.0485518762365905e-05
   00054_ILE    00061_ASP  0.0005297875253580561
   00055_LEU    00084_ILE  0.024146193321039754
   00055_LEU    00064_ASN  0.00012845646115803344
   00055_LEU    00088_LYS  0.0009918029394716172
   00055_LEU    00057_VAL  0.0002819147603564473
   00055_LEU    00085_ALA  0.002544553190391907
   00055_LEU    00083_ILE  0.00016168161359167123
   00055_LEU    00059_GLY  3.4933667413959405e-05
   00055_LEU    00065_ALA  4.850545222571531e-05
   00055_LEU    00062_LEU  0.014578593200415765
   00055_LEU    00056_SER  1.7911370661887933
   00055_LEU    00087_TYR  1.3532315938563253e-05
   00055_LEU    00060_VAL  0.00030225311454624526
   00055_LEU    00063_ARG  0.008217749573068471
   00055_LEU    00086_GLN  0.0094802567736232
   00055_LEU    00061_ASP  0.0030019907052274584
   00056_SER    00084_ILE  0.020772461041111814
   00056_SER    00059_GLY  0.0006942134396975781
   00056_SER    00081_VAL  3.31837442206557e-05
   00056_SER    00057_VAL  2.133264818824181
   00056_SER    00085_ALA  0.00017252951053575672
   00056_SER    00073_ALA  3.173331011333765e-05
   00056_SER    00083_ILE  0.00471030615920633
   00056_SER    00074_LEU  3.2938566609425525e-05
   00056_SER    00082_THR  0.00023220913623965415
   00056_SER    00058_ASN  0.0005583965152709212
   00056_SER    00062_LEU  0.0032719874553746127
   00056_SER    00060_VAL  0.03961071770700978
   00056_SER    00063_ARG  0.0028139863954615148
   00056_SER    00086_GLN  4.1770681126239084e-05
   00056_SER    00070_ALA  2.1081067767976157e-05
   00056_SER    00061_ASP  0.003906826007667573
   00057_VAL    00084_ILE  0.00021118293457599575
   00057_VAL    00059_GLY  0.010496038628708178
   00057_VAL    00081_VAL  0.0009521409967457192
   00057_VAL    00061_ASP  0.0015734933014151583
   00057_VAL    00085_ALA  7.991739448178914e-06
   00057_VAL    00073_ALA  0.001761283632906532
   00057_VAL    00083_ILE  0.016536005772568866
   00057_VAL    00069_GLN  4.031859610163327e-05
   00057_VAL    00071_ALA  1.2660400170799784e-05
   00057_VAL    00080_THR  1.7505970708374947e-05
   00057_VAL    00074_LEU  0.014378893657228668
   00057_VAL    00082_THR  0.006340106535065672
   00057_VAL    00058_ASN  2.2026527544414893
   00057_VAL    00062_LEU  0.00648910270401665
   00057_VAL    00065_ALA  6.47907560821626e-06
   00057_VAL    00060_VAL  0.02927140475098458
   00057_VAL    00063_ARG  0.000568756664315861
   00057_VAL    00076_ASN  9.843678338133181e-05
   00057_VAL    00078_GLY  9.20032967522243e-06
   00057_VAL    00077_ALA  3.734730277846876e-05
   00057_VAL    00072_ILE  1.527461987011632e-05
   00057_VAL    00075_LYS  0.00021178498114712786
   00057_VAL    00070_ALA  0.0001387538300872984
   00058_ASN    00084_ILE  4.7051185874733195e-05
   00058_ASN    00075_LYS  0.0007886645252690445
   00058_ASN    00081_VAL  0.004859761444356818
   00058_ASN    00073_ALA  0.0035686475722867582
   00058_ASN    00083_ILE  0.0005558380551684409
   00058_ASN    00059_GLY  2.195342003445135
   00058_ASN    00080_THR  0.0016256765590664597
   00058_ASN    00074_LEU  0.000261603419496627
   00058_ASN    00082_THR  0.0438841023026564
   00058_ASN    00077_ALA  0.004932002268319635
   00058_ASN    00060_VAL  0.002778952502146185
   00058_ASN    00076_ASN  0.002027723145093408
   00058_ASN    00079_GLN  6.548984698505118e-05
   00058_ASN    00078_GLY  0.001400141309710135
   00058_ASN    00062_LEU  4.5544117481799824e-06
   00058_ASN    00072_ILE  8.783313795307938e-05
   00058_ASN    00070_ALA  7.227407266611594e-05
   00059_GLY    00084_ILE  5.325676594903531e-05
   00059_GLY    00060_VAL  2.2823450195636177
   00059_GLY    00081_VAL  2.2296731100797833e-05
   00059_GLY    00076_ASN  1.5841303939187183e-05
   00059_GLY    00073_ALA  1.2499741820588938e-05
   00059_GLY    00083_ILE  6.27654188295193e-05
   00059_GLY    00062_LEU  3.0425500889824075e-05
   00059_GLY    00061_ASP  0.0021856810272516485
   00059_GLY    00082_THR  0.0002587515067501313
   00059_GLY    00077_ALA  6.079792563711063e-06
   00059_GLY    00063_ARG  0.0005331355237852934
   00060_VAL    00084_ILE  5.802756502036888e-05
   00060_VAL    00072_ILE  1.3847970027835176e-05
   00060_VAL    00073_ALA  0.0005835614950385889
   00060_VAL    00083_ILE  3.580827523417355e-05
   00060_VAL    00069_GLN  9.506871859319601e-05
   00060_VAL    00065_ALA  1.1001643714562384e-05
   00060_VAL    00082_THR  4.119485753035035e-05
   00060_VAL    00062_LEU  0.014064616043377337
   00060_VAL    00074_LEU  1.483277471554473e-05
   00060_VAL    00063_ARG  0.0010063577469585873
   00060_VAL    00076_ASN  6.650352764910668e-05
   00060_VAL    00077_ALA  7.193804814737474e-06
   00060_VAL    00061_ASP  1.875659001764273
   00060_VAL    00070_ALA  1.9614407707677758e-05
   00061_ASP    00084_ILE  0.00048046059401190633
   00061_ASP    00064_ASN  0.01824674882394415
   00061_ASP    00063_ARG  0.4283868618385986
   00061_ASP    00073_ALA  0.0003360992322149418
   00061_ASP    00070_ALA  0.000422701648593711
   00061_ASP    00069_GLN  0.0028954758562370845
   00061_ASP    00065_ALA  0.002504607123049501
   00061_ASP    00062_LEU  1.863977977258169
   00062_LEU    00084_ILE  4.4299818090357695e-05
   00062_LEU    00064_ASN  0.00273891507233138
   00062_LEU    00066_SER  0.0002349620958406183
   00062_LEU    00067_HID  4.68847676985649e-05
   00062_LEU    00073_ALA  0.00010653184188956055
   00062_LEU    00083_ILE  2.005523794295111e-05
   00062_LEU    00069_GLN  0.0021640785834736095
   00062_LEU    00071_ALA  1.1754079364558712e-05
   00062_LEU    00065_ALA  0.006255099941783482
   00062_LEU    00074_LEU  1.3244263717984994e-05
   00062_LEU    00063_ARG  2.2321678576450283
   00062_LEU    00070_ALA  0.008227654142403302
   00062_LEU    00072_ILE  1.9336706845205308e-05
   00062_LEU    00068_GLU  0.00035778957222444216
   00063_ARG    00084_ILE  0.000615814081157009
   00063_ARG    00065_ALA  0.004302506635104737
   00063_ARG    00088_LYS  0.002515741833326349
   00063_ARG    00064_ASN  2.0596885410294132
   00063_ARG    00086_GLN  0.0012926913717165942
   00063_ARG    00091_GLU  0.0009069166521641402
   00064_ASN    00069_GLN  0.0007778103744638405
   00064_ASN    00066_SER  0.0003388321797909432
   00064_ASN    00065_ALA  1.958275969269422
   00065_ALA    00071_ALA  1.2035412741854316e-05
   00065_ALA    00066_SER  1.7878435654321878
   00065_ALA    00067_HID  0.00040805431795501337
   00065_ALA    00073_ALA  9.107617168522725e-06
   00065_ALA    00070_ALA  0.00012397198113498726
   00065_ALA    00069_GLN  0.005433663531731564
   00065_ALA    00068_GLU  0.0006197894183389512
   00066_SER    00071_ALA  0.00024371687106510286
   00066_SER    00067_HID  1.7565701852401505
   00066_SER    00070_ALA  0.008642176388932336
   00066_SER    00069_GLN  0.038657097471269546
   00066_SER    00072_ILE  7.178927357508847e-05
   00066_SER    00068_GLU  0.021488594102337246
   00067_HID    00095_PHE  6.634301463560787e-05
   00067_HID    00071_ALA  0.011687873359439178
   00067_HID    00073_ALA  7.81839665385019e-05
   00067_HID    00070_ALA  0.009077688200774528
   00067_HID    00069_GLN  0.0021317636897667065
   00067_HID    00072_ILE  0.00021504278380517303
   00067_HID    00074_LEU  7.731578241695139e-05
   00067_HID    00068_GLU  2.0274402246465604
   00068_GLU    00071_ALA  0.007192810894552205
   00068_GLU    00073_ALA  0.0016422313785186791
   00068_GLU    00070_ALA  0.002667251263572395
   00068_GLU    00069_GLN  2.00364370307509
   00068_GLU    00072_ILE  0.019934997816962167
   00068_GLU    00075_LYS  0.0015344524553359462
   00068_GLU    00074_LEU  0.0006472303275057057
   00069_GLN    00075_LYS  0.0007458499808574631
   00069_GLN    00076_ASN  9.763552918324797e-05
   00069_GLN    00073_ALA  0.009501521413135651
   00069_GLN    00070_ALA  2.1664976456275324
   00069_GLN    00072_ILE  0.017286657407621184
   00069_GLN    00071_ALA  0.0011849718730727933
   00069_GLN    00074_LEU  0.00021834239961420672
   00070_ALA    00075_LYS  0.0010782828231347135
   00070_ALA    00076_ASN  0.00013338469585429802
   00070_ALA    00073_ALA  0.008075809664457074
   00070_ALA    00083_ILE  7.1640326795266275e-06
   00070_ALA    00072_ILE  0.0054106942601627375
   00070_ALA    00071_ALA  2.0383046603331074
   00070_ALA    00074_LEU  0.025496240576005618
   00071_ALA    00075_LYS  0.014397756010303488
   00071_ALA    00076_ASN  0.00033915024801192705
   00071_ALA    00073_ALA  0.0021900957413254433
   00071_ALA    00072_ILE  2.1751669283181294
   00071_ALA    00074_LEU  0.003977811277718303
   00071_ALA    00077_ALA  6.264134012822966e-05
   00072_ILE    00075_LYS  0.016767787033639917
   00072_ILE    00076_ASN  0.02425070249160036
   00072_ILE    00073_ALA  2.251902123056405
   00072_ILE    00074_LEU  0.0028453780788314557
   00072_ILE    00077_ALA  0.0003335168449610687
   00073_ALA    00075_LYS  0.0036841692106162434
   00073_ALA    00081_VAL  7.109660155186106e-05
   00073_ALA    00076_ASN  0.003011623780803672
   00073_ALA    00078_GLY  8.611342906336888e-05
   00073_ALA    00074_LEU  2.0644164163100815
   00073_ALA    00077_ALA  0.005321270618008721
   00074_LEU    00084_ILE  6.6245794647415495e-06
   00074_LEU    00075_LYS  2.1183283088743794
   00074_LEU    00081_VAL  0.01127185192819718
   00074_LEU    00076_ASN  0.002242957419493863
   00074_LEU    00079_GLN  2.771875253538978e-05
   00074_LEU    00078_GLY  0.00011384983759851355
   00074_LEU    00083_ILE  0.0014606462599112662
   00074_LEU    00082_THR  4.9407321550928465e-05
   00074_LEU    00080_THR  4.462686037028216e-05
   00074_LEU    00077_ALA  0.020504549168722325
   00075_LYS    00078_GLY  0.00019282476830922228
   00075_LYS    00081_VAL  0.00013719431575084698
   00075_LYS    00076_ASN  1.9460642834380024
   00075_LYS    00077_ALA  0.00889918771735566
   00076_ASN    00078_GLY  0.0005701446117539169
   00076_ASN    00081_VAL  4.552152559295525e-05
   00076_ASN    00080_THR  4.992114658132081e-05
   00076_ASN    00077_ALA  2.2858056830598867
   00077_ALA    00083_ILE  6.020658784086152e-06
   00077_ALA    00081_VAL  0.010996429934917921
   00077_ALA    00079_GLN  0.0002622396348216308
   00077_ALA    00078_GLY  1.6527571879789267
   00077_ALA    00080_THR  0.000758966431253181
   00077_ALA    00082_THR  7.977651044155976e-05
   00078_GLY    00081_VAL  0.00026640915509708015
   00078_GLY    00080_THR  0.011170004894881194
   00078_GLY    00082_THR  4.8767064680070554e-05
   00078_GLY    00079_GLN  1.3928384687447732
   00079_GLN    00081_VAL  0.0002130438549037682
   00079_GLN    00080_THR  2.190679700289691
   00080_THR    00081_VAL  1.6601321425456488
   00080_THR    00083_ILE  2.1831970147501143e-05
   00080_THR    00082_THR  0.0011566026384565375
   00081_VAL    00084_ILE  1.340951669507645e-05
   00081_VAL    00083_ILE  0.005211840005110967
   00081_VAL    00082_THR  1.5323512757685973
   00082_THR    00084_ILE  0.0003205524757328204
   00082_THR    00083_ILE  1.8349268437246578
   00083_ILE    00084_ILE  1.8751729851537076
   00083_ILE    00086_GLN  1.692554933671193e-05
   00083_ILE    00085_ALA  0.001588217207942932
   00084_ILE    00086_GLN  0.00021073342400625603
   00084_ILE    00085_ALA  1.650172118531842
   00085_ALA    00086_GLN  1.7736393040743113
   00085_ALA    00088_LYS  0.00025870317627818795
   00085_ALA    00087_TYR  0.0003515221679601174
   00086_GLN    00088_LYS  0.017414042839225933
   00086_GLN    00087_TYR  1.4655159291628923
   00086_GLN    00091_GLU  0.0011206750113975886
   00086_GLN    00089_PRO  2.078069467139583e-05
   00087_TYR    00088_LYS  1.7582348478457048
   00087_TYR    00092_TYR  4.538504410039887e-05
   00087_TYR    00089_PRO  0.017067333231736016
   00087_TYR    00090_GLU  0.000966186659454223
   00087_TYR    00091_GLU  0.00036065567171017835
   00088_LYS    00095_PHE  0.00021720510963109093
   00088_LYS    00092_TYR  0.006295523022866634
   00088_LYS    00091_GLU  0.044742629063206536
   00088_LYS    00094_ARG  0.004043696122635051
   00088_LYS    00090_GLU  0.009496884020278193
   00088_LYS    00089_PRO  1.1340728581481287
   00088_LYS    00093_SER  0.0007056863142318352
   00089_PRO    00095_PHE  8.938477632644346e-05
   00089_PRO    00092_TYR  0.04646396542203202
   00089_PRO    00094_ARG  0.00042323274871488805
   00089_PRO    00090_GLU  2.0180051433937813
   00089_PRO    00091_GLU  0.0024357526943453098
   00089_PRO    00093_SER  0.0071640838292640705
   00089_PRO    00096_GLU  0.0003499582647748087
   00090_GLU    00095_PHE  0.0009462135219847861
   00090_GLU    00092_TYR  0.004961134036000959
   00090_GLU    00094_ARG  0.00857542344858142
   00090_GLU    00091_GLU  1.8791678521893416
   00090_GLU    00093_SER  0.150893173977613
   00091_GLU    00095_PHE  0.0017131645160719637
   00091_GLU    00092_TYR  1.7923116510807393
   00091_GLU    00094_ARG  0.02734075840893115
   00091_GLU    00093_SER  0.00914456264783316
   00091_GLU    00096_GLU  0.000824115001190606
   00092_TYR    00095_PHE  0.029042630652732555
   00092_TYR    00094_ARG  0.004317277346955808
   00092_TYR    00098_NME  7.962652790803213e-06
   00092_TYR    00097_ALA  0.00018945375298004812
   00092_TYR    00093_SER  1.7939153464389026
   00092_TYR    00096_GLU  0.36953952814764013
   00093_SER    00095_PHE  0.005598640334897373
   00093_SER    00094_ARG  1.9914869672585078
   00093_SER    00098_NME  6.046326912362776e-05
   00093_SER    00097_ALA  0.0077604505387277685
   00093_SER    00096_GLU  0.015683474945955553
   00094_ARG    00095_PHE  1.8553604388927987
   00094_ARG    00098_NME  0.0001311182375888686
   00094_ARG    00097_ALA  0.002890518435891855
   00094_ARG    00096_GLU  0.006895150885114931
   00095_PHE    00098_NME  3.075846260794726e-05
   00095_PHE    00097_ALA  0.0022276208065158654
   00095_PHE    00096_GLU  2.1098787759216395
   00096_GLU    00097_ALA  1.8154324279847738
   00096_GLU    00098_NME  0.0014532313156326924
   00097_ALA    00098_NME  1.6059667291160962
