   00001_ACE    00046_GLY  0.00021021964818871547
   00001_ACE    00002_ILE  6.353504002854549
   00001_ACE    00087_TYR  0.0014833897396580753
   00001_ACE    00049_ARG  0.03756793382795199
   00001_ACE    00004_ARG  0.03327528498230391
   00001_ACE    00007_ARG  0.025322336270490766
   00001_ACE    00003_PRO  0.00711674993166972
   00001_ACE    00089_PRO  0.00011024579778463542
   00001_ACE    00047_GLU  0.02995082056680501
   00002_ILE    00046_GLY  0.00025892614951592577
   00002_ILE    00048_LEU  0.0005350689732205822
   00002_ILE    00088_LYS  0.02723993959065074
   00002_ILE    00051_GLY  0.0004088346127750768
   00002_ILE    00085_ALA  0.0005168645640929432
   00002_ILE    00036_ILE  6.0972831232799347e-05
   00002_ILE    00004_ARG  0.12106957510186113
   00002_ILE    00007_ARG  0.06183841019231779
   00002_ILE    00009_ILE  0.00010527026746369103
   00002_ILE    00005_GLU  0.05435635358339
   00002_ILE    00047_GLU  0.05939077768197256
   00002_ILE    00045_SER  0.00022540712012023188
   00002_ILE    00087_TYR  0.02894284417388435
   00002_ILE    00086_GLN  0.0024945987653770966
   00002_ILE    00050_LYS  0.01611319170334665
   00002_ILE    00052_ASP  0.05568947245284642
   00002_ILE    00006_PRO  0.000708724022217838
   00002_ILE    00003_PRO  6.872347566063008
   00002_ILE    00089_PRO  0.0004092466523795572
   00002_ILE    00049_ARG  0.09531859171891366
   00003_PRO    00088_LYS  0.015835211736261096
   00003_PRO    00087_TYR  0.013541148017148934
   00003_PRO    00086_GLN  0.007329448159732576
   00003_PRO    00085_ALA  0.0014456350405097395
   00003_PRO    00047_GLU  0.03887145013616265
   00003_PRO    00004_ARG  6.573571614442621
   00003_PRO    00052_ASP  0.03001380285847417
   00003_PRO    00007_ARG  0.07917165081851653
   00003_PRO    00006_PRO  0.0025983640444577267
   00003_PRO    00008_ARG  0.008918640356178162
   00003_PRO    00009_ILE  0.00025281454853632766
   00003_PRO    00005_GLU  0.0714508140500057
   00003_PRO    00049_ARG  0.03759024159029496
   00004_ARG    00088_LYS  0.49258683204363507
   00004_ARG    00087_TYR  0.24987304183124145
   00004_ARG    00089_PRO  0.053523176082854805
   00004_ARG    00086_GLN  0.22834259192410875
   00004_ARG    00090_GLU  1.2310268146994252
   00004_ARG    00085_ALA  0.02793683435384969
   00004_ARG    00007_ARG  0.5422237177813146
   00004_ARG    00006_PRO  0.02139516012710124
   00004_ARG    00055_LEU  0.025046266350018467
   00004_ARG    00005_GLU  8.505929964472713
   00004_ARG    00091_GLU  0.26497636549731624
   00005_GLU    00084_ILE  0.023912409377930287
   00005_GLU    00088_LYS  0.14916864626387952
   00005_GLU    00087_TYR  0.07776457774064359
   00005_GLU    00086_GLN  0.23988015638773352
   00005_GLU    00085_ALA  0.042022888434067956
   00005_GLU    00007_ARG  0.43996855178796257
   00005_GLU    00006_PRO  6.0670538617836405
   00005_GLU    00055_LEU  0.03272320028317636
   00005_GLU    00008_ARG  0.19142179276402307
   00006_PRO    00084_ILE  0.0029997664915286664
   00006_PRO    00088_LYS  0.015704616329606298
   00006_PRO    00087_TYR  0.0028127175557618725
   00006_PRO    00063_ARG  0.016965214776737597
   00006_PRO    00086_GLN  0.03091334279375336
   00006_PRO    00085_ALA  0.018385246143109185
   00006_PRO    00052_ASP  0.02273877685566582
   00006_PRO    00007_ARG  6.790188710615493
   00006_PRO    00055_LEU  0.01470880192533015
   00006_PRO    00009_ILE  0.0010096187900592681
   00006_PRO    00008_ARG  0.032038922959252175
   00006_PRO    00053_GLN  0.0011659815657293917
   00007_ARG    00084_ILE  0.050722967339691866
   00007_ARG    00046_GLY  0.049843003279069945
   00007_ARG    00048_LEU  0.12518288647416903
   00007_ARG    00054_ILE  0.031597937695053924
   00007_ARG    00088_LYS  0.3132151240430323
   00007_ARG    00033_ILE  0.03158894530328435
   00007_ARG    00051_GLY  0.05312580793782869
   00007_ARG    00085_ALA  0.19941958512093924
   00007_ARG    00036_ILE  0.02761406076962951
   00007_ARG    00083_ILE  0.04457141722096151
   00007_ARG    00055_LEU  0.04012899656480654
   00007_ARG    00009_ILE  0.06612538086544825
   00007_ARG    00082_THR  0.03327014911690494
   00007_ARG    00053_GLN  0.13427192505835409
   00007_ARG    00087_TYR  0.23840580333048642
   00007_ARG    00086_GLN  0.29516116130692815
   00007_ARG    00047_GLU  1.3936167660438858
   00007_ARG    00052_ASP  1.351755419451866
   00007_ARG    00008_ARG  6.473457160941394
   00007_ARG    00049_ARG  1.3327575744343083
   00008_ARG    00084_ILE  0.08408444788780012
   00008_ARG    00048_LEU  0.03737700041681165
   00008_ARG    00059_GLY  0.03303302815907177
   00008_ARG    00081_VAL  0.05257179838928751
   00008_ARG    00085_ALA  0.0494675083091575
   00008_ARG    00083_ILE  0.09757834219047011
   00008_ARG    00009_ILE  6.062433383799789
   00008_ARG    00080_THR  0.07233549064627808
   00008_ARG    00082_THR  0.14990209175378907
   00008_ARG    00047_GLU  0.2697213676837262
   00008_ARG    00010_VAL  0.09110320100397501
   00008_ARG    00056_SER  0.06788390375749799
   00008_ARG    00063_ARG  0.3320572164407301
   00008_ARG    00058_ASN  0.0962394111748669
   00009_ILE    00084_ILE  0.006128786951879077
   00009_ILE    00046_GLY  0.000497929076581048
   00009_ILE    00048_LEU  0.014229083897399786
   00009_ILE    00054_ILE  0.0003130616948056681
   00009_ILE    00056_SER  0.0009140164537916793
   00009_ILE    00081_VAL  0.008602190648329667
   00009_ILE    00033_ILE  0.0001862924552224707
   00009_ILE    00085_ALA  0.009480888302118809
   00009_ILE    00057_VAL  0.0007709477082713625
   00009_ILE    00083_ILE  0.1604133823484535
   00009_ILE    00055_LEU  0.00047523471271104523
   00009_ILE    00018_LEU  0.0006642842513179006
   00009_ILE    00042_ALA  0.0007724804436336269
   00009_ILE    00082_THR  0.021804612441379892
   00009_ILE    00047_GLU  0.06962757701982354
   00009_ILE    00011_ILE  0.01839508545332105
   00009_ILE    00045_SER  0.009752648814945548
   00009_ILE    00087_TYR  0.00033913155366521014
   00009_ILE    00012_HIE  0.0017758333933076398
   00009_ILE    00086_GLN  0.0009209505017966715
   00009_ILE    00052_ASP  0.05199050880981102
   00009_ILE    00010_VAL  6.592939807575471
   00009_ILE    00041_PRO  0.0008028844863904041
   00009_ILE    00020_PHE  0.00042882820634262834
   00009_ILE    00049_ARG  0.03097047245733691
   00010_VAL    00084_ILE  0.0007188084433378866
   00010_VAL    00048_LEU  0.0008868282343883475
   00010_VAL    00081_VAL  0.019178736021407135
   00010_VAL    00083_ILE  0.005344439383372469
   00010_VAL    00080_THR  0.009880183870851404
   00010_VAL    00018_LEU  0.0009876549878377204
   00010_VAL    00042_ALA  0.0008760117788239063
   00010_VAL    00082_THR  0.022924939152365688
   00010_VAL    00058_ASN  0.0008454113409863132
   00010_VAL    00011_ILE  6.922078590893437
   00010_VAL    00045_SER  0.005192864319175988
   00010_VAL    00012_HIE  0.011743641073112874
   00010_VAL    00079_GLN  0.0013281162265650608
   00010_VAL    00047_GLU  0.039863969660167115
   00010_VAL    00041_PRO  0.0017000270713724986
   00011_ILE    00046_GLY  0.00028896901835126276
   00011_ILE    00043_ASP  0.021969681951909598
   00011_ILE    00033_ILE  8.435236353539171e-05
   00011_ILE    00013_ARG  0.07669576752089499
   00011_ILE    00085_ALA  0.00018242798415906764
   00011_ILE    00036_ILE  0.00012702442796238005
   00011_ILE    00082_THR  0.005234128954804702
   00011_ILE    00042_ALA  0.01590395584313109
   00011_ILE    00017_GLY  0.0011768710161153895
   00011_ILE    00045_SER  0.009657519514435985
   00011_ILE    00044_LEU  0.0010295362093245546
   00011_ILE    00012_HIE  6.611402798584877
   00011_ILE    00047_GLU  0.024058007015683808
   00011_ILE    00014_GLY  0.0021416028298915607
   00011_ILE    00019_GLY  0.00048068735706602696
   00011_ILE    00048_LEU  0.002500906613193161
   00011_ILE    00054_ILE  9.709720090878646e-05
   00011_ILE    00016_THR  0.0016410459406183953
   00011_ILE    00081_VAL  0.06668301588557173
   00011_ILE    00040_GLY  0.0010725714946816182
   00011_ILE    00057_VAL  0.0002730623244431832
   00011_ILE    00083_ILE  0.011314898439849355
   00011_ILE    00018_LEU  0.009537248176338027
   00011_ILE    00080_THR  0.04605838340882712
   00011_ILE    00074_LEU  0.0004604973445642764
   00011_ILE    00058_ASN  0.001052984700351428
   00011_ILE    00077_ALA  0.0006469572365757218
   00011_ILE    00079_GLN  0.006691495231219521
   00011_ILE    00078_GLY  0.0024883544092293495
   00011_ILE    00041_PRO  0.020886057644736444
   00011_ILE    00020_PHE  0.0016388717929501184
   00012_HIE    00016_THR  0.008276025710733628
   00012_HIE    00081_VAL  0.006498522624746619
   00012_HIE    00013_ARG  6.48161414406068
   00012_HIE    00042_ALA  0.002022926419241151
   00012_HIE    00018_LEU  0.003710320976681488
   00012_HIE    00080_THR  0.05143163200686378
   00012_HIE    00047_GLU  0.023552045736380485
   00012_HIE    00015_SER  0.006435921990981948
   00012_HIE    00017_GLY  0.0026062800383445275
   00012_HIE    00045_SER  0.0034844826880123295
   00012_HIE    00044_LEU  0.002630033860386148
   00012_HIE    00079_GLN  0.0488775574314323
   00012_HIE    00078_GLY  0.004958054954457255
   00012_HIE    00014_GLY  0.04810918420919088
   00012_HIE    00041_PRO  0.0067000311449771505
   00013_ARG    00019_GLY  0.05206060966731607
   00013_ARG    00075_LYS  0.22850238149026958
   00013_ARG    00016_THR  0.34358357106226056
   00013_ARG    00081_VAL  0.09222094123953785
   00013_ARG    00040_GLY  0.025360435366607526
   00013_ARG    00057_VAL  0.03688899776609277
   00013_ARG    00073_ALA  0.03200644163225341
   00013_ARG    00083_ILE  0.03039821892692544
   00013_ARG    00018_LEU  0.17869275220535638
   00013_ARG    00071_ALA  0.01587893718037432
   00013_ARG    00080_THR  0.14035109944593868
   00013_ARG    00074_LEU  0.08526966595499934
   00013_ARG    00042_ALA  0.03790305297193558
   00013_ARG    00077_ALA  0.29314671349674837
   00013_ARG    00015_SER  0.14511183183773627
   00013_ARG    00017_GLY  0.11223588406295697
   00013_ARG    00044_LEU  0.026840629936426108
   00013_ARG    00076_ASN  0.14194990500824184
   00013_ARG    00079_GLN  0.2632499669768703
   00013_ARG    00058_ASN  0.18981412427887187
   00013_ARG    00078_GLY  0.2529999735042389
   00013_ARG    00014_GLY  6.884919812465356
   00013_ARG    00041_PRO  0.03078490701274863
   00013_ARG    00020_PHE  0.046720419448684866
   00014_GLY    00015_SER  5.834325056840072
   00014_GLY    00017_GLY  0.0020536342345344218
   00014_GLY    00016_THR  0.03721014700574498
   00014_GLY    00081_VAL  0.0008453421383304945
   00014_GLY    00079_GLN  0.07779057095124456
   00014_GLY    00078_GLY  0.007115250280503254
   00014_GLY    00041_PRO  0.0006004310291534985
   00014_GLY    00018_LEU  0.0012333672933067916
   00014_GLY    00080_THR  0.004409554245935986
   00014_GLY    00074_LEU  0.00029473479071382504
   00014_GLY    00077_ALA  0.0013864291261871458
   00015_SER    00017_GLY  0.010450831100788503
   00015_SER    00078_GLY  0.002724452912184892
   00015_SER    00075_LYS  0.02413967785320425
   00015_SER    00016_THR  8.440083109037833
   00015_SER    00074_LEU  0.0003842704620660682
   00015_SER    00079_GLN  0.01719088706552063
   00015_SER    00077_ALA  0.0009534749816455106
   00016_THR    00019_GLY  0.0038046802050647195
   00016_THR    00075_LYS  0.029486593087554663
   00016_THR    00039_GLY  0.0008733555471663561
   00016_THR    00081_VAL  0.0006270451667900086
   00016_THR    00040_GLY  0.002355611055581473
   00016_THR    00037_LEU  0.0010127505266890329
   00016_THR    00018_LEU  0.015508577560281522
   00016_THR    00074_LEU  0.000911381998142341
   00016_THR    00017_GLY  6.229679786658556
   00016_THR    00044_LEU  0.0006402660186980826
   00016_THR    00079_GLN  0.006177811352875594
   00016_THR    00041_PRO  0.0035566525350477257
   00017_GLY    00019_GLY  0.04475069319039229
   00017_GLY    00074_LEU  0.0009910823398975109
   00017_GLY    00075_LYS  0.01922565514675986
   00017_GLY    00081_VAL  0.0006381754371101784
   00017_GLY    00040_GLY  0.002225794329767557
   00017_GLY    00037_LEU  0.0022958443802791164
   00017_GLY    00018_LEU  7.047472016810356
   00017_GLY    00041_PRO  0.008214621766238973
   00017_GLY    00071_ALA  0.000144259528122465
   00017_GLY    00042_ALA  0.0025361071509140305
   00017_GLY    00020_PHE  0.0033445031032447174
   00018_LEU    00033_ILE  0.0003865987945366641
   00018_LEU    00036_ILE  0.0012436948974856449
   00018_LEU    00037_LEU  0.0030670907997100926
   00018_LEU    00071_ALA  0.0003563852858087627
   00018_LEU    00082_THR  0.0007590873852739312
   00018_LEU    00021_ASN  0.0034799896131003966
   00018_LEU    00045_SER  0.0015181523262868335
   00018_LEU    00044_LEU  0.0008099151256851575
   00018_LEU    00022_ILE  0.0005649125111157556
   00018_LEU    00076_ASN  0.001059981755876083
   00018_LEU    00043_ASP  0.031146509993663942
   00018_LEU    00047_GLU  0.018645742288052894
   00018_LEU    00070_ALA  0.0004768088358273385
   00018_LEU    00019_GLY  10.370200084164296
   00018_LEU    00048_LEU  0.0012969377423826221
   00018_LEU    00054_ILE  0.000225673432890262
   00018_LEU    00075_LYS  0.022047303937440695
   00018_LEU    00081_VAL  0.013797511124869637
   00018_LEU    00040_GLY  0.004161761655966586
   00018_LEU    00057_VAL  0.0005221337379722192
   00018_LEU    00073_ALA  0.0009477949695757181
   00018_LEU    00083_ILE  0.0006744917780244921
   00018_LEU    00042_ALA  0.017392045633518195
   00018_LEU    00074_LEU  0.016851406713369002
   00018_LEU    00058_ASN  0.0009194349789981798
   00018_LEU    00077_ALA  0.00302529360465814
   00018_LEU    00080_THR  0.0013515172679882588
   00018_LEU    00079_GLN  0.0021155813690076136
   00018_LEU    00078_GLY  0.001745831882021701
   00018_LEU    00041_PRO  0.012757137471749247
   00018_LEU    00020_PHE  0.03342157826850528
   00019_GLY    00048_LEU  0.0011886918782326832
   00019_GLY    00039_GLY  0.001233919195732736
   00019_GLY    00033_ILE  0.00070196849142176
   00019_GLY    00036_ILE  0.012054526967141004
   00019_GLY    00037_LEU  0.04594611299288257
   00019_GLY    00042_ALA  0.0062581450189351405
   00019_GLY    00074_LEU  0.0009734572587725145
   00019_GLY    00021_ASN  0.010554328776475549
   00019_GLY    00038_ALA  0.0023328674568355756
   00019_GLY    00044_LEU  0.0008414405012365246
   00019_GLY    00022_ILE  0.000819986336717586
   00019_GLY    00043_ASP  0.023575924151658375
   00019_GLY    00035_PHE  0.007790637256696109
   00019_GLY    00041_PRO  0.002523336059520916
   00019_GLY    00020_PHE  8.537831460732642
   00019_GLY    00040_GLY  0.004269709118704099
   00020_PHE    00033_ILE  0.014852115515491498
   00020_PHE    00023_VAL  0.001070093742614531
   00020_PHE    00085_ALA  0.0002694546955101571
   00020_PHE    00036_ILE  0.01859626644065413
   00020_PHE    00037_LEU  0.008003822056349611
   00020_PHE    00082_THR  0.00045352532362474964
   00020_PHE    00021_ASN  7.312725433589257
   00020_PHE    00032_PHE  0.001722378297840862
   00020_PHE    00045_SER  0.0011133987915107474
   00020_PHE    00022_ILE  0.016754136291718437
   00020_PHE    00043_ASP  0.030829736250375453
   00020_PHE    00047_GLU  0.025879307892152932
   00020_PHE    00070_ALA  0.0009170457010131488
   00020_PHE    00049_ARG  0.02504315186119432
   00020_PHE    00048_LEU  0.006350555021523946
   00020_PHE    00054_ILE  0.001349454061960114
   00020_PHE    00071_ALA  0.0006748664919740046
   00020_PHE    00081_VAL  0.000639096254695145
   00020_PHE    00040_GLY  0.001767731502874022
   00020_PHE    00062_LEU  0.00022693837297530772
   00020_PHE    00057_VAL  0.0005491004391477383
   00020_PHE    00067_HID  0.0009554539808075063
   00020_PHE    00083_ILE  0.007830341090633942
   00020_PHE    00031_ILE  0.0006461362303039681
   00020_PHE    00034_SER  0.0034009528247504967
   00020_PHE    00042_ALA  0.03197053400948745
   00020_PHE    00074_LEU  0.015537387346340706
   00020_PHE    00077_ALA  0.00047779861565432416
   00020_PHE    00050_LYS  0.03118187460751888
   00020_PHE    00052_ASP  0.048175943175045914
   00020_PHE    00041_PRO  0.001395473813749001
   00020_PHE    00035_PHE  0.030440078406775723
   00021_ASN    00048_LEU  0.00147598417829215
   00021_ASN    00054_ILE  0.0010411020461364112
   00021_ASN    00071_ALA  0.0015328872779487874
   00021_ASN    00092_TYR  0.0035967159996860695
   00021_ASN    00033_ILE  0.012681961989031315
   00021_ASN    00034_SER  0.09898533922160004
   00021_ASN    00023_VAL  0.008915042148629967
   00021_ASN    00067_HID  0.004512715035988328
   00021_ASN    00036_ILE  0.00802996792118558
   00021_ASN    00024_GLY  0.0015992292323215597
   00021_ASN    00095_PHE  0.001357615107311285
   00021_ASN    00031_ILE  0.0019041542478538329
   00021_ASN    00098_NME  0.0001399550845156094
   00021_ASN    00037_LEU  0.0046355852862099665
   00021_ASN    00074_LEU  0.002973733081228322
   00021_ASN    00032_PHE  0.010820618590847203
   00021_ASN    00022_ILE  7.200079016791268
   00021_ASN    00050_LYS  0.10845418710884606
   00021_ASN    00097_ALA  0.0003601902299801827
   00021_ASN    00035_PHE  0.09507851003572822
   00022_ILE    00092_TYR  0.0018717216737281943
   00022_ILE    00025_GLY  0.0008864532272115919
   00022_ILE    00033_ILE  0.01136906095689701
   00022_ILE    00023_VAL  6.336633651373729
   00022_ILE    00036_ILE  0.000692975760741878
   00022_ILE    00024_GLY  0.00512164210176378
   00022_ILE    00065_ALA  0.0004697613075329694
   00022_ILE    00053_GLN  0.001216494782579728
   00022_ILE    00032_PHE  0.033632927638022524
   00022_ILE    00070_ALA  0.0028294122627117026
   00022_ILE    00072_ILE  0.00047333882258109494
   00022_ILE    00068_GLU  0.02850725526509977
   00022_ILE    00048_LEU  0.0003963550470733304
   00022_ILE    00054_ILE  0.015133533204865122
   00022_ILE    00071_ALA  0.00192076505563977
   00022_ILE    00030_GLY  0.0012554605134549473
   00022_ILE    00066_SER  0.0009269015489351049
   00022_ILE    00057_VAL  0.0003242412808530773
   00022_ILE    00067_HID  0.021748469317445403
   00022_ILE    00073_ALA  0.00039708741003266935
   00022_ILE    00083_ILE  0.000158456623995673
   00022_ILE    00031_ILE  0.015079025862016893
   00022_ILE    00069_GLN  0.0006206472001535883
   00022_ILE    00034_SER  0.03785800343877431
   00022_ILE    00074_LEU  0.008093233515881036
   00022_ILE    00062_LEU  0.0004216061619972093
   00022_ILE    00052_ASP  0.019783939367380432
   00022_ILE    00035_PHE  0.0034705311632304064
   00023_VAL    00054_ILE  0.0006376490006866008
   00023_VAL    00030_GLY  0.008318220098881807
   00023_VAL    00092_TYR  0.010853941128483187
   00023_VAL    00025_GLY  0.008320031237501864
   00023_VAL    00033_ILE  0.006062351439908488
   00023_VAL    00098_NME  0.00010395126632589808
   00023_VAL    00051_GLY  0.0009259925483108396
   00023_VAL    00067_HID  0.021270642020678892
   00023_VAL    00097_ALA  0.0002804709019353713
   00023_VAL    00029_GLU  0.07875863370546259
   00023_VAL    00095_PHE  0.021085390469176842
   00023_VAL    00031_ILE  0.02181584004670238
   00023_VAL    00034_SER  0.02888493526934526
   00023_VAL    00024_GLY  7.721684048964753
   00023_VAL    00065_ALA  0.0010097395468099347
   00023_VAL    00053_GLN  0.0028912189876615204
   00023_VAL    00032_PHE  0.07830134400802655
   00023_VAL    00035_PHE  0.0007147723085349222
   00023_VAL    00068_GLU  0.031117762173547513
   00023_VAL    00094_ARG  0.06766489591807559
   00023_VAL    00050_LYS  0.05101887255859977
   00023_VAL    00052_ASP  0.028975216506309475
   00023_VAL    00070_ALA  0.0010410890711899602
   00023_VAL    00066_SER  0.0016065098154337259
   00023_VAL    00026_GLU  0.041444733673843714
   00023_VAL    00096_GLU  0.04506991711116168
   00024_GLY    00095_PHE  0.012383845846697314
   00024_GLY    00030_GLY  0.014972606634515878
   00024_GLY    00092_TYR  0.001371822732791076
   00024_GLY    00025_GLY  6.498741071378855
   00024_GLY    00026_GLU  0.07129990026786875
   00024_GLY    00028_GLY  0.0015405297379744677
   00024_GLY    00067_HID  0.05642091122930702
   00024_GLY    00029_GLU  0.15308239585046435
   00024_GLY    00031_ILE  0.010280506983093164
   00024_GLY    00069_GLN  0.0013809489111314746
   00024_GLY    00034_SER  0.0015819754914143441
   00024_GLY    00065_ALA  0.0032167993576534145
   00024_GLY    00053_GLN  0.00287476479499617
   00024_GLY    00032_PHE  0.00712165078910427
   00024_GLY    00094_ARG  0.06805768623205853
   00024_GLY    00070_ALA  0.0011410081578841554
   00024_GLY    00068_GLU  0.037832753376210455
   00024_GLY    00066_SER  0.004872780290374738
   00025_GLY    00095_PHE  0.0010239433069529887
   00025_GLY    00064_ASN  0.004318237034076672
   00025_GLY    00030_GLY  0.042874344644055984
   00025_GLY    00066_SER  0.024840181008582103
   00025_GLY    00028_GLY  0.00798972085569065
   00025_GLY    00067_HID  0.0342408976937916
   00025_GLY    00029_GLU  0.2011574351397192
   00025_GLY    00031_ILE  0.030483675565460586
   00025_GLY    00069_GLN  0.0014906515238572947
   00025_GLY    00065_ALA  0.01366813906127736
   00025_GLY    00053_GLN  0.0027291755966540013
   00025_GLY    00062_LEU  0.0010176644330009605
   00025_GLY    00063_ARG  0.019630450667800534
   00025_GLY    00094_ARG  0.04813865505641506
   00025_GLY    00027_ASP  0.06700619428868035
   00025_GLY    00032_PHE  0.0015458434544161942
   00025_GLY    00068_GLU  0.028016831838593263
   00025_GLY    00026_GLU  9.820446651498681
   00025_GLY    00070_ALA  0.000692245653598007
   00026_GLU    00095_PHE  0.05293882935832472
   00026_GLU    00064_ASN  0.08074169608148414
   00026_GLU    00030_GLY  0.07082667763685986
   00026_GLU    00066_SER  0.0604393699512364
   00026_GLU    00028_GLY  0.10889942552148914
   00026_GLU    00067_HID  0.05806215094021661
   00026_GLU    00029_GLU  0.6008582358895003
   00026_GLU    00031_ILE  0.027965600102937877
   00026_GLU    00069_GLN  0.05042820513348309
   00026_GLU    00065_ALA  0.03718352581849627
   00026_GLU    00032_PHE  0.032918811035720835
   00026_GLU    00094_ARG  0.4793390163362084
   00026_GLU    00027_ASP  7.7590666433899385
   00026_GLU    00068_GLU  0.10568061290315453
   00027_ASP    00064_ASN  0.10187844247048665
   00027_ASP    00030_GLY  0.03556813428436379
   00027_ASP    00063_ARG  0.12871624033615336
   00027_ASP    00066_SER  0.07279896180889618
   00027_ASP    00094_ARG  0.27010630900574534
   00027_ASP    00028_GLY  8.469481599938208
   00027_ASP    00067_HID  0.040738319980956325
   00027_ASP    00029_GLU  0.24536979019092658
   00027_ASP    00069_GLN  0.05089292559919187
   00027_ASP    00065_ALA  0.026038490844851676
   00028_GLY    00064_ASN  0.035675572646424646
   00028_GLY    00030_GLY  0.032148683625904756
   00028_GLY    00063_ARG  0.03553018441164892
   00028_GLY    00066_SER  0.0022615820429979527
   00028_GLY    00094_ARG  0.05277236603815309
   00028_GLY    00067_HID  0.0010067572485231576
   00028_GLY    00029_GLU  8.096413248413453
   00028_GLY    00031_ILE  0.001570877516758098
   00028_GLY    00032_PHE  0.0007127003801464656
   00028_GLY    00069_GLN  0.0009573586534738486
   00028_GLY    00088_LYS  0.033232883337791154
   00028_GLY    00065_ALA  0.007341725527529824
   00028_GLY    00053_GLN  0.0060871949706518425
   00028_GLY    00062_LEU  0.0014441978734592914
   00029_GLU    00095_PHE  0.11056941570576076
   00029_GLU    00064_ASN  0.08579188746853837
   00029_GLU    00030_GLY  9.464655947004637
   00029_GLU    00066_SER  0.056269011927487476
   00029_GLU    00067_HID  0.07437741511069634
   00029_GLU    00031_ILE  0.041412743524462566
   00029_GLU    00088_LYS  0.19168404682280635
   00029_GLU    00065_ALA  0.04204345570318054
   00029_GLU    00053_GLN  0.2412327318873838
   00029_GLU    00062_LEU  0.03351459196895887
   00029_GLU    00063_ARG  0.16377053545631734
   00029_GLU    00094_ARG  1.1930151861555622
   00029_GLU    00086_GLN  0.061384204494101396
   00029_GLU    00032_PHE  0.07395854497665182
   00029_GLU    00055_LEU  0.02801969147530731
   00029_GLU    00091_GLU  0.1919902301566377
   00030_GLY    00054_ILE  0.003851526778143745
   00030_GLY    00064_ASN  0.00926588821764016
   00030_GLY    00092_TYR  0.001269985996554045
   00030_GLY    00066_SER  0.0037453083396141442
   00030_GLY    00067_HID  0.004202164115537993
   00030_GLY    00095_PHE  0.0016722198598333338
   00030_GLY    00031_ILE  7.591854047328276
   00030_GLY    00088_LYS  0.0343344298934688
   00030_GLY    00065_ALA  0.00782914925086661
   00030_GLY    00053_GLN  0.04296879985626451
   00030_GLY    00032_PHE  0.01991068883462229
   00030_GLY    00063_ARG  0.035835136514959204
   00030_GLY    00094_ARG  0.07156046390071916
   00030_GLY    00086_GLN  0.0011662178811870075
   00030_GLY    00062_LEU  0.004638014954895453
   00030_GLY    00055_LEU  0.0008995279339174428
   00030_GLY    00091_GLU  0.03258356979787843
   00030_GLY    00070_ALA  0.0010312836645086235
   00031_ILE    00064_ASN  0.0015995413224962308
   00031_ILE    00092_TYR  0.0013256278593826345
   00031_ILE    00033_ILE  0.005683606858995493
   00031_ILE    00054_ILE  0.049511344187108314
   00031_ILE    00055_LEU  0.0021796164314084746
   00031_ILE    00088_LYS  0.057469971761853304
   00031_ILE    00065_ALA  0.01118198440851428
   00031_ILE    00053_GLN  0.038315375825526826
   00031_ILE    00032_PHE  6.4768096693423445
   00031_ILE    00070_ALA  0.03490594330590087
   00031_ILE    00068_GLU  0.026150396024042347
   00031_ILE    00095_PHE  0.0011310779159657356
   00031_ILE    00071_ALA  0.0005566399644114633
   00031_ILE    00066_SER  0.002683346893275281
   00031_ILE    00057_VAL  0.0006818263397570521
   00031_ILE    00067_HID  0.008389762241577888
   00031_ILE    00073_ALA  0.0003136960389434371
   00031_ILE    00083_ILE  0.00037996897260400683
   00031_ILE    00069_GLN  0.0009098769979017402
   00031_ILE    00034_SER  0.0014484718606712157
   00031_ILE    00074_LEU  0.00041576378481563065
   00031_ILE    00062_LEU  0.02013553410612755
   00031_ILE    00056_SER  0.0015702569463298822
   00031_ILE    00063_ARG  0.02407528468243214
   00031_ILE    00094_ARG  0.0399894255432667
   00031_ILE    00052_ASP  0.0600097231016797
   00031_ILE    00061_ASP  0.02886010644561535
   00032_PHE    00095_PHE  0.00815618677696735
   00032_PHE    00088_LYS  0.08570477204380209
   00032_PHE    00092_TYR  0.027753314262394472
   00032_PHE    00033_ILE  6.930169910705494
   00032_PHE    00051_GLY  0.00794022913026857
   00032_PHE    00090_GLU  0.03519009659083642
   00032_PHE    00067_HID  0.0024565068473547257
   00032_PHE    00085_ALA  0.0005572109018061285
   00032_PHE    00054_ILE  0.009457965077764651
   00032_PHE    00055_LEU  0.001112199850570108
   00032_PHE    00034_SER  0.0233929404414406
   00032_PHE    00091_GLU  0.0821674992726384
   00032_PHE    00065_ALA  0.0009996539620618571
   00032_PHE    00053_GLN  0.05675608114500513
   00032_PHE    00035_PHE  0.0025712905657558466
   00032_PHE    00066_SER  0.0008289414665286504
   00032_PHE    00087_TYR  0.0010646622870188382
   00032_PHE    00094_ARG  0.09046473057802368
   00032_PHE    00063_ARG  0.03017539116675843
   00032_PHE    00086_GLN  0.0024142354130488957
   00032_PHE    00050_LYS  0.0626862320795975
   00032_PHE    00052_ASP  0.07913936983348827
   00032_PHE    00089_PRO  0.0009622882532129227
   00032_PHE    00049_ARG  0.019154534084089226
   00032_PHE    00093_SER  0.0014645369996306155
   00032_PHE    00096_GLU  0.04848339479036401
   00033_ILE    00084_ILE  0.0004492051074209746
   00033_ILE    00048_LEU  0.022929834647351644
   00033_ILE    00054_ILE  0.027832852507286007
   00033_ILE    00092_TYR  0.012144256381111367
   00033_ILE    00051_GLY  0.02358634520208411
   00033_ILE    00085_ALA  0.0003833204541241269
   00033_ILE    00036_ILE  0.019467676840279058
   00033_ILE    00083_ILE  0.00031133743367760177
   00033_ILE    00034_SER  6.785900695303581
   00033_ILE    00037_LEU  0.0004324088845791523
   00033_ILE    00042_ALA  0.0005290382957130693
   00033_ILE    00074_LEU  0.00023568656884119253
   00033_ILE    00053_GLN  0.009575020046980656
   00033_ILE    00049_ARG  0.041119464445846604
   00033_ILE    00057_VAL  0.00021696827011181117
   00033_ILE    00087_TYR  0.0012562096009681428
   00033_ILE    00095_PHE  0.0011149741371146923
   00033_ILE    00086_GLN  0.0014702361069528899
   00033_ILE    00050_LYS  0.12263173171147466
   00033_ILE    00052_ASP  0.11374882205425366
   00033_ILE    00070_ALA  0.0003538850477557596
   00033_ILE    00035_PHE  0.009811752602830407
   00033_ILE    00096_GLU  0.05182871628289267
   00034_SER    00095_PHE  0.003235901251224642
   00034_SER    00092_TYR  0.03339054410751085
   00034_SER    00051_GLY  0.0018293427452199316
   00034_SER    00036_ILE  0.0027447849629261972
   00034_SER    00052_ASP  0.05626901720296504
   00034_SER    00096_GLU  0.1249228825318331
   00034_SER    00054_ILE  0.0004839262863945052
   00034_SER    00098_NME  0.00024623620699169293
   00034_SER    00050_LYS  0.1435926101488403
   00034_SER    00097_ALA  0.0005960070341591016
   00034_SER    00049_ARG  0.03312427175583987
   00034_SER    00035_PHE  8.895406448774764
   00035_PHE    00038_ALA  0.0022545642722801925
   00035_PHE    00048_LEU  0.0019183066303712262
   00035_PHE    00092_TYR  0.0026270510149946865
   00035_PHE    00051_GLY  0.0010367294063281433
   00035_PHE    00050_LYS  0.0744968201014561
   00035_PHE    00098_NME  5.418155832466183e-05
   00035_PHE    00037_LEU  0.01960926376539082
   00035_PHE    00042_ALA  0.0015148266018375242
   00035_PHE    00036_ILE  7.347328328159823
   00035_PHE    00097_ALA  0.00015383091071810595
   00035_PHE    00049_ARG  0.04938433034553747
   00035_PHE    00096_GLU  0.04452409712251163
   00036_ILE    00046_GLY  0.0003979666610794224
   00036_ILE    00048_LEU  0.010697465900909886
   00036_ILE    00054_ILE  0.00010659596541127418
   00036_ILE    00039_GLY  0.002000308824834008
   00036_ILE    00040_GLY  0.003128157594481951
   00036_ILE    00051_GLY  0.0003492278121904663
   00036_ILE    00037_LEU  7.68761826387088
   00036_ILE    00042_ALA  0.009427349406659102
   00036_ILE    00047_GLU  0.025357647418652228
   00036_ILE    00038_ALA  0.017615594396643224
   00036_ILE    00045_SER  0.0010904505015249877
   00036_ILE    00044_LEU  0.0007882640832484895
   00036_ILE    00043_ASP  0.09118170121798141
   00036_ILE    00050_LYS  0.06501774341899143
   00036_ILE    00052_ASP  0.038272221421319405
   00036_ILE    00041_PRO  0.000694364763274194
   00036_ILE    00049_ARG  0.062213779180365414
   00037_LEU    00038_ALA  6.37124111461304
   00037_LEU    00044_LEU  0.002244486753615225
   00037_LEU    00039_GLY  0.017553488980770582
   00037_LEU    00040_GLY  0.03649752483709161
   00037_LEU    00043_ASP  0.1172480870809914
   00037_LEU    00041_PRO  0.0017079088931812626
   00037_LEU    00042_ALA  0.004932085641884268
   00038_ALA    00044_LEU  0.002583273447997301
   00038_ALA    00039_GLY  7.049536427418169
   00038_ALA    00040_GLY  0.05190264427378839
   00038_ALA    00043_ASP  0.10094099494430969
   00038_ALA    00042_ALA  0.0017020125142143232
   00039_GLY    00044_LEU  0.014805627329908873
   00039_GLY    00040_GLY  10.160819351838636
   00039_GLY    00043_ASP  0.14988193626666677
   00039_GLY    00041_PRO  0.0023471063798839523
   00039_GLY    00042_ALA  0.002998287690609496
   00040_GLY    00046_GLY  0.0008266019727797625
   00040_GLY    00045_SER  0.00779969192761383
   00040_GLY    00044_LEU  0.044450547774667885
   00040_GLY    00043_ASP  0.15564691517831994
   00040_GLY    00041_PRO  6.736661189675263
   00040_GLY    00042_ALA  0.03795462428175786
   00041_PRO    00046_GLY  0.001692799091454281
   00041_PRO    00048_LEU  0.0016665912167543367
   00041_PRO    00045_SER  0.039942167454122476
   00041_PRO    00044_LEU  0.022602342268176215
   00041_PRO    00081_VAL  0.0008768978454991836
   00041_PRO    00043_ASP  0.040827869590003396
   00041_PRO    00083_ILE  0.00036725952080183334
   00041_PRO    00042_ALA  7.71907752338794
   00041_PRO    00074_LEU  0.00028069863492317357
   00041_PRO    00047_GLU  0.010600539744046459
   00042_ALA    00046_GLY  0.007849946646482513
   00042_ALA    00048_LEU  0.020410165097243745
   00042_ALA    00045_SER  0.103411390404705
   00042_ALA    00044_LEU  0.015382028048882907
   00042_ALA    00081_VAL  0.0004437483136955675
   00042_ALA    00043_ASP  8.569869026755617
   00042_ALA    00047_GLU  0.022326747842688826
   00042_ALA    00083_ILE  0.00044167318340918927
   00042_ALA    00049_ARG  0.03209498956300599
   00043_ASP    00046_GLY  0.11104096245082418
   00043_ASP    00048_LEU  0.08079769182830075
   00043_ASP    00045_SER  0.206931527270244
   00043_ASP    00044_LEU  6.937813047492995
   00043_ASP    00049_ARG  0.38992905632931313
   00043_ASP    00047_GLU  0.1747766883605517
   00044_LEU    00046_GLY  0.0172062359080801
   00044_LEU    00045_SER  7.8891796518723405
   00044_LEU    00047_GLU  0.035319395142784205
   00045_SER    00046_GLY  8.515320806525231
   00045_SER    00048_LEU  0.038625481303802146
   00045_SER    00047_GLU  0.14816735106578943
   00045_SER    00083_ILE  0.0012463479882711802
   00045_SER    00049_ARG  0.10922700360461667
   00046_GLY    00048_LEU  0.010226059682494511
   00046_GLY    00047_GLU  8.19266713675235
   00046_GLY    00049_ARG  0.09001073100241702
   00047_GLU    00048_LEU  7.885395347816399
   00047_GLU    00087_TYR  0.1434481749441226
   00047_GLU    00085_ALA  0.05635240772269872
   00047_GLU    00052_ASP  0.35097632131918294
   00047_GLU    00083_ILE  0.0327889256948271
   00047_GLU    00049_ARG  1.1245106209130833
   00048_LEU    00084_ILE  0.00112118169719152
   00048_LEU    00054_ILE  0.0006047093931643564
   00048_LEU    00081_VAL  0.00046724472501294574
   00048_LEU    00057_VAL  0.00027431944413210254
   00048_LEU    00085_ALA  0.0026496558044704897
   00048_LEU    00083_ILE  0.009004133735551749
   00048_LEU    00055_LEU  0.00040526487872837063
   00048_LEU    00074_LEU  0.0003042090915507328
   00048_LEU    00082_THR  0.000696441824838354
   00048_LEU    00053_GLN  0.0018275787111261207
   00048_LEU    00087_TYR  0.00197623171453244
   00048_LEU    00086_GLN  0.001794164352467903
   00048_LEU    00050_LYS  0.043102373086235025
   00048_LEU    00052_ASP  0.1561920095786233
   00048_LEU    00049_ARG  6.321175721116169
   00049_ARG    00054_ILE  0.019872852526067988
   00049_ARG    00088_LYS  0.2096966074280644
   00049_ARG    00087_TYR  0.26812479688041535
   00049_ARG    00092_TYR  0.06487018195888765
   00049_ARG    00086_GLN  0.08783569407895751
   00049_ARG    00051_GLY  0.053357376303851775
   00049_ARG    00085_ALA  0.044034563261982476
   00049_ARG    00050_LYS  5.639834802184017
   00049_ARG    00052_ASP  0.8617120726875418
   00049_ARG    00089_PRO  0.01631504521655986
   00049_ARG    00053_GLN  0.07165002709051431
   00050_LYS    00095_PHE  0.0728601094280316
   00050_LYS    00088_LYS  0.12752699102958112
   00050_LYS    00087_TYR  0.06110491759488887
   00050_LYS    00092_TYR  0.29984057531734715
   00050_LYS    00097_ALA  0.053622184063021924
   00050_LYS    00051_GLY  6.913191723866496
   00050_LYS    00052_ASP  0.2818857304454099
   00050_LYS    00098_NME  0.022307016535009504
   00050_LYS    00089_PRO  0.0257902324160499
   00050_LYS    00093_SER  0.1034783569893823
   00050_LYS    00096_GLU  1.0395099310236375
   00051_GLY    00095_PHE  0.0008969089968915404
   00051_GLY    00088_LYS  0.06919317219470386
   00051_GLY    00092_TYR  0.02066053451472008
   00051_GLY    00090_GLU  0.0318911157247105
   00051_GLY    00053_GLN  0.014238698013532529
   00051_GLY    00087_TYR  0.014729948838150826
   00051_GLY    00089_PRO  0.005278993604879174
   00051_GLY    00086_GLN  0.008094338344224824
   00051_GLY    00052_ASP  8.463647122421817
   00051_GLY    00091_GLU  0.025656668948065595
   00051_GLY    00093_SER  0.001761161295171379
   00051_GLY    00096_GLU  0.06042082708120929
   00052_ASP    00084_ILE  0.053998357544216405
   00052_ASP    00054_ILE  0.07044320337650113
   00052_ASP    00088_LYS  0.2079943567946542
   00052_ASP    00087_TYR  0.3023808319834172
   00052_ASP    00092_TYR  0.11227353367573346
   00052_ASP    00086_GLN  0.25399679844249445
   00052_ASP    00085_ALA  0.13216176737636418
   00052_ASP    00083_ILE  0.050422874266631376
   00052_ASP    00055_LEU  0.049112060643213336
   00052_ASP    00089_PRO  0.021369966735553858
   00052_ASP    00053_GLN  6.992367959175444
   00053_GLN    00084_ILE  0.009287899382621095
   00053_GLN    00054_ILE  6.980248164408451
   00053_GLN    00064_ASN  0.00983136023329472
   00053_GLN    00092_TYR  0.0038569846055609923
   00053_GLN    00085_ALA  0.024313358708841513
   00053_GLN    00095_PHE  0.0015747367995200118
   00053_GLN    00055_LEU  0.050641111252330895
   00053_GLN    00088_LYS  0.5000280609849672
   00053_GLN    00065_ALA  0.005272405595110224
   00053_GLN    00091_GLU  0.15793418509491064
   00053_GLN    00062_LEU  0.015125314624459082
   00053_GLN    00056_SER  0.008082359325833972
   00053_GLN    00087_TYR  0.0072668476276410736
   00053_GLN    00063_ARG  0.29802546169770877
   00053_GLN    00094_ARG  0.16412928619248585
   00053_GLN    00086_GLN  0.07877190122876583
   00053_GLN    00083_ILE  0.0022864506230142008
   00053_GLN    00089_PRO  0.0013375868315306182
   00054_ILE    00084_ILE  0.009766928005464304
   00054_ILE    00064_ASN  0.001867232053687571
   00054_ILE    00081_VAL  0.00028758767927013413
   00054_ILE    00071_ALA  0.0003746190928850777
   00054_ILE    00057_VAL  0.011437616065335474
   00054_ILE    00067_HID  0.0010048497662932536
   00054_ILE    00085_ALA  0.005853268597098288
   00054_ILE    00073_ALA  0.0005092091999000843
   00054_ILE    00083_ILE  0.013209114958267319
   00054_ILE    00055_LEU  6.550755741361799
   00054_ILE    00088_LYS  0.06283615221609419
   00054_ILE    00074_LEU  0.0006147369140253591
   00054_ILE    00082_THR  0.0007062137688850121
   00054_ILE    00062_LEU  0.03683695693330466
   00054_ILE    00056_SER  0.019140622128630578
   00054_ILE    00065_ALA  0.0013741701699928072
   00054_ILE    00060_VAL  0.0015889671284438469
   00054_ILE    00063_ARG  0.057139932780425645
   00054_ILE    00086_GLN  0.005273238309114659
   00054_ILE    00070_ALA  0.0012338478070190952
   00054_ILE    00061_ASP  0.04759705252533843
   00055_LEU    00084_ILE  0.09106450190936978
   00055_LEU    00064_ASN  0.0025124135308832174
   00055_LEU    00088_LYS  0.08880287103826458
   00055_LEU    00057_VAL  0.004417583351076415
   00055_LEU    00085_ALA  0.013400792911733506
   00055_LEU    00083_ILE  0.0024692029632473866
   00055_LEU    00059_GLY  0.0014134107496960539
   00055_LEU    00065_ALA  0.0012167516416302965
   00055_LEU    00062_LEU  0.041287416313977914
   00055_LEU    00056_SER  7.649715349370497
   00055_LEU    00087_TYR  0.001011838642786695
   00055_LEU    00060_VAL  0.005683655040974424
   00055_LEU    00063_ARG  0.15257107786634685
   00055_LEU    00086_GLN  0.02756230772704835
   00055_LEU    00061_ASP  0.1078083667096366
   00056_SER    00084_ILE  0.09380212417101014
   00056_SER    00059_GLY  0.03268347266255402
   00056_SER    00081_VAL  0.00175038371253518
   00056_SER    00057_VAL  6.207630142350098
   00056_SER    00085_ALA  0.0037799104473862635
   00056_SER    00073_ALA  0.002365437726198822
   00056_SER    00083_ILE  0.011828867900175379
   00056_SER    00074_LEU  0.0019352561770289154
   00056_SER    00082_THR  0.01032762395617747
   00056_SER    00058_ASN  0.009752937231803161
   00056_SER    00062_LEU  0.02046153761423064
   00056_SER    00060_VAL  0.13926916839971526
   00056_SER    00063_ARG  0.14213847163616058
   00056_SER    00086_GLN  0.0018660677745371442
   00056_SER    00070_ALA  0.0017182914688501363
   00056_SER    00061_ASP  0.10761174510081824
   00057_VAL    00084_ILE  0.004437579030899493
   00057_VAL    00059_GLY  0.043252584475649336
   00057_VAL    00081_VAL  0.006067560242077911
   00057_VAL    00061_ASP  0.04730154473986194
   00057_VAL    00085_ALA  0.0007968575690846215
   00057_VAL    00073_ALA  0.01749840561255949
   00057_VAL    00083_ILE  0.030848851882901304
   00057_VAL    00069_GLN  0.0020433543607780626
   00057_VAL    00071_ALA  0.0009028492798379488
   00057_VAL    00080_THR  0.0007314392720419213
   00057_VAL    00074_LEU  0.013659407697702615
   00057_VAL    00082_THR  0.01834593922730497
   00057_VAL    00058_ASN  6.205381018250877
   00057_VAL    00062_LEU  0.02783760580025986
   00057_VAL    00065_ALA  0.0004632742022241072
   00057_VAL    00060_VAL  0.06931683784705753
   00057_VAL    00063_ARG  0.04768154921760421
   00057_VAL    00076_ASN  0.003223090826154695
   00057_VAL    00078_GLY  0.0009876026207333848
   00057_VAL    00077_ALA  0.0015220974907206217
   00057_VAL    00072_ILE  0.00175691170677914
   00057_VAL    00075_LYS  0.031164701501340937
   00057_VAL    00070_ALA  0.002954274129360573
   00058_ASN    00084_ILE  0.0008101507827762756
   00058_ASN    00075_LYS  0.15540140407510938
   00058_ASN    00081_VAL  0.02565146728766527
   00058_ASN    00073_ALA  0.05315040021906557
   00058_ASN    00083_ILE  0.003373949395290487
   00058_ASN    00059_GLY  7.484724565523728
   00058_ASN    00080_THR  0.006137845479899099
   00058_ASN    00074_LEU  0.007220526636612356
   00058_ASN    00082_THR  0.02686678982051852
   00058_ASN    00077_ALA  0.04491690149325236
   00058_ASN    00060_VAL  0.04057310209518963
   00058_ASN    00076_ASN  0.0906096664632691
   00058_ASN    00079_GLN  0.0027784962605043348
   00058_ASN    00078_GLY  0.014391899488041033
   00058_ASN    00062_LEU  0.0008042168439221449
   00058_ASN    00072_ILE  0.010480633536688048
   00058_ASN    00070_ALA  0.001409790735838723
   00059_GLY    00084_ILE  0.000814405275629453
   00059_GLY    00060_VAL  10.063889669257172
   00059_GLY    00081_VAL  0.0009052429882183726
   00059_GLY    00076_ASN  0.0013773881795070778
   00059_GLY    00073_ALA  0.001647408944745131
   00059_GLY    00083_ILE  0.0011675556039780976
   00059_GLY    00062_LEU  0.0014769073675174208
   00059_GLY    00061_ASP  0.06943100965347516
   00059_GLY    00082_THR  0.006404587168535313
   00059_GLY    00077_ALA  0.0003954919404167974
   00059_GLY    00063_ARG  0.03693527917072972
   00060_VAL    00084_ILE  0.0008932404413944689
   00060_VAL    00072_ILE  0.0015650776219562463
   00060_VAL    00073_ALA  0.014879425197326017
   00060_VAL    00083_ILE  0.0008722749886919912
   00060_VAL    00069_GLN  0.008724846457757864
   00060_VAL    00065_ALA  0.0011695002053084649
   00060_VAL    00082_THR  0.0017100791186347463
   00060_VAL    00062_LEU  0.03304422569975488
   00060_VAL    00074_LEU  0.0014277416405131947
   00060_VAL    00063_ARG  0.05868264221219277
   00060_VAL    00076_ASN  0.002391701793185666
   00060_VAL    00077_ALA  0.0005065783261821436
   00060_VAL    00061_ASP  6.334905550201082
   00060_VAL    00070_ALA  0.0015676584452952226
   00061_ASP    00084_ILE  0.034092228924089966
   00061_ASP    00064_ASN  0.3200008224054142
   00061_ASP    00063_ARG  1.1915489112434114
   00061_ASP    00073_ALA  0.03483023356360325
   00061_ASP    00070_ALA  0.04248557063142684
   00061_ASP    00069_GLN  0.1831455472913707
   00061_ASP    00065_ALA  0.08053029770663936
   00061_ASP    00062_LEU  7.0204518285616695
   00062_LEU    00084_ILE  0.0013776190201911372
   00062_LEU    00064_ASN  0.05053828790006308
   00062_LEU    00066_SER  0.003088630134185437
   00062_LEU    00067_HID  0.0017817401187566605
   00062_LEU    00073_ALA  0.0018655109495349608
   00062_LEU    00083_ILE  0.0005073600457725518
   00062_LEU    00069_GLN  0.006879581569905816
   00062_LEU    00071_ALA  0.0007640104219290833
   00062_LEU    00065_ALA  0.04866638280063755
   00062_LEU    00074_LEU  0.0007827314180531541
   00062_LEU    00063_ARG  8.096473372128692
   00062_LEU    00070_ALA  0.020514946553817342
   00062_LEU    00072_ILE  0.0007130199805263353
   00062_LEU    00068_GLU  0.02626720743413771
   00063_ARG    00084_ILE  0.05227039794625721
   00063_ARG    00065_ALA  0.08020774890156232
   00063_ARG    00088_LYS  0.43465960187379027
   00063_ARG    00064_ASN  8.219292240821154
   00063_ARG    00086_GLN  0.12980715577461333
   00063_ARG    00091_GLU  0.16565913233081783
   00064_ASN    00069_GLN  0.00595426059493528
   00064_ASN    00066_SER  0.014667513583467755
   00064_ASN    00065_ALA  8.450762150484572
   00065_ALA    00071_ALA  0.0013144185154362975
   00065_ALA    00066_SER  7.807890396980065
   00065_ALA    00067_HID  0.015169563145990819
   00065_ALA    00073_ALA  0.0005073930204276637
   00065_ALA    00070_ALA  0.005156772861892565
   00065_ALA    00069_GLN  0.014815854180658327
   00065_ALA    00068_GLU  0.03694728204265396
   00066_SER    00071_ALA  0.005476320867959695
   00066_SER    00067_HID  7.37328073532331
   00066_SER    00070_ALA  0.02922189967241711
   00066_SER    00069_GLN  0.10369326541474821
   00066_SER    00072_ILE  0.0020759841891102916
   00066_SER    00068_GLU  0.31239084892419966
   00067_HID    00095_PHE  0.0008780724449554881
   00067_HID    00071_ALA  0.03392851617934384
   00067_HID    00073_ALA  0.0016188785340475675
   00067_HID    00070_ALA  0.030764565928850896
   00067_HID    00069_GLN  0.024003243573548126
   00067_HID    00072_ILE  0.004856877941666824
   00067_HID    00074_LEU  0.0013240816371243075
   00067_HID    00068_GLU  8.366434604658556
   00068_GLU    00071_ALA  0.07862917410156552
   00068_GLU    00073_ALA  0.04500642126649252
   00068_GLU    00070_ALA  0.06072690939745342
   00068_GLU    00069_GLN  9.2314071737139
   00068_GLU    00072_ILE  0.11486249460926144
   00068_GLU    00075_LYS  0.14673511261812727
   00068_GLU    00074_LEU  0.032117348184134725
   00069_GLN    00075_LYS  0.10765280270473905
   00069_GLN    00076_ASN  0.007498086669987407
   00069_GLN    00073_ALA  0.02197788511017863
   00069_GLN    00070_ALA  7.708937829822717
   00069_GLN    00072_ILE  0.03869595272367239
   00069_GLN    00071_ALA  0.018159780121248862
   00069_GLN    00074_LEU  0.004130013119181435
   00070_ALA    00075_LYS  0.04320730410361505
   00070_ALA    00076_ASN  0.0026412549509495843
   00070_ALA    00073_ALA  0.027576796434344346
   00070_ALA    00083_ILE  0.0002717385122451867
   00070_ALA    00072_ILE  0.01902029585535123
   00070_ALA    00071_ALA  7.78154735027498
   00070_ALA    00074_LEU  0.048547875024017716
   00071_ALA    00075_LYS  0.09031006131088247
   00071_ALA    00076_ASN  0.009482076328854065
   00071_ALA    00073_ALA  0.015328491996193133
   00071_ALA    00072_ILE  8.928489668513201
   00071_ALA    00074_LEU  0.0235084290415596
   00071_ALA    00077_ALA  0.0006553668956966485
   00072_ILE    00075_LYS  0.1161740506826205
   00072_ILE    00076_ASN  0.09231907460409775
   00072_ILE    00073_ALA  8.211792361663283
   00072_ILE    00074_LEU  0.02042120183275674
   00072_ILE    00077_ALA  0.0030088027166047266
   00073_ALA    00075_LYS  0.08575613334677502
   00073_ALA    00081_VAL  0.0011549753417832995
   00073_ALA    00076_ASN  0.033792967238710996
   00073_ALA    00078_GLY  0.0013579325839431734
   00073_ALA    00074_LEU  7.55027608578972
   00073_ALA    00077_ALA  0.012720898665035446
   00074_LEU    00084_ILE  0.00029385308440564703
   00074_LEU    00075_LYS  6.733003259846018
   00074_LEU    00081_VAL  0.0014068366732139155
   00074_LEU    00076_ASN  0.025373131440493288
   00074_LEU    00079_GLN  0.0008781350309952696
   00074_LEU    00078_GLY  0.0016891173518849313
   00074_LEU    00083_ILE  0.0005765190562449
   00074_LEU    00082_THR  0.0009336651427106549
   00074_LEU    00080_THR  0.0007758489858060903
   00074_LEU    00077_ALA  0.030747475151836047
   00075_LYS    00078_GLY  0.023737761545323408
   00075_LYS    00081_VAL  0.0181247829508214
   00075_LYS    00076_ASN  7.748485303704554
   00075_LYS    00077_ALA  0.11049339964876798
   00076_ASN    00078_GLY  0.01693472877058139
   00076_ASN    00081_VAL  0.0016684537056881684
   00076_ASN    00080_THR  0.001898175429484512
   00076_ASN    00077_ALA  9.52097953613869
   00077_ALA    00083_ILE  0.00028617156213405344
   00077_ALA    00081_VAL  0.022549771909345984
   00077_ALA    00079_GLN  0.00917577891706794
   00077_ALA    00078_GLY  6.604300928274043
   00077_ALA    00080_THR  0.005473019468780157
   00077_ALA    00082_THR  0.0007954096420142734
   00078_GLY    00081_VAL  0.008089954538990852
   00078_GLY    00080_THR  0.05418844784673341
   00078_GLY    00082_THR  0.002433303840790982
   00078_GLY    00079_GLN  6.604020124725427
   00079_GLN    00081_VAL  0.005913451059470673
   00079_GLN    00080_THR  8.58913223300768
   00080_THR    00081_VAL  7.627642385528901
   00080_THR    00083_ILE  0.0007366568215463422
   00080_THR    00082_THR  0.005490412989711023
   00081_VAL    00084_ILE  0.0009691394919702745
   00081_VAL    00083_ILE  0.01537347589668302
   00081_VAL    00082_THR  6.85265647651135
   00082_THR    00084_ILE  0.011119813479668271
   00082_THR    00083_ILE  6.588043779961069
   00083_ILE    00084_ILE  6.190457084984758
   00083_ILE    00086_GLN  0.001642236390158199
   00083_ILE    00085_ALA  0.010365853349106708
   00084_ILE    00086_GLN  0.0069393665388853415
   00084_ILE    00085_ALA  7.411279741968374
   00085_ALA    00086_GLN  6.6944515303423175
   00085_ALA    00088_LYS  0.037054562048914004
   00085_ALA    00087_TYR  0.00605195200109132
   00086_GLN    00088_LYS  0.42734674708524406
   00086_GLN    00087_TYR  7.183738784574464
   00086_GLN    00091_GLU  0.133859805821801
   00086_GLN    00089_PRO  0.001851467402265712
   00087_TYR    00088_LYS  6.787809765947203
   00087_TYR    00092_TYR  0.002903210767236133
   00087_TYR    00089_PRO  0.0341699750355013
   00087_TYR    00090_GLU  0.1984054762453901
   00087_TYR    00091_GLU  0.06953030553742404
   00088_LYS    00095_PHE  0.019294395070354506
   00088_LYS    00092_TYR  0.09061754941832872
   00088_LYS    00091_GLU  0.604248398346372
   00088_LYS    00094_ARG  0.285992757057151
   00088_LYS    00090_GLU  0.3463674036630251
   00088_LYS    00089_PRO  6.2779194415431165
   00088_LYS    00093_SER  0.03687117044820412
   00089_PRO    00095_PHE  0.0007067841252323906
   00089_PRO    00092_TYR  0.033805229840507725
   00089_PRO    00094_ARG  0.026433026080745665
   00089_PRO    00090_GLU  9.39617328720072
   00089_PRO    00091_GLU  0.043948970451347845
   00089_PRO    00093_SER  0.057180238748091854
   00089_PRO    00096_GLU  0.025282229920810296
   00090_GLU    00095_PHE  0.02368877381163452
   00090_GLU    00092_TYR  0.08812095051177009
   00090_GLU    00094_ARG  0.23093943997497346
   00090_GLU    00091_GLU  8.043052013518965
   00090_GLU    00093_SER  0.14072816415170133
   00091_GLU    00095_PHE  0.07340081448146946
   00091_GLU    00092_TYR  9.442747378727043
   00091_GLU    00094_ARG  0.5819885385013888
   00091_GLU    00093_SER  0.13567614911600775
   00091_GLU    00096_GLU  0.10060032033281939
   00092_TYR    00095_PHE  0.08732217099621258
   00092_TYR    00094_ARG  0.19298477167935668
   00092_TYR    00098_NME  0.0009575661956853278
   00092_TYR    00097_ALA  0.004101594229264358
   00092_TYR    00093_SER  8.461766032807223
   00092_TYR    00096_GLU  0.34711821282689875
   00093_SER    00095_PHE  0.03325105629583898
   00093_SER    00094_ARG  7.326225437961196
   00093_SER    00098_NME  0.003641786185186811
   00093_SER    00097_ALA  0.026678901876500745
   00093_SER    00096_GLU  0.1520904858108022
   00094_ARG    00095_PHE  8.199214259997179
   00094_ARG    00098_NME  0.022345248732750615
   00094_ARG    00097_ALA  0.04656352366800074
   00094_ARG    00096_GLU  0.3452281434739675
   00095_PHE    00098_NME  0.012692892440037322
   00095_PHE    00097_ALA  0.012294131346295435
   00095_PHE    00096_GLU  8.758995512309884
   00096_GLU    00097_ALA  8.469855017993181
   00096_GLU    00098_NME  0.05400097143042887
   00097_ALA    00098_NME  8.818057794325862
