   00001_ACE    00046_GLY  8.814457990251757e-05
   00001_ACE    00002_ILE  17.15821431041807
   00001_ACE    00087_TYR  0.010375717989478943
   00001_ACE    00049_ARG  0.06155266117535317
   00001_ACE    00004_ARG  0.036612661495236155
   00001_ACE    00007_ARG  0.02065617415050375
   00001_ACE    00003_PRO  0.0030905195894992896
   00001_ACE    00089_PRO  0.01583453666586724
   00001_ACE    00047_GLU  0.012726033511946892
   00002_ILE    00046_GLY  9.287486767679587e-05
   00002_ILE    00048_LEU  0.00022023637609395707
   00002_ILE    00088_LYS  0.05477147340861305
   00002_ILE    00051_GLY  0.0009413792611297932
   00002_ILE    00085_ALA  0.0003263636058342575
   00002_ILE    00036_ILE  5.849825950770862e-05
   00002_ILE    00004_ARG  0.10156523172215502
   00002_ILE    00007_ARG  0.036167682612973956
   00002_ILE    00009_ILE  7.540655330785288e-05
   00002_ILE    00005_GLU  0.05966291098498278
   00002_ILE    00047_GLU  0.02084484443198376
   00002_ILE    00045_SER  9.88817681077703e-05
   00002_ILE    00087_TYR  0.018951073464119235
   00002_ILE    00086_GLN  0.0043061040519343854
   00002_ILE    00050_LYS  0.02562305988979315
   00002_ILE    00052_ASP  0.04005434615303308
   00002_ILE    00006_PRO  0.00035614570683991807
   00002_ILE    00003_PRO  4.495197601417893
   00002_ILE    00089_PRO  0.009451111361457668
   00002_ILE    00049_ARG  0.08706396671638411
   00003_PRO    00088_LYS  0.052226448562413465
   00003_PRO    00087_TYR  0.052566397435981314
   00003_PRO    00086_GLN  0.013454544011438006
   00003_PRO    00085_ALA  0.0005692768735269172
   00003_PRO    00047_GLU  0.009340869378179512
   00003_PRO    00004_ARG  13.640761519206913
   00003_PRO    00052_ASP  0.01848604277867879
   00003_PRO    00007_ARG  0.021832657229228697
   00003_PRO    00006_PRO  0.0007457792018097242
   00003_PRO    00008_ARG  0.006577640588631943
   00003_PRO    00009_ILE  0.00012055371952950875
   00003_PRO    00005_GLU  0.06258039908822684
   00003_PRO    00049_ARG  0.04333313175729193
   00004_ARG    00088_LYS  0.3964095008463231
   00004_ARG    00087_TYR  0.33800076648682686
   00004_ARG    00089_PRO  0.013107342841324
   00004_ARG    00086_GLN  0.33664099743249626
   00004_ARG    00090_GLU  0.2335388830985845
   00004_ARG    00085_ALA  0.05581173214022119
   00004_ARG    00007_ARG  0.9758332316752346
   00004_ARG    00006_PRO  0.046509331001023474
   00004_ARG    00055_LEU  0.03393849379556362
   00004_ARG    00005_GLU  18.134812738527774
   00004_ARG    00091_GLU  0.18910071470472958
   00005_GLU    00084_ILE  0.04459418881529096
   00005_GLU    00088_LYS  0.21147911105529635
   00005_GLU    00087_TYR  0.2183395190297693
   00005_GLU    00086_GLN  0.4118723699801854
   00005_GLU    00085_ALA  0.08496376848361338
   00005_GLU    00007_ARG  0.9415484806685914
   00005_GLU    00006_PRO  6.22859972983992
   00005_GLU    00055_LEU  0.048273207655855375
   00005_GLU    00008_ARG  0.2801590436905314
   00006_PRO    00084_ILE  0.002561205953185899
   00006_PRO    00088_LYS  0.025649085245075844
   00006_PRO    00087_TYR  0.005186972392009712
   00006_PRO    00063_ARG  0.012804337141281905
   00006_PRO    00086_GLN  0.07317875147790734
   00006_PRO    00085_ALA  0.03447143876257558
   00006_PRO    00052_ASP  0.023557749767333838
   00006_PRO    00007_ARG  9.610115696745279
   00006_PRO    00055_LEU  0.018503390081234652
   00006_PRO    00009_ILE  0.0013703285467297768
   00006_PRO    00008_ARG  0.032876305495408806
   00006_PRO    00053_GLN  0.0016634809180919744
   00007_ARG    00084_ILE  0.11752881246157572
   00007_ARG    00046_GLY  0.06724574546010972
   00007_ARG    00048_LEU  0.2465630799433365
   00007_ARG    00054_ILE  0.05448959824903888
   00007_ARG    00088_LYS  0.4564839435832026
   00007_ARG    00033_ILE  0.05409825389569705
   00007_ARG    00051_GLY  0.06350518778694088
   00007_ARG    00085_ALA  0.2650301242078884
   00007_ARG    00036_ILE  0.033590368051072475
   00007_ARG    00083_ILE  0.06389711840639055
   00007_ARG    00055_LEU  0.06366350919194999
   00007_ARG    00009_ILE  0.11051978192143588
   00007_ARG    00082_THR  0.060160664296846675
   00007_ARG    00053_GLN  0.18448584268189516
   00007_ARG    00087_TYR  0.25644592810667216
   00007_ARG    00086_GLN  0.3656269074265969
   00007_ARG    00047_GLU  1.6012472716053496
   00007_ARG    00052_ASP  3.3107707134207978
   00007_ARG    00008_ARG  9.248061881600627
   00007_ARG    00049_ARG  1.3926593945092074
   00008_ARG    00084_ILE  0.14510553316192362
   00008_ARG    00048_LEU  0.04192379302699289
   00008_ARG    00059_GLY  0.06935087814667612
   00008_ARG    00081_VAL  0.0634497996615965
   00008_ARG    00085_ALA  0.0780211775644242
   00008_ARG    00083_ILE  0.12908958143953905
   00008_ARG    00009_ILE  13.207177579568048
   00008_ARG    00080_THR  0.08297925743292069
   00008_ARG    00082_THR  0.20830566672813816
   00008_ARG    00047_GLU  0.391247292077205
   00008_ARG    00010_VAL  0.10684120238005752
   00008_ARG    00056_SER  0.1514618110575935
   00008_ARG    00063_ARG  0.5229443894436121
   00008_ARG    00058_ASN  0.1982462112198155
   00009_ILE    00084_ILE  0.007109896889221319
   00009_ILE    00046_GLY  0.0006855380548537237
   00009_ILE    00048_LEU  0.047426966355630165
   00009_ILE    00054_ILE  0.00040633732443020167
   00009_ILE    00056_SER  0.0016897795774603248
   00009_ILE    00081_VAL  0.018486973085390296
   00009_ILE    00033_ILE  0.00023467160789938506
   00009_ILE    00085_ALA  0.014008978340552652
   00009_ILE    00057_VAL  0.0010101766524854975
   00009_ILE    00083_ILE  0.1222397091738196
   00009_ILE    00055_LEU  0.00066944911508056
   00009_ILE    00018_LEU  0.0009706466359101852
   00009_ILE    00042_ALA  0.0007277228201882405
   00009_ILE    00082_THR  0.043259921875825405
   00009_ILE    00047_GLU  0.19518947551276603
   00009_ILE    00011_ILE  0.058679280244669375
   00009_ILE    00045_SER  0.002031162495219851
   00009_ILE    00087_TYR  0.00042426260092199306
   00009_ILE    00012_HIE  0.0022909559775506905
   00009_ILE    00086_GLN  0.00150523891477823
   00009_ILE    00052_ASP  0.0554036367799439
   00009_ILE    00010_VAL  14.473250199229527
   00009_ILE    00041_PRO  0.0007415463943985708
   00009_ILE    00020_PHE  0.000569493793484934
   00009_ILE    00049_ARG  0.027849156367954025
   00010_VAL    00084_ILE  0.0012963617036276605
   00010_VAL    00048_LEU  0.0011497351234483074
   00010_VAL    00081_VAL  0.09082003477963323
   00010_VAL    00083_ILE  0.005810056076281624
   00010_VAL    00080_THR  0.04326446733774885
   00010_VAL    00018_LEU  0.0015085744117029972
   00010_VAL    00042_ALA  0.0010262152530188886
   00010_VAL    00082_THR  0.05423946112955849
   00010_VAL    00058_ASN  0.002201391313806931
   00010_VAL    00011_ILE  15.81343423564018
   00010_VAL    00045_SER  0.00451447750371837
   00010_VAL    00012_HIE  0.014431619502888102
   00010_VAL    00079_GLN  0.003125268827463543
   00010_VAL    00047_GLU  0.11967101477014526
   00010_VAL    00041_PRO  0.0017140045827299846
   00011_ILE    00046_GLY  0.0006021727075339959
   00011_ILE    00043_ASP  0.03544629536683806
   00011_ILE    00033_ILE  0.00014429401663742172
   00011_ILE    00013_ARG  0.07694678547290806
   00011_ILE    00085_ALA  0.0004874512960604217
   00011_ILE    00036_ILE  0.00020004525513177528
   00011_ILE    00082_THR  0.00865789913935379
   00011_ILE    00042_ALA  0.002226565666101374
   00011_ILE    00017_GLY  0.0022062702857612933
   00011_ILE    00045_SER  0.030291661368235842
   00011_ILE    00044_LEU  0.0010208190930413718
   00011_ILE    00012_HIE  17.617428321713458
   00011_ILE    00047_GLU  0.09154582069474848
   00011_ILE    00014_GLY  0.004090556407012066
   00011_ILE    00019_GLY  0.0007401678746434809
   00011_ILE    00048_LEU  0.015432448296010086
   00011_ILE    00054_ILE  0.00018281931620280176
   00011_ILE    00016_THR  0.0010732150539211765
   00011_ILE    00081_VAL  0.21539776243839515
   00011_ILE    00040_GLY  0.0012623512910694145
   00011_ILE    00057_VAL  0.0006300529608172901
   00011_ILE    00083_ILE  0.017725539026163976
   00011_ILE    00018_LEU  0.05440499783259477
   00011_ILE    00080_THR  0.05152306538138795
   00011_ILE    00074_LEU  0.0015774174034343899
   00011_ILE    00058_ASN  0.0031336800443181466
   00011_ILE    00077_ALA  0.001284907266741161
   00011_ILE    00079_GLN  0.01026612861604178
   00011_ILE    00078_GLY  0.0033496400047174912
   00011_ILE    00041_PRO  0.01450440791182894
   00011_ILE    00020_PHE  0.0030047567310070807
   00012_HIE    00016_THR  0.00808323299212053
   00012_HIE    00081_VAL  0.016071667987180648
   00012_HIE    00013_ARG  8.831001383557211
   00012_HIE    00042_ALA  0.003219120010750359
   00012_HIE    00018_LEU  0.03151081647596807
   00012_HIE    00080_THR  0.07784850666142151
   00012_HIE    00047_GLU  0.05969703479369682
   00012_HIE    00015_SER  0.01430665225472512
   00012_HIE    00017_GLY  0.00975611884998862
   00012_HIE    00045_SER  0.007333234762257378
   00012_HIE    00044_LEU  0.0036575714279157216
   00012_HIE    00079_GLN  0.11128692270237768
   00012_HIE    00078_GLY  0.007808551485628255
   00012_HIE    00014_GLY  0.1947313417125743
   00012_HIE    00041_PRO  0.024149099784914963
   00013_ARG    00019_GLY  0.028390890907042454
   00013_ARG    00075_LYS  0.7539190115177461
   00013_ARG    00016_THR  0.2252999418532781
   00013_ARG    00081_VAL  0.07373090109804113
   00013_ARG    00040_GLY  0.017044915513852132
   00013_ARG    00057_VAL  0.026576248654996148
   00013_ARG    00073_ALA  0.030413675356750047
   00013_ARG    00083_ILE  0.022195701324973005
   00013_ARG    00018_LEU  0.13526856902429069
   00013_ARG    00071_ALA  0.018850037648264824
   00013_ARG    00080_THR  0.16860861384674336
   00013_ARG    00074_LEU  0.07307155855761667
   00013_ARG    00042_ALA  0.027299900173824165
   00013_ARG    00077_ALA  0.08898471831845646
   00013_ARG    00015_SER  0.22311679692728303
   00013_ARG    00017_GLY  0.07702326129078503
   00013_ARG    00044_LEU  0.0349081875204924
   00013_ARG    00076_ASN  0.10545382549652876
   00013_ARG    00079_GLN  1.025082680357438
   00013_ARG    00058_ASN  0.15121545689394447
   00013_ARG    00078_GLY  0.11671012796777151
   00013_ARG    00014_GLY  12.259448572935757
   00013_ARG    00041_PRO  0.015536816038279274
   00013_ARG    00020_PHE  0.04268320988613629
   00014_GLY    00015_SER  11.990941230363532
   00014_GLY    00017_GLY  0.028236100753771545
   00014_GLY    00016_THR  0.04482863567670946
   00014_GLY    00081_VAL  0.0010762011672272491
   00014_GLY    00079_GLN  0.016164907920558025
   00014_GLY    00078_GLY  0.0017192365650628351
   00014_GLY    00041_PRO  0.012763912874093439
   00014_GLY    00018_LEU  0.005696564123172712
   00014_GLY    00080_THR  0.004060582918209471
   00014_GLY    00074_LEU  0.0008800140079545931
   00014_GLY    00077_ALA  0.000955542702103936
   00015_SER    00017_GLY  0.009088110720754078
   00015_SER    00078_GLY  0.0008443894685767992
   00015_SER    00075_LYS  0.06064206183328201
   00015_SER    00016_THR  13.012611988626858
   00015_SER    00074_LEU  0.0006907808371894019
   00015_SER    00079_GLN  0.0042299188173485006
   00015_SER    00077_ALA  0.000523500930085548
   00016_THR    00019_GLY  0.005108249526865705
   00016_THR    00075_LYS  0.10436398312587089
   00016_THR    00039_GLY  0.00120678096076694
   00016_THR    00081_VAL  0.0006641884054524775
   00016_THR    00040_GLY  0.001693099031714126
   00016_THR    00037_LEU  0.00222437995688246
   00016_THR    00018_LEU  0.010182366640071073
   00016_THR    00074_LEU  0.0018018340083685953
   00016_THR    00017_GLY  15.047463922661622
   00016_THR    00044_LEU  0.0006107175219191832
   00016_THR    00079_GLN  0.0041417856075326095
   00016_THR    00041_PRO  0.0012924536169480188
   00017_GLY    00019_GLY  0.054403373738658674
   00017_GLY    00074_LEU  0.0015334898473984583
   00017_GLY    00075_LYS  0.038183995171248646
   00017_GLY    00081_VAL  0.0006951244892379816
   00017_GLY    00040_GLY  0.004153716333557466
   00017_GLY    00037_LEU  0.0025038749279730627
   00017_GLY    00018_LEU  12.068685155229723
   00017_GLY    00041_PRO  0.03808148656860491
   00017_GLY    00071_ALA  0.00037700636593003106
   00017_GLY    00042_ALA  0.003804487929864154
   00017_GLY    00020_PHE  0.004887397307794302
   00018_LEU    00033_ILE  0.0005962619777413764
   00018_LEU    00036_ILE  0.0015353092240973385
   00018_LEU    00037_LEU  0.004161156310238213
   00018_LEU    00071_ALA  0.0011127336986403074
   00018_LEU    00082_THR  0.0011190051762883858
   00018_LEU    00021_ASN  0.004223068542004769
   00018_LEU    00045_SER  0.003462084373440889
   00018_LEU    00044_LEU  0.0016240292608872243
   00018_LEU    00022_ILE  0.0007698705651661293
   00018_LEU    00076_ASN  0.0013170597262292644
   00018_LEU    00043_ASP  0.05101286359174022
   00018_LEU    00047_GLU  0.040482890445258934
   00018_LEU    00070_ALA  0.0010346122603528804
   00018_LEU    00019_GLY  17.84479662573802
   00018_LEU    00048_LEU  0.0029340414684525646
   00018_LEU    00054_ILE  0.00027694615840287537
   00018_LEU    00075_LYS  0.0535241612154869
   00018_LEU    00081_VAL  0.04187142236591068
   00018_LEU    00040_GLY  0.008842212726971955
   00018_LEU    00057_VAL  0.0004605256406384719
   00018_LEU    00073_ALA  0.0013522553181451913
   00018_LEU    00083_ILE  0.003015806770142918
   00018_LEU    00042_ALA  0.07734427223610764
   00018_LEU    00074_LEU  0.02849421161094812
   00018_LEU    00058_ASN  0.0011689204941061617
   00018_LEU    00077_ALA  0.0018538551145267305
   00018_LEU    00080_THR  0.0032829220426507924
   00018_LEU    00079_GLN  0.003218934125625898
   00018_LEU    00078_GLY  0.0016548142119016762
   00018_LEU    00041_PRO  0.07865064499190913
   00018_LEU    00020_PHE  0.08767134648816712
   00019_GLY    00048_LEU  0.002021779912830939
   00019_GLY    00039_GLY  0.0016342685426367352
   00019_GLY    00033_ILE  0.0010521920373598593
   00019_GLY    00036_ILE  0.007032701653814489
   00019_GLY    00037_LEU  0.3401178616490297
   00019_GLY    00042_ALA  0.010427207281668852
   00019_GLY    00074_LEU  0.0011713086978377449
   00019_GLY    00021_ASN  0.018322357384427702
   00019_GLY    00038_ALA  0.0028005833328922517
   00019_GLY    00044_LEU  0.001177050902773684
   00019_GLY    00022_ILE  0.0013146153664037234
   00019_GLY    00043_ASP  0.03946157042206196
   00019_GLY    00035_PHE  0.009285144935323184
   00019_GLY    00041_PRO  0.003853513755606072
   00019_GLY    00020_PHE  14.703351481190586
   00019_GLY    00040_GLY  0.00862264605371831
   00020_PHE    00033_ILE  0.03505449287134435
   00020_PHE    00023_VAL  0.0016669253753090407
   00020_PHE    00085_ALA  0.00046002275066595554
   00020_PHE    00036_ILE  0.027190051439059813
   00020_PHE    00037_LEU  0.012089348146863528
   00020_PHE    00082_THR  0.0006944496135362506
   00020_PHE    00021_ASN  17.432768488813966
   00020_PHE    00032_PHE  0.00237975014170797
   00020_PHE    00045_SER  0.0017263786375045413
   00020_PHE    00022_ILE  0.0618573151411379
   00020_PHE    00043_ASP  0.057248174134645564
   00020_PHE    00047_GLU  0.04332841049784844
   00020_PHE    00070_ALA  0.0022331259269812776
   00020_PHE    00049_ARG  0.03991137279673624
   00020_PHE    00048_LEU  0.054962370436494164
   00020_PHE    00054_ILE  0.005353893917333988
   00020_PHE    00071_ALA  0.0017757759116983013
   00020_PHE    00081_VAL  0.0012633280262393804
   00020_PHE    00040_GLY  0.003202216687536897
   00020_PHE    00062_LEU  0.00035975707739672997
   00020_PHE    00057_VAL  0.0004932361657395667
   00020_PHE    00067_HID  0.0020586276814546457
   00020_PHE    00083_ILE  0.011299692832922759
   00020_PHE    00031_ILE  0.0010130827664623944
   00020_PHE    00034_SER  0.004117301560812281
   00020_PHE    00042_ALA  0.02347727024367924
   00020_PHE    00074_LEU  0.07131185196109459
   00020_PHE    00077_ALA  0.0005730505057451898
   00020_PHE    00050_LYS  0.046113973326557145
   00020_PHE    00052_ASP  0.07479300608449004
   00020_PHE    00041_PRO  0.0019014149222603054
   00020_PHE    00035_PHE  0.008988702874215208
   00021_ASN    00048_LEU  0.0028348928361295283
   00021_ASN    00054_ILE  0.0022476049493387234
   00021_ASN    00071_ALA  0.0030769040462238326
   00021_ASN    00092_TYR  0.006801599097140886
   00021_ASN    00033_ILE  0.04940138151632567
   00021_ASN    00034_SER  0.13089813460081867
   00021_ASN    00023_VAL  0.03730432510353024
   00021_ASN    00067_HID  0.01180945809774415
   00021_ASN    00036_ILE  0.013294391634525064
   00021_ASN    00024_GLY  0.005473535428411301
   00021_ASN    00095_PHE  0.0039239901812398465
   00021_ASN    00031_ILE  0.0037455796263154975
   00021_ASN    00098_NME  0.0005860793503464758
   00021_ASN    00037_LEU  0.00561672368974272
   00021_ASN    00074_LEU  0.002896837463145198
   00021_ASN    00032_PHE  0.017114108714350457
   00021_ASN    00022_ILE  13.76243315571351
   00021_ASN    00050_LYS  0.1687292550911123
   00021_ASN    00097_ALA  0.0016278353436689301
   00021_ASN    00035_PHE  0.40560240263767905
   00022_ILE    00092_TYR  0.0018056187479265342
   00022_ILE    00025_GLY  0.001174266701212256
   00022_ILE    00033_ILE  0.04517495141853008
   00022_ILE    00023_VAL  10.339707865440891
   00022_ILE    00036_ILE  0.0008469716436093074
   00022_ILE    00024_GLY  0.00688745149915407
   00022_ILE    00065_ALA  0.000858865178348069
   00022_ILE    00053_GLN  0.0022754035043280984
   00022_ILE    00032_PHE  0.04408204672149625
   00022_ILE    00070_ALA  0.024404536790064952
   00022_ILE    00072_ILE  0.0008021976936328944
   00022_ILE    00068_GLU  0.04703329951668783
   00022_ILE    00048_LEU  0.0006083858498661404
   00022_ILE    00054_ILE  0.008212211671126849
   00022_ILE    00071_ALA  0.036741932937911996
   00022_ILE    00030_GLY  0.0015049415533035478
   00022_ILE    00066_SER  0.003077387159605193
   00022_ILE    00057_VAL  0.00037132087639373646
   00022_ILE    00067_HID  0.04193576026099353
   00022_ILE    00073_ALA  0.0004874380808538584
   00022_ILE    00083_ILE  0.00020948556653934447
   00022_ILE    00031_ILE  0.009721906467710957
   00022_ILE    00069_GLN  0.0018579580365398634
   00022_ILE    00034_SER  0.01521647154812145
   00022_ILE    00074_LEU  0.017269212219659956
   00022_ILE    00062_LEU  0.000563024192120068
   00022_ILE    00052_ASP  0.05092779387087664
   00022_ILE    00035_PHE  0.006067086596732972
   00023_VAL    00054_ILE  0.0015428192512611748
   00023_VAL    00030_GLY  0.008729474290912044
   00023_VAL    00092_TYR  0.0046538665184954605
   00023_VAL    00025_GLY  0.013789909652457525
   00023_VAL    00033_ILE  0.011574380232808445
   00023_VAL    00098_NME  8.429047750298754e-05
   00023_VAL    00051_GLY  0.0014061038886672831
   00023_VAL    00067_HID  0.059511730411533736
   00023_VAL    00097_ALA  0.0004639422386283261
   00023_VAL    00029_GLU  0.043594603883905805
   00023_VAL    00095_PHE  0.010725395191203762
   00023_VAL    00031_ILE  0.024194120594946605
   00023_VAL    00034_SER  0.06763233324220841
   00023_VAL    00024_GLY  9.465388365097601
   00023_VAL    00065_ALA  0.0017642942098209306
   00023_VAL    00053_GLN  0.004419941986761875
   00023_VAL    00032_PHE  0.1611801748043926
   00023_VAL    00035_PHE  0.001070485515911705
   00023_VAL    00068_GLU  0.04368955688568579
   00023_VAL    00094_ARG  0.05905782775977308
   00023_VAL    00050_LYS  0.052557619673032144
   00023_VAL    00052_ASP  0.052524452347725126
   00023_VAL    00070_ALA  0.0012363218150389836
   00023_VAL    00066_SER  0.00571593232965974
   00023_VAL    00026_GLU  0.06771192439880086
   00023_VAL    00096_GLU  0.05235943338929007
   00024_GLY    00095_PHE  0.025213534995968793
   00024_GLY    00030_GLY  0.0160216386312547
   00024_GLY    00092_TYR  0.0014889771641573874
   00024_GLY    00025_GLY  9.246247444707377
   00024_GLY    00026_GLU  0.13004717186912276
   00024_GLY    00028_GLY  0.0035175738075337083
   00024_GLY    00067_HID  0.19127426107491385
   00024_GLY    00029_GLU  0.04682861149796369
   00024_GLY    00031_ILE  0.010748920878796796
   00024_GLY    00069_GLN  0.006163160105867847
   00024_GLY    00034_SER  0.0021181149597660647
   00024_GLY    00065_ALA  0.004673516992287745
   00024_GLY    00053_GLN  0.003596446410927319
   00024_GLY    00032_PHE  0.010308880898739745
   00024_GLY    00094_ARG  0.046047639588617045
   00024_GLY    00070_ALA  0.0013096013980669458
   00024_GLY    00068_GLU  0.0404198977560407
   00024_GLY    00066_SER  0.034653233963878774
   00025_GLY    00095_PHE  0.0021620349020068656
   00025_GLY    00064_ASN  0.007638425484847424
   00025_GLY    00030_GLY  0.08088410174152268
   00025_GLY    00066_SER  0.05938601302687715
   00025_GLY    00028_GLY  0.0592011607415346
   00025_GLY    00067_HID  0.01161583716543669
   00025_GLY    00029_GLU  0.07995016100219676
   00025_GLY    00031_ILE  0.02646723725374679
   00025_GLY    00069_GLN  0.004208563212852982
   00025_GLY    00065_ALA  0.031788291742495554
   00025_GLY    00053_GLN  0.004706232778704252
   00025_GLY    00062_LEU  0.001748030417511332
   00025_GLY    00063_ARG  0.028037964604791146
   00025_GLY    00094_ARG  0.05247902524575432
   00025_GLY    00027_ASP  0.0845484392342872
   00025_GLY    00032_PHE  0.0024441313635864877
   00025_GLY    00068_GLU  0.03124326916191744
   00025_GLY    00026_GLU  17.27981957051347
   00025_GLY    00070_ALA  0.0006398268165241706
   00026_GLU    00095_PHE  0.052085551585548034
   00026_GLU    00064_ASN  0.16697262418523037
   00026_GLU    00030_GLY  0.07886643575709432
   00026_GLU    00066_SER  1.0910702963981043
   00026_GLU    00028_GLY  0.17419533512829277
   00026_GLU    00067_HID  0.352830788683447
   00026_GLU    00029_GLU  0.3415472163158103
   00026_GLU    00031_ILE  0.061571223805589145
   00026_GLU    00069_GLN  0.3086142208596724
   00026_GLU    00065_ALA  0.07102863556246537
   00026_GLU    00032_PHE  0.05250308179876017
   00026_GLU    00094_ARG  0.3656597295037712
   00026_GLU    00027_ASP  8.467498202279296
   00026_GLU    00068_GLU  0.15894449759139345
   00027_ASP    00064_ASN  0.228381298524059
   00027_ASP    00030_GLY  0.051780292753950456
   00027_ASP    00063_ARG  0.18349750034568557
   00027_ASP    00066_SER  0.09915189668810678
   00027_ASP    00094_ARG  0.4575727888444523
   00027_ASP    00028_GLY  11.752381413688187
   00027_ASP    00067_HID  0.08706679961418694
   00027_ASP    00029_GLU  0.5126373539827688
   00027_ASP    00069_GLN  0.11840716594390284
   00027_ASP    00065_ALA  0.03391834573888303
   00028_GLY    00064_ASN  0.1236825330383954
   00028_GLY    00030_GLY  0.05526765882823983
   00028_GLY    00063_ARG  0.05057526207313335
   00028_GLY    00066_SER  0.005306728738722636
   00028_GLY    00094_ARG  0.047748059791511276
   00028_GLY    00067_HID  0.003132960723717897
   00028_GLY    00029_GLU  13.461875514996986
   00028_GLY    00031_ILE  0.0032120494117386287
   00028_GLY    00032_PHE  0.0011082019442492882
   00028_GLY    00069_GLN  0.003043367991918292
   00028_GLY    00088_LYS  0.047446679123091355
   00028_GLY    00065_ALA  0.011013896831516915
   00028_GLY    00053_GLN  0.01103396911825401
   00028_GLY    00062_LEU  0.002036167121755317
   00029_GLU    00095_PHE  0.07430732642130236
   00029_GLU    00064_ASN  0.20667675303693847
   00029_GLU    00030_GLY  14.472706169105832
   00029_GLU    00066_SER  0.07950541979393252
   00029_GLU    00067_HID  0.07869286595943305
   00029_GLU    00031_ILE  0.05263314798456958
   00029_GLU    00088_LYS  0.19115063007986957
   00029_GLU    00065_ALA  0.036184617950707876
   00029_GLU    00053_GLN  0.15917059966436942
   00029_GLU    00062_LEU  0.03636005638292104
   00029_GLU    00063_ARG  0.21385703556474708
   00029_GLU    00094_ARG  1.1598520791727784
   00029_GLU    00086_GLN  0.08538895747517318
   00029_GLU    00032_PHE  0.07518828340828862
   00029_GLU    00055_LEU  0.032375575771171165
   00029_GLU    00091_GLU  0.22369951386930528
   00030_GLY    00054_ILE  0.005896267955577607
   00030_GLY    00064_ASN  0.012146498072060245
   00030_GLY    00092_TYR  0.002444821028025745
   00030_GLY    00066_SER  0.006614193594807336
   00030_GLY    00067_HID  0.008706826538668102
   00030_GLY    00095_PHE  0.004213816998031866
   00030_GLY    00031_ILE  11.953331086613833
   00030_GLY    00088_LYS  0.0674760071517973
   00030_GLY    00065_ALA  0.006597832787304453
   00030_GLY    00053_GLN  0.09502142487993245
   00030_GLY    00032_PHE  0.04440426562333822
   00030_GLY    00063_ARG  0.032023005185888326
   00030_GLY    00094_ARG  0.0678248546254299
   00030_GLY    00086_GLN  0.0021166890425896234
   00030_GLY    00062_LEU  0.0038890736433985365
   00030_GLY    00055_LEU  0.001579557346903989
   00030_GLY    00091_GLU  0.04895214393524184
   00030_GLY    00070_ALA  0.000921601536522094
   00031_ILE    00064_ASN  0.003181820129741074
   00031_ILE    00092_TYR  0.002370472783818178
   00031_ILE    00033_ILE  0.01096674222951457
   00031_ILE    00054_ILE  0.13814896563483853
   00031_ILE    00055_LEU  0.003100267661920834
   00031_ILE    00088_LYS  0.06926932911479441
   00031_ILE    00065_ALA  0.2027208556477325
   00031_ILE    00053_GLN  0.12869719738201346
   00031_ILE    00032_PHE  12.357970179608655
   00031_ILE    00070_ALA  0.08037701332614385
   00031_ILE    00068_GLU  0.031389074264249035
   00031_ILE    00095_PHE  0.0018612653860050807
   00031_ILE    00071_ALA  0.0010119638667921455
   00031_ILE    00066_SER  0.07786999021789807
   00031_ILE    00057_VAL  0.0006844736152546211
   00031_ILE    00067_HID  0.06952968713266318
   00031_ILE    00073_ALA  0.00028517774496532723
   00031_ILE    00083_ILE  0.000481761456547776
   00031_ILE    00069_GLN  0.0017268092779715383
   00031_ILE    00034_SER  0.0020464729651608685
   00031_ILE    00074_LEU  0.0005587936206432573
   00031_ILE    00062_LEU  0.043277297391793854
   00031_ILE    00056_SER  0.001667689817524711
   00031_ILE    00063_ARG  0.05119922762216676
   00031_ILE    00094_ARG  0.05216258631486511
   00031_ILE    00052_ASP  0.07537519513374041
   00031_ILE    00061_ASP  0.05367630329911428
   00032_PHE    00095_PHE  0.01376349582129568
   00032_PHE    00088_LYS  0.1882094826358138
   00032_PHE    00092_TYR  0.08987148887540912
   00032_PHE    00033_ILE  9.666079474309006
   00032_PHE    00051_GLY  0.012988239913933889
   00032_PHE    00090_GLU  0.035389364616061576
   00032_PHE    00067_HID  0.0051413364167234715
   00032_PHE    00085_ALA  0.0008339342596636881
   00032_PHE    00054_ILE  0.011198445651062216
   00032_PHE    00055_LEU  0.0015302515435540542
   00032_PHE    00034_SER  0.02217119682235756
   00032_PHE    00091_GLU  0.09939701679484904
   00032_PHE    00065_ALA  0.001324711908927385
   00032_PHE    00053_GLN  0.07764063531080224
   00032_PHE    00035_PHE  0.003406211234684182
   00032_PHE    00066_SER  0.002193004440449842
   00032_PHE    00087_TYR  0.0023882472786088587
   00032_PHE    00094_ARG  0.08352250958524167
   00032_PHE    00063_ARG  0.02880603620449781
   00032_PHE    00086_GLN  0.0043802692629415505
   00032_PHE    00050_LYS  0.06172822573900907
   00032_PHE    00052_ASP  0.13625645989571902
   00032_PHE    00089_PRO  0.001166099068353299
   00032_PHE    00049_ARG  0.03705479407664997
   00032_PHE    00093_SER  0.0018463356195243777
   00032_PHE    00096_GLU  0.04806312996141313
   00033_ILE    00084_ILE  0.0005128544991442425
   00033_ILE    00048_LEU  0.05386689598300566
   00033_ILE    00054_ILE  0.03812033431273111
   00033_ILE    00092_TYR  0.022024113712830775
   00033_ILE    00051_GLY  0.05415099452820153
   00033_ILE    00085_ALA  0.0006776651049130646
   00033_ILE    00036_ILE  0.03856722485392402
   00033_ILE    00083_ILE  0.00024217715902586967
   00033_ILE    00034_SER  10.973468796084203
   00033_ILE    00037_LEU  0.0004911733982108247
   00033_ILE    00042_ALA  0.0007226293616837981
   00033_ILE    00074_LEU  0.00037545604528159345
   00033_ILE    00053_GLN  0.01255983051264181
   00033_ILE    00049_ARG  0.06534378672736794
   00033_ILE    00057_VAL  0.0002004992684482071
   00033_ILE    00087_TYR  0.0026065227015031243
   00033_ILE    00095_PHE  0.0021745307770740523
   00033_ILE    00086_GLN  0.0025660482206149174
   00033_ILE    00050_LYS  0.188520726499448
   00033_ILE    00052_ASP  0.25797386754834223
   00033_ILE    00070_ALA  0.00051198760799506
   00033_ILE    00035_PHE  0.018179682031223495
   00033_ILE    00096_GLU  0.05241840934142145
   00034_SER    00095_PHE  0.027064827975828182
   00034_SER    00092_TYR  0.20540004952883753
   00034_SER    00051_GLY  0.00406365888980514
   00034_SER    00036_ILE  0.008201188904414684
   00034_SER    00052_ASP  0.10546615620031706
   00034_SER    00096_GLU  0.26540281046846104
   00034_SER    00054_ILE  0.000515009597215142
   00034_SER    00098_NME  0.0007497202297025464
   00034_SER    00050_LYS  0.2818986130847026
   00034_SER    00097_ALA  0.005277742043597778
   00034_SER    00049_ARG  0.09294070242612512
   00034_SER    00035_PHE  11.232077366590158
   00035_PHE    00038_ALA  0.0035508970969926174
   00035_PHE    00048_LEU  0.002602252823748718
   00035_PHE    00092_TYR  0.005451038014195319
   00035_PHE    00051_GLY  0.0013574915047370108
   00035_PHE    00050_LYS  0.11640374932482679
   00035_PHE    00098_NME  0.00023762652875724302
   00035_PHE    00037_LEU  0.04834783455754328
   00035_PHE    00042_ALA  0.001600485174354284
   00035_PHE    00036_ILE  14.850943505617455
   00035_PHE    00097_ALA  0.0010899974396321823
   00035_PHE    00049_ARG  0.06901901386275049
   00035_PHE    00096_GLU  0.07547102404602116
   00036_ILE    00046_GLY  0.0009655130153085004
   00036_ILE    00048_LEU  0.04579270760273672
   00036_ILE    00054_ILE  0.00013885047770831538
   00036_ILE    00039_GLY  0.002247300231861383
   00036_ILE    00040_GLY  0.0037258691879642654
   00036_ILE    00051_GLY  0.00046560286103990774
   00036_ILE    00037_LEU  12.936366591874659
   00036_ILE    00042_ALA  0.032624510429201815
   00036_ILE    00047_GLU  0.02854842485713352
   00036_ILE    00038_ALA  0.021435786508069037
   00036_ILE    00045_SER  0.0012022934244329973
   00036_ILE    00044_LEU  0.0013715556558493217
   00036_ILE    00043_ASP  0.13603355034054365
   00036_ILE    00050_LYS  0.08848506239288768
   00036_ILE    00052_ASP  0.04676952122831938
   00036_ILE    00041_PRO  0.0010453543059560525
   00036_ILE    00049_ARG  0.08204695791756064
   00037_LEU    00038_ALA  11.764498482460471
   00037_LEU    00044_LEU  0.00345584809387687
   00037_LEU    00039_GLY  0.01969206817124473
   00037_LEU    00040_GLY  0.06678978176770381
   00037_LEU    00043_ASP  0.140393318958828
   00037_LEU    00041_PRO  0.001844562211822406
   00037_LEU    00042_ALA  0.0050371343830152735
   00038_ALA    00044_LEU  0.005026318977050174
   00038_ALA    00039_GLY  9.77267446308836
   00038_ALA    00040_GLY  0.04867319978223167
   00038_ALA    00043_ASP  0.14919503091618486
   00038_ALA    00042_ALA  0.002366805806004384
   00039_GLY    00044_LEU  0.019074010423107374
   00039_GLY    00040_GLY  17.269979581101847
   00039_GLY    00043_ASP  0.4768343610646699
   00039_GLY    00041_PRO  0.004937027109553796
   00039_GLY    00042_ALA  0.003081700765373043
   00040_GLY    00046_GLY  0.002618923022939879
   00040_GLY    00045_SER  0.016491472234412854
   00040_GLY    00044_LEU  0.1927338894285587
   00040_GLY    00043_ASP  0.2545355292280023
   00040_GLY    00041_PRO  6.421364082897248
   00040_GLY    00042_ALA  0.06143779666835147
   00041_PRO    00046_GLY  0.007064853234214941
   00041_PRO    00048_LEU  0.003759773711566604
   00041_PRO    00045_SER  0.10263809096337415
   00041_PRO    00044_LEU  0.0326818888381358
   00041_PRO    00081_VAL  0.0009782362478800177
   00041_PRO    00043_ASP  0.06228723151172986
   00041_PRO    00083_ILE  0.00043573178637021197
   00041_PRO    00042_ALA  13.18268859607386
   00041_PRO    00074_LEU  0.0004379869506091914
   00041_PRO    00047_GLU  0.022157984280502214
   00042_ALA    00046_GLY  0.0307262007146125
   00042_ALA    00048_LEU  0.09276380719882375
   00042_ALA    00045_SER  0.07843048597997336
   00042_ALA    00044_LEU  0.018818123555245644
   00042_ALA    00081_VAL  0.0006205497419977269
   00042_ALA    00043_ASP  11.657806378063091
   00042_ALA    00047_GLU  0.060507849255884774
   00042_ALA    00083_ILE  0.0005091564188314611
   00042_ALA    00049_ARG  0.03256667740420035
   00043_ASP    00046_GLY  0.16422840644717154
   00043_ASP    00048_LEU  0.1037063988370718
   00043_ASP    00045_SER  0.24229720634181626
   00043_ASP    00044_LEU  10.967990307231483
   00043_ASP    00049_ARG  0.3729752129314016
   00043_ASP    00047_GLU  0.1933760148322934
   00044_LEU    00046_GLY  0.025714526586243767
   00044_LEU    00045_SER  12.860774724787065
   00044_LEU    00047_GLU  0.07304087762343892
   00045_SER    00046_GLY  12.265100344710184
   00045_SER    00048_LEU  0.00925715041107248
   00045_SER    00047_GLU  0.33315491433204064
   00045_SER    00083_ILE  0.0009464575684401601
   00045_SER    00049_ARG  0.06307603591680042
   00046_GLY    00048_LEU  0.029432998206439884
   00046_GLY    00047_GLU  15.506298141856078
   00046_GLY    00049_ARG  0.0626083260009697
   00047_GLU    00048_LEU  13.83876416523709
   00047_GLU    00087_TYR  0.08332668777926719
   00047_GLU    00085_ALA  0.05683133893110082
   00047_GLU    00052_ASP  0.26553750520259733
   00047_GLU    00083_ILE  0.057132201242490493
   00047_GLU    00049_ARG  0.44425125941889376
   00048_LEU    00084_ILE  0.001447104817000417
   00048_LEU    00054_ILE  0.0002357680469060533
   00048_LEU    00081_VAL  0.0007630949547424679
   00048_LEU    00057_VAL  0.00038730419841898056
   00048_LEU    00085_ALA  0.002643901048016177
   00048_LEU    00083_ILE  0.012969800649057782
   00048_LEU    00055_LEU  0.00039877127321395035
   00048_LEU    00074_LEU  0.0005329050253786952
   00048_LEU    00082_THR  0.0008357864984397065
   00048_LEU    00053_GLN  0.0027285025186936057
   00048_LEU    00087_TYR  0.0030998991760343023
   00048_LEU    00086_GLN  0.002458924057015913
   00048_LEU    00050_LYS  0.05714528419738218
   00048_LEU    00052_ASP  0.266803444167887
   00048_LEU    00049_ARG  9.826700946762536
   00049_ARG    00054_ILE  0.027401224858516857
   00049_ARG    00088_LYS  0.4212765586867502
   00049_ARG    00087_TYR  0.42192634075003943
   00049_ARG    00092_TYR  0.106063160532081
   00049_ARG    00086_GLN  0.1429623606004899
   00049_ARG    00051_GLY  0.08466975370082591
   00049_ARG    00085_ALA  0.04576687860213875
   00049_ARG    00050_LYS  10.754944725754957
   00049_ARG    00052_ASP  1.383352309449606
   00049_ARG    00089_PRO  0.024964997190838712
   00049_ARG    00053_GLN  0.11226665388540065
   00050_LYS    00095_PHE  0.07044954120108535
   00050_LYS    00088_LYS  0.15911664661973082
   00050_LYS    00087_TYR  0.16419070615795617
   00050_LYS    00092_TYR  0.48481501292559775
   00050_LYS    00097_ALA  0.12659652258567317
   00050_LYS    00051_GLY  10.255179599280156
   00050_LYS    00052_ASP  0.3217220330937949
   00050_LYS    00098_NME  0.0519173463489431
   00050_LYS    00089_PRO  0.021608193415409795
   00050_LYS    00093_SER  0.13009144332301162
   00050_LYS    00096_GLU  1.5992650202277932
   00051_GLY    00095_PHE  0.0019501454023998334
   00051_GLY    00088_LYS  0.15286043911312996
   00051_GLY    00092_TYR  0.041171992341029494
   00051_GLY    00090_GLU  0.044829878449381945
   00051_GLY    00053_GLN  0.018100982459511316
   00051_GLY    00087_TYR  0.022811104416046904
   00051_GLY    00089_PRO  0.0060874578276343206
   00051_GLY    00086_GLN  0.012973386593535894
   00051_GLY    00052_ASP  9.627852242273187
   00051_GLY    00091_GLU  0.03256108476187229
   00051_GLY    00093_SER  0.0021216759810676715
   00051_GLY    00096_GLU  0.06205156513231895
   00052_ASP    00084_ILE  0.049119870402551336
   00052_ASP    00054_ILE  0.0967801091362176
   00052_ASP    00088_LYS  0.2936889565080322
   00052_ASP    00087_TYR  0.4189180644995449
   00052_ASP    00092_TYR  0.12515823163602327
   00052_ASP    00086_GLN  0.28593878881436247
   00052_ASP    00085_ALA  0.115470037645312
   00052_ASP    00083_ILE  0.04597330891088009
   00052_ASP    00055_LEU  0.06531292251552204
   00052_ASP    00089_PRO  0.019820324032994333
   00052_ASP    00053_GLN  13.215811680885203
   00053_GLN    00084_ILE  0.011486723423256597
   00053_GLN    00054_ILE  11.378664601107262
   00053_GLN    00064_ASN  0.015213029691718987
   00053_GLN    00092_TYR  0.00528166488942106
   00053_GLN    00085_ALA  0.08757676557717542
   00053_GLN    00095_PHE  0.0021019688554396797
   00053_GLN    00055_LEU  0.133678409733989
   00053_GLN    00088_LYS  1.1463030246016745
   00053_GLN    00065_ALA  0.0067419407355103446
   00053_GLN    00091_GLU  0.1742542062042626
   00053_GLN    00062_LEU  0.021459148788247225
   00053_GLN    00056_SER  0.010101770865406109
   00053_GLN    00087_TYR  0.00992845973234682
   00053_GLN    00063_ARG  0.308480848941785
   00053_GLN    00094_ARG  0.13346849172105416
   00053_GLN    00086_GLN  0.13246353637618358
   00053_GLN    00083_ILE  0.003048633315989501
   00053_GLN    00089_PRO  0.0014454074004980548
   00054_ILE    00084_ILE  0.019404272888321434
   00054_ILE    00064_ASN  0.001982671721119941
   00054_ILE    00081_VAL  0.0003622584509119967
   00054_ILE    00071_ALA  0.0007329338301262112
   00054_ILE    00057_VAL  0.006482884044865266
   00054_ILE    00067_HID  0.0025871027400100415
   00054_ILE    00085_ALA  0.0068009122346335505
   00054_ILE    00073_ALA  0.0006778022523228794
   00054_ILE    00083_ILE  0.024483083701777257
   00054_ILE    00055_LEU  13.768151174486798
   00054_ILE    00088_LYS  0.07492105885808693
   00054_ILE    00074_LEU  0.0007786373839228647
   00054_ILE    00082_THR  0.0008105795001647882
   00054_ILE    00062_LEU  0.03958563660979323
   00054_ILE    00056_SER  0.017132451243483768
   00054_ILE    00065_ALA  0.002584252592467539
   00054_ILE    00060_VAL  0.0017930191173469376
   00054_ILE    00063_ARG  0.06900168946316583
   00054_ILE    00086_GLN  0.0068263506961037685
   00054_ILE    00070_ALA  0.003647035698629375
   00054_ILE    00061_ASP  0.05749796017304185
   00055_LEU    00084_ILE  0.12978306235704962
   00055_LEU    00064_ASN  0.0033823170939099962
   00055_LEU    00088_LYS  0.13374813708785632
   00055_LEU    00057_VAL  0.007008698923130131
   00055_LEU    00085_ALA  0.02645777512082798
   00055_LEU    00083_ILE  0.0036155594895793436
   00055_LEU    00059_GLY  0.0022365403835580915
   00055_LEU    00065_ALA  0.0018385489530783933
   00055_LEU    00062_LEU  0.13763958202900145
   00055_LEU    00056_SER  15.291068424896078
   00055_LEU    00087_TYR  0.0015639322604066844
   00055_LEU    00060_VAL  0.007413425118761788
   00055_LEU    00063_ARG  0.2066445507475838
   00055_LEU    00086_GLN  0.09170726799974915
   00055_LEU    00061_ASP  0.1376052876132977
   00056_SER    00084_ILE  0.2039549629151126
   00056_SER    00059_GLY  0.0770382662958203
   00056_SER    00081_VAL  0.002139545325954813
   00056_SER    00057_VAL  12.71977763997662
   00056_SER    00085_ALA  0.005523151844296528
   00056_SER    00073_ALA  0.003046274250827928
   00056_SER    00083_ILE  0.010977770169468885
   00056_SER    00074_LEU  0.0032161731871640756
   00056_SER    00082_THR  0.015589525149341064
   00056_SER    00058_ASN  0.020472177195542583
   00056_SER    00062_LEU  0.03778330859846813
   00056_SER    00060_VAL  0.25862690576720104
   00056_SER    00063_ARG  0.16861614007765113
   00056_SER    00086_GLN  0.002356625517453869
   00056_SER    00070_ALA  0.0027432059612370586
   00056_SER    00061_ASP  0.21683864349164353
   00057_VAL    00084_ILE  0.007912318070702619
   00057_VAL    00059_GLY  0.11382326396262195
   00057_VAL    00081_VAL  0.053816220904543306
   00057_VAL    00061_ASP  0.07979831494106557
   00057_VAL    00085_ALA  0.001066941918235514
   00057_VAL    00073_ALA  0.02737577289302082
   00057_VAL    00083_ILE  0.04088247319529083
   00057_VAL    00069_GLN  0.002678946362619741
   00057_VAL    00071_ALA  0.0009656816411625619
   00057_VAL    00080_THR  0.001755563154829443
   00057_VAL    00074_LEU  0.0964630773090459
   00057_VAL    00082_THR  0.06482744312678847
   00057_VAL    00058_ASN  13.2407898746295
   00057_VAL    00062_LEU  0.07270077515656893
   00057_VAL    00065_ALA  0.0007416550450986702
   00057_VAL    00060_VAL  0.1999797594324543
   00057_VAL    00063_ARG  0.05767652470430911
   00057_VAL    00076_ASN  0.003454411959849219
   00057_VAL    00078_GLY  0.0010614388496348985
   00057_VAL    00077_ALA  0.0016664993416156896
   00057_VAL    00072_ILE  0.0026021882404445367
   00057_VAL    00075_LYS  0.03725702623122906
   00057_VAL    00070_ALA  0.004698528329936546
   00058_ASN    00084_ILE  0.0010617038511915933
   00058_ASN    00075_LYS  0.1617410261260299
   00058_ASN    00081_VAL  0.1419693563032779
   00058_ASN    00073_ALA  0.023152698133537805
   00058_ASN    00083_ILE  0.01416249754623985
   00058_ASN    00059_GLY  17.897270220277377
   00058_ASN    00080_THR  0.040944219845274514
   00058_ASN    00074_LEU  0.00794767976082109
   00058_ASN    00082_THR  0.24300426279932794
   00058_ASN    00077_ALA  0.02550082684849752
   00058_ASN    00060_VAL  0.03894178256181614
   00058_ASN    00076_ASN  0.03857462602990956
   00058_ASN    00079_GLN  0.009251119622935336
   00058_ASN    00078_GLY  0.03169553058110468
   00058_ASN    00062_LEU  0.000845503820969943
   00058_ASN    00072_ILE  0.004375685949013978
   00058_ASN    00070_ALA  0.0020411377465494695
   00059_GLY    00084_ILE  0.0010632764382683933
   00059_GLY    00060_VAL  9.807956644688703
   00059_GLY    00081_VAL  0.0007509332367187571
   00059_GLY    00076_ASN  0.0013376784675088725
   00059_GLY    00073_ALA  0.0011269550829211086
   00059_GLY    00083_ILE  0.0018234597636803752
   00059_GLY    00062_LEU  0.0022952469728645887
   00059_GLY    00061_ASP  0.07090891450895126
   00059_GLY    00082_THR  0.0076538303136901705
   00059_GLY    00077_ALA  0.0003079230995212001
   00059_GLY    00063_ARG  0.036782395436700165
   00060_VAL    00084_ILE  0.0016973511059069077
   00060_VAL    00072_ILE  0.0015654309107803414
   00060_VAL    00073_ALA  0.02986777924598777
   00060_VAL    00083_ILE  0.001377360023857193
   00060_VAL    00069_GLN  0.00438666568351506
   00060_VAL    00065_ALA  0.0017404924350396965
   00060_VAL    00082_THR  0.0033107245994340086
   00060_VAL    00062_LEU  0.07064343174924805
   00060_VAL    00074_LEU  0.0016617062517212944
   00060_VAL    00063_ARG  0.09534704350333206
   00060_VAL    00076_ASN  0.0031227469617788376
   00060_VAL    00077_ALA  0.0007394059543097066
   00060_VAL    00061_ASP  11.88335470162961
   00060_VAL    00070_ALA  0.0019626279663100287
   00061_ASP    00084_ILE  0.052649347330439196
   00061_ASP    00064_ASN  0.40301049509089193
   00061_ASP    00063_ARG  3.35674899906226
   00061_ASP    00073_ALA  0.0374202315862479
   00061_ASP    00070_ALA  0.043601359730883436
   00061_ASP    00069_GLN  0.22270914078156961
   00061_ASP    00065_ALA  0.09352857155319227
   00061_ASP    00062_LEU  9.283568501130471
   00062_LEU    00084_ILE  0.0020200475222429525
   00062_LEU    00064_ASN  0.03547107009560688
   00062_LEU    00066_SER  0.00652609805004437
   00062_LEU    00067_HID  0.003097625811544402
   00062_LEU    00073_ALA  0.002978671154843023
   00062_LEU    00083_ILE  0.0008560108866453324
   00062_LEU    00069_GLN  0.013062256823087239
   00062_LEU    00071_ALA  0.0012162066817101472
   00062_LEU    00065_ALA  0.07422786237714735
   00062_LEU    00074_LEU  0.0010289994918408897
   00062_LEU    00063_ARG  11.614811000271633
   00062_LEU    00070_ALA  0.09659609754215308
   00062_LEU    00072_ILE  0.0011394391197929183
   00062_LEU    00068_GLU  0.04781363142056679
   00063_ARG    00084_ILE  0.058570924811530305
   00063_ARG    00065_ALA  0.10746217034670501
   00063_ARG    00088_LYS  0.619138338918082
   00063_ARG    00064_ASN  10.234137080388114
   00063_ARG    00086_GLN  0.13638455275235206
   00063_ARG    00091_GLU  0.2024123704310873
   00064_ASN    00069_GLN  0.010014629668011995
   00064_ASN    00066_SER  0.0099009397453934
   00064_ASN    00065_ALA  9.042102749463497
   00065_ALA    00071_ALA  0.0009825420272586533
   00065_ALA    00066_SER  10.789351190040502
   00065_ALA    00067_HID  0.01726530514853053
   00065_ALA    00073_ALA  0.000680760112284933
   00065_ALA    00070_ALA  0.005639269868723492
   00065_ALA    00069_GLN  0.15699337043162648
   00065_ALA    00068_GLU  0.03627965123381872
   00066_SER    00071_ALA  0.0045372491569583145
   00066_SER    00067_HID  10.44162895128524
   00066_SER    00070_ALA  0.031196169591131886
   00066_SER    00069_GLN  0.25577160925001696
   00066_SER    00072_ILE  0.003475495707858766
   00066_SER    00068_GLU  0.3700670117463423
   00067_HID    00095_PHE  0.0023874801259939436
   00067_HID    00071_ALA  0.05972375833083215
   00067_HID    00073_ALA  0.00215837066354285
   00067_HID    00070_ALA  0.11018740544290381
   00067_HID    00069_GLN  0.04044641678994539
   00067_HID    00072_ILE  0.0061607980036978
   00067_HID    00074_LEU  0.0024016143655166636
   00067_HID    00068_GLU  16.72443892551613
   00068_GLU    00071_ALA  0.13734400889552864
   00068_GLU    00073_ALA  0.06088237476294972
   00068_GLU    00070_ALA  0.08898631604788959
   00068_GLU    00069_GLN  15.692512739964329
   00068_GLU    00072_ILE  0.21327038195956685
   00068_GLU    00075_LYS  0.12237837959721796
   00068_GLU    00074_LEU  0.07072037757897552
   00069_GLN    00075_LYS  0.10052395589292772
   00069_GLN    00076_ASN  0.007114473628712963
   00069_GLN    00073_ALA  0.03940490223251212
   00069_GLN    00070_ALA  15.364314880775288
   00069_GLN    00072_ILE  0.09397544592866017
   00069_GLN    00071_ALA  0.022147539175215846
   00069_GLN    00074_LEU  0.0051813464955746385
   00070_ALA    00075_LYS  0.05118314186588362
   00070_ALA    00076_ASN  0.004500641487645537
   00070_ALA    00073_ALA  0.10159752335058789
   00070_ALA    00083_ILE  0.000678011482052273
   00070_ALA    00072_ILE  0.02776421361894314
   00070_ALA    00071_ALA  10.5611761704988
   00070_ALA    00074_LEU  0.1250907140960064
   00071_ALA    00075_LYS  0.17302959274759483
   00071_ALA    00076_ASN  0.011235629538539555
   00071_ALA    00073_ALA  0.023709434499519105
   00071_ALA    00072_ILE  10.083012052500367
   00071_ALA    00074_LEU  0.043425447921915966
   00071_ALA    00077_ALA  0.0015036484098531842
   00072_ILE    00075_LYS  0.1411169103349333
   00072_ILE    00076_ASN  0.16370459179177155
   00072_ILE    00073_ALA  7.793925595465512
   00072_ILE    00074_LEU  0.029157293988662434
   00072_ILE    00077_ALA  0.0040060475558423205
   00073_ALA    00075_LYS  0.11308969277021842
   00073_ALA    00081_VAL  0.002807345854100974
   00073_ALA    00076_ASN  0.06411597561174787
   00073_ALA    00078_GLY  0.0017635802260815596
   00073_ALA    00074_LEU  13.727859932941744
   00073_ALA    00077_ALA  0.020684449633455965
   00074_LEU    00084_ILE  0.0005887447822761898
   00074_LEU    00075_LYS  14.386729507455303
   00074_LEU    00081_VAL  0.04026354360759213
   00074_LEU    00076_ASN  0.03062790361370763
   00074_LEU    00079_GLN  0.003350641568768238
   00074_LEU    00078_GLY  0.0036004001086295903
   00074_LEU    00083_ILE  0.004739099412362536
   00074_LEU    00082_THR  0.0026104594222806647
   00074_LEU    00080_THR  0.0031840385652554325
   00074_LEU    00077_ALA  0.07373339242051245
   00075_LYS    00078_GLY  0.03932606183556477
   00075_LYS    00081_VAL  0.03593436961110976
   00075_LYS    00076_ASN  14.744123733371065
   00075_LYS    00077_ALA  0.1419094813810775
   00076_ASN    00078_GLY  0.013629201974718433
   00076_ASN    00081_VAL  0.002315577542890433
   00076_ASN    00080_THR  0.003565913402948773
   00076_ASN    00077_ALA  12.135027374012353
   00077_ALA    00083_ILE  0.0005971306720286546
   00077_ALA    00081_VAL  0.05243960428597984
   00077_ALA    00079_GLN  0.01537985982614842
   00077_ALA    00078_GLY  15.549677969665412
   00077_ALA    00080_THR  0.011570509938010886
   00077_ALA    00082_THR  0.001760395604136633
   00078_GLY    00081_VAL  0.009446953638965363
   00078_GLY    00080_THR  0.10113467776675052
   00078_GLY    00082_THR  0.0035989085634996133
   00078_GLY    00079_GLN  12.708537363940863
   00079_GLN    00081_VAL  0.013356621215306948
   00079_GLN    00080_THR  17.97320082226916
   00080_THR    00081_VAL  17.057416629614796
   00080_THR    00083_ILE  0.0022279199669991935
   00080_THR    00082_THR  0.02926895646614327
   00081_VAL    00084_ILE  0.001654729985096916
   00081_VAL    00083_ILE  0.04167477988748413
   00081_VAL    00082_THR  13.074325981944638
   00082_THR    00084_ILE  0.012986151836117813
   00082_THR    00083_ILE  10.055912909500037
   00083_ILE    00084_ILE  11.685042711187595
   00083_ILE    00086_GLN  0.0023994501073532687
   00083_ILE    00085_ALA  0.019397001264957674
   00084_ILE    00086_GLN  0.010851337819805552
   00084_ILE    00085_ALA  10.895996323496396
   00085_ALA    00086_GLN  14.225857047126304
   00085_ALA    00088_LYS  0.05822197729609516
   00085_ALA    00087_TYR  0.009477985775448942
   00086_GLN    00088_LYS  0.7609001560033307
   00086_GLN    00087_TYR  9.73843023234629
   00086_GLN    00091_GLU  0.17675861168247367
   00086_GLN    00089_PRO  0.002365554183875073
   00087_TYR    00088_LYS  12.687809050768179
   00087_TYR    00092_TYR  0.0058057400350276294
   00087_TYR    00089_PRO  0.07956076861061859
   00087_TYR    00090_GLU  0.12468914374953954
   00087_TYR    00091_GLU  0.07189605149008368
   00088_LYS    00095_PHE  0.03320445899210355
   00088_LYS    00092_TYR  0.09081703798708596
   00088_LYS    00091_GLU  0.46507512717546623
   00088_LYS    00094_ARG  0.42189522461680307
   00088_LYS    00090_GLU  0.29860222332337644
   00088_LYS    00089_PRO  5.989302618626892
   00088_LYS    00093_SER  0.0619439345552186
   00089_PRO    00095_PHE  0.0010175081195852404
   00089_PRO    00092_TYR  0.049168603112996916
   00089_PRO    00094_ARG  0.029559527956820535
   00089_PRO    00090_GLU  12.393165608247385
   00089_PRO    00091_GLU  0.05524797519534935
   00089_PRO    00093_SER  0.08558956466437426
   00089_PRO    00096_GLU  0.019291591997071998
   00090_GLU    00095_PHE  0.06054414638200466
   00090_GLU    00092_TYR  0.1733161742413682
   00090_GLU    00094_ARG  0.8971918193404366
   00090_GLU    00091_GLU  14.719083124959514
   00090_GLU    00093_SER  0.8935246110729711
   00091_GLU    00095_PHE  0.09217304623022667
   00091_GLU    00092_TYR  9.426391816410435
   00091_GLU    00094_ARG  1.7534702150304997
   00091_GLU    00093_SER  0.20858556006012746
   00091_GLU    00096_GLU  0.11810246924155528
   00092_TYR    00095_PHE  0.2486657456794439
   00092_TYR    00094_ARG  0.3831617883491685
   00092_TYR    00098_NME  0.001311310328671383
   00092_TYR    00097_ALA  0.015093883735408901
   00092_TYR    00093_SER  10.837770044759042
   00092_TYR    00096_GLU  2.2417191898327404
   00093_SER    00095_PHE  0.05207265237366402
   00093_SER    00094_ARG  12.929612821515185
   00093_SER    00098_NME  0.0004959375959545369
   00093_SER    00097_ALA  0.0023141274472254707
   00093_SER    00096_GLU  0.24892419073030705
   00094_ARG    00095_PHE  6.05340397341057
   00094_ARG    00098_NME  0.01389097150834573
   00094_ARG    00097_ALA  0.029822471447623223
   00094_ARG    00096_GLU  0.43514187419464556
   00095_PHE    00098_NME  0.0009080939782572998
   00095_PHE    00097_ALA  0.012669726734549875
   00095_PHE    00096_GLU  13.416517500687787
   00096_GLU    00097_ALA  14.14518983976854
   00096_GLU    00098_NME  0.0610640741318551
   00097_ALA    00098_NME  21.6421834302288
