,res_a,res_b,hbond_count,ct_tag
0,1_ACE,87_TYR,10,1
1,4_ARG,88_LYS,2,39
2,4_ARG,87_TYR,99,40
3,4_ARG,86_GLN,89,42
4,6_PRO,86_GLN,1,61
5,7_ARG,85_ALA,100,75
6,7_ARG,47_GLU,1,84
7,7_ARG,52_ASP,100,85
8,7_ARG,49_ARG,1,86
9,8_ARG,82_THR,3,94
10,9_ILE,83_ILE,100,109
11,10_VAL,47_GLU,6,136
12,11_ILE,81_VAL,100,155
13,12_HIE,80_THR,1,172
14,12_HIE,79_GLN,27,178
15,13_ARG,75_LYS,3,183
16,13_ARG,74_LEU,6,193
17,13_ARG,77_ALA,1,195
18,13_ARG,79_GLN,3,200
19,13_ARG,78_GLY,51,202
20,14_GLY,79_GLN,22,208
21,15_SER,79_GLN,1,219
22,16_THR,75_LYS,1,222
23,16_THR,39_GLY,5,223
24,16_THR,79_GLN,1,230
25,18_LEU,42_ALA,100,263
26,19_GLY,37_LEU,100,276
27,21_ASN,34_SER,5,323
28,21_ASN,35_PHE,4,336
29,23_VAL,32_PHE,100,379
30,24_GLY,67_HID,30,394
31,24_GLY,66_SER,7,405
32,25_GLY,30_GLY,9,408
33,25_GLY,67_HID,3,411
34,26_GLU,66_SER,1,427
35,26_GLU,67_HID,16,429
36,26_GLU,69_GLN,1,432
37,27_ASP,64_ASN,4,437
38,27_ASP,94_ARG,3,441
39,27_ASP,65_ALA,4,445
40,28_GLY,64_ASN,1,446
41,29_GLU,53_GLN,13,466
42,29_GLU,94_ARG,11,469
43,30_GLY,64_ASN,6,475
44,30_GLY,65_ALA,2,481
45,30_GLY,53_GLN,1,482
46,31_ILE,54_ILE,100,494
47,31_ILE,53_GLN,13,498
48,33_ILE,92_TYR,4,545
49,33_ILE,51_GLY,100,546
50,33_ILE,52_ASP,100,560
51,34_SER,95_PHE,3,564
52,34_SER,92_TYR,16,565
53,34_SER,96_GLU,1,569
54,34_SER,50_LYS,1,572
55,42_ALA,48_LEU,8,631
56,42_ALA,47_GLU,81,635
57,49_ARG,87_TYR,1,672
58,50_LYS,87_TYR,2,682
59,50_LYS,92_TYR,32,683
60,50_LYS,96_GLU,41,689
61,51_GLY,88_LYS,100,691
62,53_GLN,88_LYS,82,717
63,53_GLN,91_GLU,1,719
64,53_GLN,63_ARG,8,723
65,53_GLN,86_GLN,1,725
66,55_LEU,84_ILE,100,748
67,55_LEU,62_LEU,100,756
68,55_LEU,63_ARG,30,759
69,56_SER,84_ILE,100,762
70,56_SER,63_ARG,2,773
71,56_SER,61_ASP,1,776
72,58_ASN,73_ALA,4,802
73,58_ASN,80_THR,9,804
74,58_ASN,82_THR,1,806
75,58_ASN,77_ALA,2,807
76,58_ASN,76_ASN,3,809
77,58_ASN,78_GLY,8,811
78,59_GLY,82_THR,5,822
79,92_TYR,97_ALA,1,979
80,93_SER,98_NME,1,982
