   00001_ACE    00046_GLY  8.099637143652276e-07
   00001_ACE    00002_ILE  1.811470111656653
   00001_ACE    00087_TYR  0.004042615980570425
   00001_ACE    00049_ARG  0.0003682167620445452
   00001_ACE    00004_ARG  0.00036674340287615474
   00001_ACE    00007_ARG  0.00011631822507242114
   00001_ACE    00003_PRO  0.0021510293236259395
   00001_ACE    00089_PRO  0.009930937061586277
   00001_ACE    00047_GLU  4.589938604779207e-05
   00002_ILE    00046_GLY  1.7709718607668683e-06
   00002_ILE    00048_LEU  2.831768073292217e-06
   00002_ILE    00088_LYS  0.00044626468932096027
   00002_ILE    00051_GLY  6.348591130641276e-06
   00002_ILE    00085_ALA  2.472146349128367e-06
   00002_ILE    00036_ILE  3.088520928905494e-07
   00002_ILE    00004_ARG  0.003190542085704998
   00002_ILE    00007_ARG  0.0004003836346442467
   00002_ILE    00009_ILE  3.5592917744196413e-07
   00002_ILE    00005_GLU  0.0009538798155706546
   00002_ILE    00047_GLU  0.0001152912601760722
   00002_ILE    00045_SER  8.253154565754114e-07
   00002_ILE    00087_TYR  0.0027931990545760265
   00002_ILE    00086_GLN  4.4534387920919234e-05
   00002_ILE    00050_LYS  0.00011887269215444706
   00002_ILE    00052_ASP  0.0005231405556800504
   00002_ILE    00006_PRO  2.380610950367628e-06
   00002_ILE    00003_PRO  1.3544416317757706
   00002_ILE    00089_PRO  0.0002162961944475554
   00002_ILE    00049_ARG  0.0008854166106285265
   00003_PRO    00088_LYS  0.0010984147603102534
   00003_PRO    00087_TYR  0.0017434078223579278
   00003_PRO    00086_GLN  0.00038186241228279266
   00003_PRO    00085_ALA  4.846528685867781e-06
   00003_PRO    00047_GLU  4.922040713017969e-05
   00003_PRO    00004_ARG  2.0206296265921417
   00003_PRO    00052_ASP  0.00029755078657033675
   00003_PRO    00007_ARG  0.000293333251930687
   00003_PRO    00006_PRO  7.236450099628481e-06
   00003_PRO    00008_ARG  1.4691260754431257e-05
   00003_PRO    00009_ILE  3.1992367173951916e-07
   00003_PRO    00005_GLU  0.0019460768541358663
   00003_PRO    00049_ARG  0.0003359632853281198
   00004_ARG    00088_LYS  0.0025651969659506732
   00004_ARG    00087_TYR  0.046075398123326027
   00004_ARG    00089_PRO  0.00011952133330471974
   00004_ARG    00086_GLN  0.021627876930585727
   00004_ARG    00090_GLU  0.0013208664297510372
   00004_ARG    00085_ALA  0.00039832916270051154
   00004_ARG    00007_ARG  0.014137710295374344
   00004_ARG    00006_PRO  0.001923619161372419
   00004_ARG    00055_LEU  0.0001378043079349635
   00004_ARG    00005_GLU  2.033074799069676
   00004_ARG    00091_GLU  0.0004768423841479065
   00005_GLU    00084_ILE  0.0002679624961427136
   00005_GLU    00088_LYS  0.0016516320305663469
   00005_GLU    00087_TYR  0.004923580107561582
   00005_GLU    00086_GLN  0.009540109294448594
   00005_GLU    00085_ALA  0.0011232353077481195
   00005_GLU    00007_ARG  0.01920450557055188
   00005_GLU    00006_PRO  1.2977091927589866
   00005_GLU    00055_LEU  0.00028556835464948934
   00005_GLU    00008_ARG  0.0019380560154136977
   00006_PRO    00084_ILE  0.00016653207584076728
   00006_PRO    00088_LYS  0.0002082058051735043
   00006_PRO    00087_TYR  7.9192944384667e-05
   00006_PRO    00063_ARG  0.0001503807395474722
   00006_PRO    00086_GLN  0.013988826594122702
   00006_PRO    00085_ALA  0.005607510712705145
   00006_PRO    00052_ASP  0.0003354243807575306
   00006_PRO    00007_ARG  1.991481439284302
   00006_PRO    00055_LEU  0.0008819282430462879
   00006_PRO    00009_ILE  1.6698773403719233e-05
   00006_PRO    00008_ARG  0.000455456198592762
   00006_PRO    00053_GLN  5.0271930065371425e-05
   00007_ARG    00084_ILE  0.0011432863939766194
   00007_ARG    00046_GLY  0.0010376015758409723
   00007_ARG    00048_LEU  0.013370266572038004
   00007_ARG    00054_ILE  0.0006171193197266107
   00007_ARG    00088_LYS  0.004024076576928052
   00007_ARG    00033_ILE  0.0006479432268963069
   00007_ARG    00051_GLY  0.0008828370881634995
   00007_ARG    00085_ALA  0.06471075309589784
   00007_ARG    00036_ILE  0.0001759654857108988
   00007_ARG    00083_ILE  0.0010137593540304884
   00007_ARG    00055_LEU  0.0008581489924981446
   00007_ARG    00009_ILE  0.006322792116112682
   00007_ARG    00082_THR  0.00036880385613461244
   00007_ARG    00053_GLN  0.002721776612068282
   00007_ARG    00087_TYR  0.011450592216180106
   00007_ARG    00086_GLN  0.01765582409136206
   00007_ARG    00047_GLU  0.12506718772201883
   00007_ARG    00052_ASP  0.6169015162142844
   00007_ARG    00008_ARG  1.8290920415028542
   00007_ARG    00049_ARG  0.28463278594991875
   00008_ARG    00084_ILE  0.01006946664473969
   00008_ARG    00048_LEU  0.00023986238458368865
   00008_ARG    00059_GLY  0.0011990933233125345
   00008_ARG    00081_VAL  0.000678700114412246
   00008_ARG    00085_ALA  0.0011788881516400234
   00008_ARG    00083_ILE  0.008098287659064736
   00008_ARG    00009_ILE  1.7937833722655514
   00008_ARG    00080_THR  0.0005306948580544837
   00008_ARG    00082_THR  0.009975492276528171
   00008_ARG    00047_GLU  0.004398328118684148
   00008_ARG    00010_VAL  0.00455444800850805
   00008_ARG    00056_SER  0.002046687867938611
   00008_ARG    00063_ARG  0.003128799440176514
   00008_ARG    00058_ASN  0.004448536100345105
   00009_ILE    00084_ILE  0.0003313329607102051
   00009_ILE    00046_GLY  9.160952778809422e-06
   00009_ILE    00048_LEU  0.010088079559547441
   00009_ILE    00054_ILE  8.919621100849719e-06
   00009_ILE    00056_SER  5.1657541266290716e-05
   00009_ILE    00081_VAL  0.0016220309931510386
   00009_ILE    00033_ILE  1.7201977163715748e-06
   00009_ILE    00085_ALA  0.0060836823843416375
   00009_ILE    00057_VAL  3.16796126515921e-05
   00009_ILE    00083_ILE  0.12224850304985165
   00009_ILE    00055_LEU  1.2912479002820389e-05
   00009_ILE    00018_LEU  8.842473580736981e-06
   00009_ILE    00042_ALA  1.2450689942870113e-05
   00009_ILE    00082_THR  0.004140627698022698
   00009_ILE    00047_GLU  0.012691584323180054
   00009_ILE    00011_ILE  0.0032315239761558927
   00009_ILE    00045_SER  6.345042868135276e-05
   00009_ILE    00087_TYR  2.4801054053782326e-06
   00009_ILE    00012_HIE  2.789031437387194e-05
   00009_ILE    00086_GLN  5.939081712313025e-06
   00009_ILE    00052_ASP  0.000613688508045321
   00009_ILE    00010_VAL  1.7611135656064867
   00009_ILE    00041_PRO  9.578475364756961e-06
   00009_ILE    00020_PHE  4.714802274248653e-06
   00009_ILE    00049_ARG  0.0003850215675896117
   00010_VAL    00084_ILE  8.482862869322049e-06
   00010_VAL    00048_LEU  7.097387960322062e-06
   00010_VAL    00081_VAL  0.006524518989872025
   00010_VAL    00083_ILE  0.00025234968850145845
   00010_VAL    00080_THR  0.010165290046334324
   00010_VAL    00018_LEU  1.4781779551711431e-05
   00010_VAL    00042_ALA  8.911538831833127e-06
   00010_VAL    00082_THR  0.0073872542395858965
   00010_VAL    00058_ASN  9.167880606595031e-05
   00010_VAL    00011_ILE  1.7254139681610312
   00010_VAL    00045_SER  7.912968926371488e-05
   00010_VAL    00012_HIE  0.0002511490697101272
   00010_VAL    00079_GLN  3.579058541033051e-05
   00010_VAL    00047_GLU  0.002550370700469087
   00010_VAL    00041_PRO  2.7157916568951997e-05
   00011_ILE    00046_GLY  7.539532644823496e-06
   00011_ILE    00043_ASP  0.00017246884575655597
   00011_ILE    00033_ILE  6.604432640569339e-07
   00011_ILE    00013_ARG  0.00177894186188655
   00011_ILE    00085_ALA  -5.853442026100907e-07
   00011_ILE    00036_ILE  1.4981061970104279e-06
   00011_ILE    00082_THR  0.00016030082350392466
   00011_ILE    00042_ALA  0.00022713815745260935
   00011_ILE    00017_GLY  9.388395609215196e-06
   00011_ILE    00045_SER  0.00539755276664754
   00011_ILE    00044_LEU  2.44107958050458e-05
   00011_ILE    00012_HIE  1.8906181873727848
   00011_ILE    00047_GLU  0.0006926188479000942
   00011_ILE    00014_GLY  5.280587752461377e-05
   00011_ILE    00019_GLY  3.111258021018659e-06
   00011_ILE    00048_LEU  1.7952470397834437e-05
   00011_ILE    00054_ILE  1.542322682972246e-06
   00011_ILE    00016_THR  2.655317288135946e-06
   00011_ILE    00081_VAL  0.0239329897929506
   00011_ILE    00040_GLY  7.556158106440599e-06
   00011_ILE    00057_VAL  1.4459424374843645e-05
   00011_ILE    00083_ILE  0.002053643240306711
   00011_ILE    00018_LEU  -0.0028588230289909697
   00011_ILE    00080_THR  0.003586510775732216
   00011_ILE    00074_LEU  1.0321179709043621e-05
   00011_ILE    00058_ASN  9.079015595954853e-05
   00011_ILE    00077_ALA  1.75072433478497e-05
   00011_ILE    00079_GLN  0.0006758803047742026
   00011_ILE    00078_GLY  5.2833473354872566e-05
   00011_ILE    00041_PRO  0.002439574951825986
   00011_ILE    00020_PHE  1.0017408647831656e-05
   00012_HIE    00016_THR  8.025913380356144e-05
   00012_HIE    00081_VAL  0.00023702058650808781
   00012_HIE    00013_ARG  1.7299551295760691
   00012_HIE    00042_ALA  7.764087259948718e-05
   00012_HIE    00018_LEU  0.0009777744430788187
   00012_HIE    00080_THR  0.002574775737228482
   00012_HIE    00047_GLU  0.000436908973846702
   00012_HIE    00015_SER  0.00037874636684064874
   00012_HIE    00017_GLY  0.00020190897759683412
   00012_HIE    00045_SER  0.00025138925608576254
   00012_HIE    00044_LEU  5.2927509366135354e-05
   00012_HIE    00079_GLN  0.0068154207688452245
   00012_HIE    00078_GLY  6.09948706140581e-05
   00012_HIE    00014_GLY  0.006767398752806486
   00012_HIE    00041_PRO  0.0003133278530792282
   00013_ARG    00019_GLY  0.00040604332836143025
   00013_ARG    00075_LYS  0.013294235118039285
   00013_ARG    00016_THR  0.0033457482725904606
   00013_ARG    00081_VAL  0.0049167093842140755
   00013_ARG    00040_GLY  0.00011627152545857175
   00013_ARG    00057_VAL  0.000752313755326802
   00013_ARG    00073_ALA  0.0016568876431361918
   00013_ARG    00083_ILE  0.0003102885814533166
   00013_ARG    00018_LEU  0.014506978657454749
   00013_ARG    00071_ALA  0.001143848029977894
   00013_ARG    00080_THR  0.005183212748735098
   00013_ARG    00074_LEU  0.10811815448227823
   00013_ARG    00042_ALA  0.00015221434924896868
   00013_ARG    00077_ALA  0.06948170959918606
   00013_ARG    00015_SER  0.0012943445683138754
   00013_ARG    00017_GLY  0.011415658473054193
   00013_ARG    00044_LEU  0.00012733600831860647
   00013_ARG    00076_ASN  0.0049385060229925615
   00013_ARG    00079_GLN  0.048027177250732425
   00013_ARG    00058_ASN  0.004000446321046479
   00013_ARG    00078_GLY  0.07295611987485341
   00013_ARG    00014_GLY  2.1859002290174887
   00013_ARG    00041_PRO  0.0007478884527700103
   00013_ARG    00020_PHE  0.0006169327417828172
   00014_GLY    00015_SER  1.5854506286219379
   00014_GLY    00017_GLY  0.0007714509759709449
   00014_GLY    00016_THR  0.0019527813206447933
   00014_GLY    00081_VAL  1.62880471244641e-05
   00014_GLY    00079_GLN  0.003321995550487261
   00014_GLY    00078_GLY  2.9046965170476964e-05
   00014_GLY    00041_PRO  0.00047729030631334703
   00014_GLY    00018_LEU  6.29968159881667e-05
   00014_GLY    00080_THR  3.283697884903153e-05
   00014_GLY    00074_LEU  7.898469152385465e-06
   00014_GLY    00077_ALA  6.308736273540515e-06
   00015_SER    00017_GLY  0.001041143368096057
   00015_SER    00078_GLY  7.856560115924647e-06
   00015_SER    00075_LYS  0.00018588164443541762
   00015_SER    00016_THR  1.8601363619938887
   00015_SER    00074_LEU  3.4661666136737985e-06
   00015_SER    00079_GLN  0.0004326917296867608
   00015_SER    00077_ALA  3.4271575655139886e-06
   00016_THR    00019_GLY  0.00010692582363422229
   00016_THR    00075_LYS  0.00033670820757734595
   00016_THR    00039_GLY  -3.4839794934535206e-06
   00016_THR    00081_VAL  1.8420116285188155e-06
   00016_THR    00040_GLY  3.528041973236871e-05
   00016_THR    00037_LEU  3.349426073865962e-05
   00016_THR    00018_LEU  0.0001085998768234238
   00016_THR    00074_LEU  1.8032520087088914e-05
   00016_THR    00017_GLY  2.068080779669637
   00016_THR    00044_LEU  8.724513181192951e-06
   00016_THR    00079_GLN  7.614426849392334e-05
   00016_THR    00041_PRO  4.3449912291577816e-05
   00017_GLY    00019_GLY  0.008887298623942805
   00017_GLY    00074_LEU  3.067305255927611e-05
   00017_GLY    00075_LYS  0.0001317770978338288
   00017_GLY    00081_VAL  1.684782080877017e-05
   00017_GLY    00040_GLY  0.00022647972867990797
   00017_GLY    00037_LEU  3.1665570859367944e-05
   00017_GLY    00018_LEU  1.6629848624332262
   00017_GLY    00041_PRO  0.005921207958691028
   00017_GLY    00071_ALA  5.003086190019917e-06
   00017_GLY    00042_ALA  6.474021084988705e-05
   00017_GLY    00020_PHE  0.0001281706813171672
   00018_LEU    00033_ILE  7.17903755108556e-06
   00018_LEU    00036_ILE  0.00023266817184319164
   00018_LEU    00037_LEU  9.879212711304027e-05
   00018_LEU    00071_ALA  9.197682685077518e-06
   00018_LEU    00082_THR  8.573209988193745e-06
   00018_LEU    00021_ASN  4.572679452331285e-05
   00018_LEU    00045_SER  0.00017038182773805499
   00018_LEU    00044_LEU  9.163013770404819e-05
   00018_LEU    00022_ILE  8.585823451693875e-06
   00018_LEU    00076_ASN  7.873277306493244e-06
   00018_LEU    00043_ASP  0.0007917787511562233
   00018_LEU    00047_GLU  0.00023720563455768249
   00018_LEU    00070_ALA  9.204159603211195e-06
   00018_LEU    00019_GLY  2.0518455907033646
   00018_LEU    00048_LEU  3.6746482442738005e-05
   00018_LEU    00054_ILE  3.49423171416512e-06
   00018_LEU    00075_LYS  0.00018160206243644753
   00018_LEU    00081_VAL  0.02266984373592788
   00018_LEU    00040_GLY  0.0009750066383207085
   00018_LEU    00057_VAL  9.500213192766862e-06
   00018_LEU    00073_ALA  6.472174305361819e-06
   00018_LEU    00083_ILE  0.003224320703822132
   00018_LEU    00042_ALA  0.014874450959228151
   00018_LEU    00074_LEU  0.003510993678079425
   00018_LEU    00058_ASN  1.835366036685285e-05
   00018_LEU    00077_ALA  1.4192884588338423e-05
   00018_LEU    00080_THR  3.133597823406625e-05
   00018_LEU    00079_GLN  0.00010889474357324733
   00018_LEU    00078_GLY  4.2583778245889555e-05
   00018_LEU    00041_PRO  0.008305994312855095
   00018_LEU    00020_PHE  0.006487237246710122
   00019_GLY    00048_LEU  7.822755346326037e-06
   00019_GLY    00039_GLY  2.0929892760155416e-05
   00019_GLY    00033_ILE  1.1623927139629166e-05
   00019_GLY    00036_ILE  0.013599959438917711
   00019_GLY    00037_LEU  0.030518274306787566
   00019_GLY    00042_ALA  0.00012710347032539578
   00019_GLY    00074_LEU  9.291008454766594e-06
   00019_GLY    00021_ASN  0.001015906777393519
   00019_GLY    00038_ALA  7.272471272076349e-05
   00019_GLY    00044_LEU  1.2158181651821265e-05
   00019_GLY    00022_ILE  2.0859078920894635e-05
   00019_GLY    00043_ASP  0.00030973024555463
   00019_GLY    00035_PHE  0.0004895695319614439
   00019_GLY    00041_PRO  0.0002742817703461752
   00019_GLY    00020_PHE  1.963941721822069
   00019_GLY    00040_GLY  0.001069480886815498
   00020_PHE    00033_ILE  0.00802843075842479
   00020_PHE    00023_VAL  1.7287472239303982e-05
   00020_PHE    00085_ALA  2.630847928153557e-06
   00020_PHE    00036_ILE  0.04433564545771004
   00020_PHE    00037_LEU  0.000611143004609669
   00020_PHE    00082_THR  3.4614554100946805e-06
   00020_PHE    00021_ASN  1.6726551605407718
   00020_PHE    00032_PHE  2.6426995999597926e-05
   00020_PHE    00045_SER  1.3465114170947604e-05
   00020_PHE    00022_ILE  0.002447759427302287
   00020_PHE    00043_ASP  0.00045813142370996655
   00020_PHE    00047_GLU  0.00020074590373273828
   00020_PHE    00070_ALA  1.9002019750712823e-05
   00020_PHE    00049_ARG  0.00028405181001395566
   00020_PHE    00048_LEU  0.004429428656275849
   00020_PHE    00054_ILE  1.0531819411425619e-05
   00020_PHE    00071_ALA  1.0617884157434876e-05
   00020_PHE    00081_VAL  7.37539017974014e-06
   00020_PHE    00040_GLY  6.079179885147154e-05
   00020_PHE    00062_LEU  1.4413971754682666e-06
   00020_PHE    00057_VAL  4.060677847882543e-06
   00020_PHE    00067_HID  9.439461327362191e-06
   00020_PHE    00083_ILE  0.0017801381175681112
   00020_PHE    00031_ILE  4.415322780413383e-06
   00020_PHE    00034_SER  0.0001800757599559179
   00020_PHE    00042_ALA  0.004585840574184606
   00020_PHE    00074_LEU  0.004993467460929575
   00020_PHE    00077_ALA  2.36423701729439e-06
   00020_PHE    00050_LYS  0.00031173589681688936
   00020_PHE    00052_ASP  0.000573028849447603
   00020_PHE    00041_PRO  2.928338084023676e-05
   00020_PHE    00035_PHE  0.006948791601277444
   00021_ASN    00048_LEU  2.462721176067505e-05
   00021_ASN    00054_ILE  5.999567850298007e-06
   00021_ASN    00071_ALA  1.4593945150462664e-05
   00021_ASN    00092_TYR  7.325217622919649e-05
   00021_ASN    00033_ILE  0.0007724112071138847
   00021_ASN    00034_SER  0.01949732634826127
   00021_ASN    00023_VAL  0.00072031100302572
   00021_ASN    00067_HID  4.543559558034106e-05
   00021_ASN    00036_ILE  0.0008382335046160376
   00021_ASN    00024_GLY  1.7904834904463687e-05
   00021_ASN    00095_PHE  8.052066707569664e-06
   00021_ASN    00031_ILE  1.952889818896951e-05
   00021_ASN    00098_NME  3.802955329520852e-07
   00021_ASN    00037_LEU  0.0020949466258069482
   00021_ASN    00074_LEU  8.759015112897979e-06
   00021_ASN    00032_PHE  0.0004467820505462419
   00021_ASN    00022_ILE  1.876039237485489
   00021_ASN    00050_LYS  0.001763178070110049
   00021_ASN    00097_ALA  2.405404405756763e-06
   00021_ASN    00035_PHE  0.039651819116716745
   00022_ILE    00092_TYR  2.383015773003724e-05
   00022_ILE    00025_GLY  1.163858301272119e-05
   00022_ILE    00033_ILE  0.013691984150753787
   00022_ILE    00023_VAL  1.8454132209275707
   00022_ILE    00036_ILE  5.974200377205927e-06
   00022_ILE    00024_GLY  0.0002931724015939542
   00022_ILE    00065_ALA  6.11827363647947e-06
   00022_ILE    00053_GLN  3.411036387922449e-05
   00022_ILE    00032_PHE  0.009587679556177507
   00022_ILE    00070_ALA  0.0023136261380881044
   00022_ILE    00072_ILE  3.195927461743048e-06
   00022_ILE    00068_GLU  0.000874383461049414
   00022_ILE    00048_LEU  5.093078017927039e-06
   00022_ILE    00054_ILE  0.007449381639229227
   00022_ILE    00071_ALA  0.0007675268095051677
   00022_ILE    00030_GLY  1.6139465428276956e-05
   00022_ILE    00066_SER  3.1233483916197225e-05
   00022_ILE    00057_VAL  2.407099961688716e-06
   00022_ILE    00067_HID  0.019129201392281355
   00022_ILE    00073_ALA  3.773997305988966e-06
   00022_ILE    00083_ILE  3.1401312818235715e-06
   00022_ILE    00031_ILE  0.006797600959474438
   00022_ILE    00069_GLN  9.139255289282528e-06
   00022_ILE    00034_SER  0.00068299979661854
   00022_ILE    00074_LEU  0.000621396272671279
   00022_ILE    00062_LEU  5.503946033418092e-06
   00022_ILE    00052_ASP  0.0004233126346382492
   00022_ILE    00035_PHE  0.0001541997099287931
   00023_VAL    00054_ILE  4.872063517300369e-05
   00023_VAL    00030_GLY  0.000606179221952568
   00023_VAL    00092_TYR  0.00010097389424418303
   00023_VAL    00025_GLY  0.00044479328287880065
   00023_VAL    00033_ILE  0.0002448934097474991
   00023_VAL    00098_NME  5.773256756143323e-07
   00023_VAL    00051_GLY  2.1940612058214295e-05
   00023_VAL    00067_HID  0.003213089725679785
   00023_VAL    00097_ALA  3.3644949017279513e-06
   00023_VAL    00029_GLU  0.0002697814134833915
   00023_VAL    00095_PHE  0.0054419471640148815
   00023_VAL    00031_ILE  0.006301530292485618
   00023_VAL    00034_SER  0.021145420640694277
   00023_VAL    00024_GLY  1.9316399418402834
   00023_VAL    00065_ALA  3.26697134105875e-05
   00023_VAL    00053_GLN  9.547021933851909e-05
   00023_VAL    00032_PHE  0.03547661021625211
   00023_VAL    00035_PHE  1.7402056619649196e-05
   00023_VAL    00068_GLU  0.0006700217430178801
   00023_VAL    00094_ARG  0.00033881897035951687
   00023_VAL    00050_LYS  0.0003985664338671528
   00023_VAL    00052_ASP  0.0007058197599053572
   00023_VAL    00070_ALA  2.3215137374346288e-05
   00023_VAL    00066_SER  8.014757265960403e-05
   00023_VAL    00026_GLU  0.0007447248486477923
   00023_VAL    00096_GLU  0.0002761445392593329
   00024_GLY    00095_PHE  0.011407687843951969
   00024_GLY    00030_GLY  0.0006731819368778932
   00024_GLY    00092_TYR  1.46933417260058e-05
   00024_GLY    00025_GLY  1.8687490005909229
   00024_GLY    00026_GLU  0.010459297262831296
   00024_GLY    00028_GLY  5.0417244422313425e-05
   00024_GLY    00067_HID  0.05802367891309138
   00024_GLY    00029_GLU  0.00040659440134552157
   00024_GLY    00031_ILE  0.0004190784244190002
   00024_GLY    00069_GLN  9.282668354258463e-05
   00024_GLY    00034_SER  2.1005005645476534e-05
   00024_GLY    00065_ALA  0.00018451939792674726
   00024_GLY    00053_GLN  5.4395645448465945e-05
   00024_GLY    00032_PHE  0.0003672680191221329
   00024_GLY    00094_ARG  0.00041740556410800367
   00024_GLY    00070_ALA  4.928481513629101e-05
   00024_GLY    00068_GLU  0.0008567035152288503
   00024_GLY    00066_SER  0.0017822767839493394
   00025_GLY    00095_PHE  4.4287898491610775e-05
   00025_GLY    00064_ASN  0.0003968515645920815
   00025_GLY    00030_GLY  0.012662907793562665
   00025_GLY    00066_SER  0.013929076135362001
   00025_GLY    00028_GLY  0.015442026324206864
   00025_GLY    00067_HID  0.0006355041089457705
   00025_GLY    00029_GLU  0.002468296158391448
   00025_GLY    00031_ILE  0.010656557081943541
   00025_GLY    00069_GLN  0.00015624004283714012
   00025_GLY    00065_ALA  0.003249636352486384
   00025_GLY    00053_GLN  9.54581627161471e-05
   00025_GLY    00062_LEU  3.833110395062012e-05
   00025_GLY    00063_ARG  0.0001040714443258162
   00025_GLY    00094_ARG  0.000933540755097838
   00025_GLY    00027_ASP  0.001884023471972744
   00025_GLY    00032_PHE  0.00011200738290607053
   00025_GLY    00068_GLU  0.0002498143270808831
   00025_GLY    00026_GLU  2.451535879522808
   00025_GLY    00070_ALA  9.67580262566936e-06
   00026_GLU    00095_PHE  0.00034528179051610377
   00026_GLU    00064_ASN  0.0013320142952504368
   00026_GLU    00030_GLY  0.0018867964327269468
   00026_GLU    00066_SER  0.26874963770391447
   00026_GLU    00028_GLY  0.007732298441320936
   00026_GLU    00067_HID  0.01468249032577712
   00026_GLU    00029_GLU  0.020776771817102888
   00026_GLU    00031_ILE  0.0006824187788192262
   00026_GLU    00069_GLN  0.005200046741197252
   00026_GLU    00065_ALA  0.0018425912886217593
   00026_GLU    00032_PHE  0.0004621785987646972
   00026_GLU    00094_ARG  0.004036431594608566
   00026_GLU    00027_ASP  1.7087729628937438
   00026_GLU    00068_GLU  0.008760894766096912
   00027_ASP    00064_ASN  0.0018145505587811568
   00027_ASP    00030_GLY  0.0006321788253268928
   00027_ASP    00063_ARG  0.0006997839145512185
   00027_ASP    00066_SER  0.0011243859958001892
   00027_ASP    00094_ARG  0.0067044799931867466
   00027_ASP    00028_GLY  2.438867647230411
   00027_ASP    00067_HID  0.0006501050057332852
   00027_ASP    00029_GLU  0.01854607094495035
   00027_ASP    00069_GLN  0.0006799783466884942
   00027_ASP    00065_ALA  0.0003679622782407405
   00028_GLY    00064_ASN  0.014960005591310752
   00028_GLY    00030_GLY  0.0050862821445399565
   00028_GLY    00063_ARG  0.00020311148622768503
   00028_GLY    00066_SER  0.0001561813357368446
   00028_GLY    00094_ARG  0.0007275180954019253
   00028_GLY    00067_HID  6.276394200121166e-05
   00028_GLY    00029_GLU  2.260547541802927
   00028_GLY    00031_ILE  5.2628602701840304e-05
   00028_GLY    00032_PHE  1.2586728206817259e-05
   00028_GLY    00069_GLN  5.2741810059983585e-05
   00028_GLY    00088_LYS  0.00039662660604074544
   00028_GLY    00065_ALA  0.0004335819083247338
   00028_GLY    00053_GLN  0.00023829280523309337
   00028_GLY    00062_LEU  2.9298197649922162e-05
   00029_GLU    00095_PHE  0.000846673874895859
   00029_GLU    00064_ASN  0.002182269661389665
   00029_GLU    00030_GLY  2.369970972797443
   00029_GLU    00066_SER  0.0004196449459586059
   00029_GLU    00067_HID  0.00041589027328368364
   00029_GLU    00031_ILE  0.000658550206329468
   00029_GLU    00088_LYS  0.004227983696464531
   00029_GLU    00065_ALA  0.0004885936124662953
   00029_GLU    00053_GLN  0.003716637529110384
   00029_GLU    00062_LEU  0.00017840700432768028
   00029_GLU    00063_ARG  0.0012214146064517461
   00029_GLU    00094_ARG  0.504874643119826
   00029_GLU    00086_GLN  0.0005754495273301612
   00029_GLU    00032_PHE  0.0020187453075144286
   00029_GLU    00055_LEU  0.00021363939666958954
   00029_GLU    00091_GLU  0.022853222980307893
   00030_GLY    00054_ILE  0.0003243104137943719
   00030_GLY    00064_ASN  0.00036339886380239546
   00030_GLY    00092_TYR  3.720368224828432e-05
   00030_GLY    00066_SER  8.183514405119584e-05
   00030_GLY    00067_HID  0.0001397165190934758
   00030_GLY    00095_PHE  0.000209736509063648
   00030_GLY    00031_ILE  2.135904688695033
   00030_GLY    00088_LYS  0.0012826523559325187
   00030_GLY    00065_ALA  0.0005306882098766869
   00030_GLY    00053_GLN  0.006200043551968458
   00030_GLY    00032_PHE  0.0034991404492116965
   00030_GLY    00063_ARG  0.0005170989928288741
   00030_GLY    00094_ARG  0.0016653200860814203
   00030_GLY    00086_GLN  3.086344131715237e-05
   00030_GLY    00062_LEU  0.00018961524991101643
   00030_GLY    00055_LEU  5.179503266309229e-05
   00030_GLY    00091_GLU  0.0015672943871427008
   00030_GLY    00070_ALA  1.2648759283949042e-05
   00031_ILE    00064_ASN  2.8300053080499706e-05
   00031_ILE    00092_TYR  2.1491724406547204e-05
   00031_ILE    00033_ILE  0.0003716879833130691
   00031_ILE    00054_ILE  0.03557751112742761
   00031_ILE    00055_LEU  0.00010467457182658808
   00031_ILE    00088_LYS  0.0010788688208833322
   00031_ILE    00065_ALA  0.018994860452400276
   00031_ILE    00053_GLN  0.021078333803032135
   00031_ILE    00032_PHE  1.7622843600853986
   00031_ILE    00070_ALA  0.017867233836970878
   00031_ILE    00068_GLU  0.0002923771252563037
   00031_ILE    00095_PHE  3.240583513173991e-05
   00031_ILE    00071_ALA  9.946933831437493e-06
   00031_ILE    00066_SER  2.3575298839089807e-05
   00031_ILE    00057_VAL  3.7494011588280867e-06
   00031_ILE    00067_HID  0.006406069975763742
   00031_ILE    00073_ALA  5.104930657351587e-06
   00031_ILE    00083_ILE  7.222187407031584e-06
   00031_ILE    00069_GLN  2.751493276220936e-05
   00031_ILE    00034_SER  2.1388684200492574e-05
   00031_ILE    00074_LEU  4.438725914504631e-06
   00031_ILE    00062_LEU  0.018990166167803187
   00031_ILE    00056_SER  1.4754223624391311e-05
   00031_ILE    00063_ARG  0.0003851888426425956
   00031_ILE    00094_ARG  0.0005154408713898902
   00031_ILE    00052_ASP  0.0015942717627676667
   00031_ILE    00061_ASP  0.000512130784158366
   00032_PHE    00095_PHE  0.007814207713184727
   00032_PHE    00088_LYS  0.05142710826005674
   00032_PHE    00092_TYR  0.015399371938916707
   00032_PHE    00033_ILE  1.6186916110223772
   00032_PHE    00051_GLY  0.0031179310726112152
   00032_PHE    00090_GLU  0.0003234853654129984
   00032_PHE    00067_HID  0.0001245493995003246
   00032_PHE    00085_ALA  2.1622870281488375e-05
   00032_PHE    00054_ILE  0.00034669163910013955
   00032_PHE    00055_LEU  1.2744946940838917e-05
   00032_PHE    00034_SER  0.0011526614696033917
   00032_PHE    00091_GLU  0.008111688511933479
   00032_PHE    00065_ALA  3.164555258649005e-05
   00032_PHE    00053_GLN  -0.0006742993786470719
   00032_PHE    00035_PHE  6.038528949025759e-05
   00032_PHE    00066_SER  1.688560369907708e-05
   00032_PHE    00087_TYR  8.514777831708379e-05
   00032_PHE    00094_ARG  0.0013648814204046727
   00032_PHE    00063_ARG  0.00014492116824546626
   00032_PHE    00086_GLN  0.00018555384723308445
   00032_PHE    00050_LYS  0.0008025685650420673
   00032_PHE    00052_ASP  0.009737458737192489
   00032_PHE    00089_PRO  1.8088195114025946e-05
   00032_PHE    00049_ARG  0.00031843274721883596
   00032_PHE    00093_SER  1.6336467620072805e-05
   00032_PHE    00096_GLU  0.00025939604396326045
   00033_ILE    00084_ILE  7.76403520401138e-06
   00033_ILE    00048_LEU  0.001575786783298813
   00033_ILE    00054_ILE  0.01733136360703454
   00033_ILE    00092_TYR  0.0009170055406568511
   00033_ILE    00051_GLY  0.014237142486277497
   00033_ILE    00085_ALA  1.566669277349993e-05
   00033_ILE    00036_ILE  0.003320305562623296
   00033_ILE    00083_ILE  7.0376961840975664e-06
   00033_ILE    00034_SER  1.835588737459463
   00033_ILE    00037_LEU  1.0196050907178504e-05
   00033_ILE    00042_ALA  1.2637740822316331e-05
   00033_ILE    00074_LEU  2.5817771777695723e-06
   00033_ILE    00053_GLN  0.00033413902128765833
   00033_ILE    00049_ARG  0.001343263219862169
   00033_ILE    00057_VAL  8.224120805747594e-07
   00033_ILE    00087_TYR  5.53713175534644e-05
   00033_ILE    00095_PHE  3.864121789181754e-05
   00033_ILE    00086_GLN  2.5204419160356545e-05
   00033_ILE    00050_LYS  0.017635717730733216
   00033_ILE    00052_ASP  0.028821601590103694
   00033_ILE    00070_ALA  3.721405120035105e-06
   00033_ILE    00035_PHE  0.001608646007815309
   00033_ILE    00096_GLU  0.0002426359510199173
   00034_SER    00095_PHE  9.888502921881584e-05
   00034_SER    00092_TYR  0.006569026635879962
   00034_SER    00051_GLY  0.00014537766214086845
   00034_SER    00036_ILE  9.623678179045071e-05
   00034_SER    00052_ASP  0.001182702396811585
   00034_SER    00096_GLU  0.000998066346857661
   00034_SER    00054_ILE  3.3825200121430994e-06
   00034_SER    00098_NME  5.382145163068882e-07
   00034_SER    00050_LYS  0.008838590677536427
   00034_SER    00097_ALA  4.139367223544208e-06
   00034_SER    00049_ARG  0.0005887247732270226
   00034_SER    00035_PHE  2.471288214766989
   00035_PHE    00038_ALA  8.659856456073311e-05
   00035_PHE    00048_LEU  1.8418263118424284e-05
   00035_PHE    00092_TYR  9.778961880136342e-05
   00035_PHE    00051_GLY  3.646056858556369e-05
   00035_PHE    00050_LYS  0.0037583507790906645
   00035_PHE    00098_NME  1.0801273375474357e-07
   00035_PHE    00037_LEU  0.009625691346904714
   00035_PHE    00042_ALA  1.589513375891709e-05
   00035_PHE    00036_ILE  1.6567784639355043
   00035_PHE    00097_ALA  6.355055027453848e-07
   00035_PHE    00049_ARG  0.0007320295224786845
   00035_PHE    00096_GLU  0.00032799002368450055
   00036_ILE    00046_GLY  1.2294026191587869e-05
   00036_ILE    00048_LEU  0.0036469623600165254
   00036_ILE    00054_ILE  6.197994101030454e-07
   00036_ILE    00039_GLY  5.6333803195696975e-05
   00036_ILE    00040_GLY  0.00028194157708303757
   00036_ILE    00051_GLY  5.464704485903456e-06
   00036_ILE    00037_LEU  2.1884746078617674
   00036_ILE    00042_ALA  0.019247676045480704
   00036_ILE    00047_GLU  0.00012061591436543697
   00036_ILE    00038_ALA  0.0006432752354228746
   00036_ILE    00045_SER  2.2785778840094153e-05
   00036_ILE    00044_LEU  2.4700643459898066e-05
   00036_ILE    00043_ASP  0.015312205795029888
   00036_ILE    00050_LYS  0.001924982454878191
   00036_ILE    00052_ASP  0.0003926339076801508
   00036_ILE    00041_PRO  1.587658996684196e-05
   00036_ILE    00049_ARG  0.008471357074307613
   00037_LEU    00038_ALA  1.7587122716263406
   00037_LEU    00044_LEU  0.00025121695698805734
   00037_LEU    00039_GLY  0.0027360045021947474
   00037_LEU    00040_GLY  0.018892558331484552
   00037_LEU    00043_ASP  0.004534673326631103
   00037_LEU    00041_PRO  3.625083146645939e-05
   00037_LEU    00042_ALA  0.00015896308097514418
   00038_ALA    00044_LEU  7.490099710565423e-05
   00038_ALA    00039_GLY  1.3343104916996862
   00038_ALA    00040_GLY  0.004149321623954785
   00038_ALA    00043_ASP  0.005875653303740439
   00038_ALA    00042_ALA  1.9484288231871762e-05
   00039_GLY    00044_LEU  0.0015480388160370867
   00039_GLY    00040_GLY  2.4157995274676507
   00039_GLY    00043_ASP  0.051555241086283406
   00039_GLY    00041_PRO  0.0005943191727512212
   00039_GLY    00042_ALA  5.276277308649244e-05
   00040_GLY    00046_GLY  0.00011135064219305788
   00040_GLY    00045_SER  0.0009370771819946513
   00040_GLY    00044_LEU  0.02578242890452031
   00040_GLY    00043_ASP  0.02718079782783938
   00040_GLY    00041_PRO  1.2852230173032715
   00040_GLY    00042_ALA  0.0032054328719074844
   00041_PRO    00046_GLY  0.0006257162970829931
   00041_PRO    00048_LEU  6.689414637281383e-05
   00041_PRO    00045_SER  0.14427652205487232
   00041_PRO    00044_LEU  0.004241747093944995
   00041_PRO    00081_VAL  8.54434187680878e-06
   00041_PRO    00043_ASP  0.0029119815639952985
   00041_PRO    00083_ILE  2.7220833661735814e-06
   00041_PRO    00042_ALA  1.8714621032636616
   00041_PRO    00074_LEU  2.924303913172873e-06
   00041_PRO    00047_GLU  0.0003338805069701535
   00042_ALA    00046_GLY  0.010163267044224078
   00042_ALA    00048_LEU  0.007220359404259897
   00042_ALA    00045_SER  0.0041244927015507095
   00042_ALA    00044_LEU  0.0007292783523486307
   00042_ALA    00081_VAL  3.892420521972784e-06
   00042_ALA    00043_ASP  2.0802386373202606
   00042_ALA    00047_GLU  0.004470902546246649
   00042_ALA    00083_ILE  5.441830423288009e-06
   00042_ALA    00049_ARG  0.00044911155401348974
   00043_ASP    00046_GLY  0.018837602112564165
   00043_ASP    00048_LEU  0.0022834366144803336
   00043_ASP    00045_SER  0.01059838664025083
   00043_ASP    00044_LEU  1.6028381311179263
   00043_ASP    00049_ARG  0.005215844651975403
   00043_ASP    00047_GLU  0.00343253649455803
   00044_LEU    00046_GLY  0.0020931169537060164
   00044_LEU    00045_SER  1.681631654374973
   00044_LEU    00047_GLU  0.0007131345094613048
   00045_SER    00046_GLY  1.965243159638615
   00045_SER    00048_LEU  0.0001749274486755369
   00045_SER    00047_GLU  0.029708553025357878
   00045_SER    00083_ILE  1.0110209377385416e-05
   00045_SER    00049_ARG  0.0010287135390439038
   00046_GLY    00048_LEU  0.0035088535137630956
   00046_GLY    00047_GLU  1.9521696915078486
   00046_GLY    00049_ARG  0.004108890228829862
   00047_GLU    00048_LEU  2.082061792403347
   00047_GLU    00087_TYR  0.0007356352533177078
   00047_GLU    00085_ALA  0.0009716739844557349
   00047_GLU    00052_ASP  0.007151365477212461
   00047_GLU    00083_ILE  0.0007683627086343934
   00047_GLU    00049_ARG  0.03553530902282584
   00048_LEU    00084_ILE  2.2311568482705693e-05
   00048_LEU    00054_ILE  5.9293208413961974e-05
   00048_LEU    00081_VAL  7.389291993042833e-06
   00048_LEU    00057_VAL  1.8210963479766082e-06
   00048_LEU    00085_ALA  0.00039234204194289686
   00048_LEU    00083_ILE  0.0012365510101975757
   00048_LEU    00055_LEU  8.038849743713241e-06
   00048_LEU    00074_LEU  2.328774493277786e-06
   00048_LEU    00082_THR  6.870258079417722e-06
   00048_LEU    00053_GLN  4.500452960437335e-05
   00048_LEU    00087_TYR  6.0028185368919963e-05
   00048_LEU    00086_GLN  2.6095565235448683e-05
   00048_LEU    00050_LYS  0.00044636715201923854
   00048_LEU    00052_ASP  0.013155581839897101
   00048_LEU    00049_ARG  1.7023861710100432
   00049_ARG    00054_ILE  0.0002178711151406438
   00049_ARG    00088_LYS  0.003314969452465295
   00049_ARG    00087_TYR  0.024045419287184074
   00049_ARG    00092_TYR  0.0008301871720645406
   00049_ARG    00086_GLN  0.0027259931497673998
   00049_ARG    00051_GLY  0.0015495163517292654
   00049_ARG    00085_ALA  0.0011381213784727735
   00049_ARG    00050_LYS  1.406930606684868
   00049_ARG    00052_ASP  0.38432474352526363
   00049_ARG    00089_PRO  0.00019459141358227813
   00049_ARG    00053_GLN  0.0010472853487313066
   00050_LYS    00095_PHE  0.000539809588858144
   00050_LYS    00088_LYS  0.0008742282853269177
   00050_LYS    00087_TYR  0.0042877414572485865
   00050_LYS    00092_TYR  0.015231488740625704
   00050_LYS    00097_ALA  0.00015657127810466423
   00050_LYS    00051_GLY  1.5493287491828407
   00050_LYS    00052_ASP  0.009859858225694771
   00050_LYS    00098_NME  5.586738501765931e-05
   00050_LYS    00089_PRO  0.0001851697289165235
   00050_LYS    00093_SER  0.0006833615197628448
   00050_LYS    00096_GLU  0.013364562903929409
   00051_GLY    00095_PHE  1.7726642203435215e-05
   00051_GLY    00088_LYS  0.016199303412005553
   00051_GLY    00092_TYR  0.011896467377296513
   00051_GLY    00090_GLU  0.00037964473060321107
   00051_GLY    00053_GLN  0.0010503492419466833
   00051_GLY    00087_TYR  0.0015134193732850337
   00051_GLY    00089_PRO  0.00016322489882750289
   00051_GLY    00086_GLN  0.0002808811028729924
   00051_GLY    00052_ASP  2.176899579253153
   00051_GLY    00091_GLU  0.00021876105286623107
   00051_GLY    00093_SER  4.1569854847163815e-05
   00051_GLY    00096_GLU  0.0002809296961287186
   00052_ASP    00084_ILE  0.0006158190568977308
   00052_ASP    00054_ILE  0.0021920773354057034
   00052_ASP    00088_LYS  0.00626693515654642
   00052_ASP    00087_TYR  0.029216392143509583
   00052_ASP    00092_TYR  0.0016112771960356132
   00052_ASP    00086_GLN  0.0075739328727753305
   00052_ASP    00085_ALA  0.004734899740046321
   00052_ASP    00083_ILE  0.0005931793226655157
   00052_ASP    00055_LEU  0.0007417267935937296
   00052_ASP    00089_PRO  0.00025427789999477073
   00052_ASP    00053_GLN  1.7725752052508466
   00053_GLN    00084_ILE  0.00031236925768110454
   00053_GLN    00054_ILE  1.9307091738018594
   00053_GLN    00064_ASN  0.00030321636816311456
   00053_GLN    00092_TYR  4.3940083078128405e-05
   00053_GLN    00085_ALA  0.008417428005369881
   00053_GLN    00095_PHE  1.737942260277079e-05
   00053_GLN    00055_LEU  0.019877362461682497
   00053_GLN    00088_LYS  0.09434313653775843
   00053_GLN    00065_ALA  0.00022607745969705281
   00053_GLN    00091_GLU  0.003272250848343615
   00053_GLN    00062_LEU  0.000770725157268719
   00053_GLN    00056_SER  9.615764568760413e-05
   00053_GLN    00087_TYR  0.0005769005067924279
   00053_GLN    00063_ARG  0.0070196594689085935
   00053_GLN    00094_ARG  0.001674336070574436
   00053_GLN    00086_GLN  0.024976247379479392
   00053_GLN    00083_ILE  4.829562286685171e-05
   00053_GLN    00089_PRO  6.295873206346232e-06
   00054_ILE    00084_ILE  0.0011567275378141025
   00054_ILE    00064_ASN  5.74383633447946e-05
   00054_ILE    00081_VAL  2.728080041096316e-06
   00054_ILE    00071_ALA  6.632395848294869e-06
   00054_ILE    00057_VAL  0.0018907165383430884
   00054_ILE    00067_HID  2.1683048193050915e-05
   00054_ILE    00085_ALA  0.0009636684399236612
   00054_ILE    00073_ALA  8.644558510789772e-06
   00054_ILE    00083_ILE  0.0011111138760532453
   00054_ILE    00055_LEU  1.5618141092567652
   00054_ILE    00088_LYS  0.0010509317676741263
   00054_ILE    00074_LEU  1.673169099981021e-05
   00054_ILE    00082_THR  1.060875343022174e-05
   00054_ILE    00062_LEU  0.0035121460204464734
   00054_ILE    00056_SER  0.001137141596649263
   00054_ILE    00065_ALA  7.655436879241555e-05
   00054_ILE    00060_VAL  3.497661194228822e-05
   00054_ILE    00063_ARG  0.0007476826914937401
   00054_ILE    00086_GLN  0.0003532124787927257
   00054_ILE    00070_ALA  0.00012806245243492762
   00054_ILE    00061_ASP  0.00046910470577440677
   00055_LEU    00084_ILE  0.049438583190881465
   00055_LEU    00064_ASN  9.646799473937875e-05
   00055_LEU    00088_LYS  0.0020105705082715535
   00055_LEU    00057_VAL  0.0001557866112840087
   00055_LEU    00085_ALA  0.003189796452589741
   00055_LEU    00083_ILE  0.00017035045972714832
   00055_LEU    00059_GLY  2.038009787028966e-05
   00055_LEU    00065_ALA  4.287183475674506e-05
   00055_LEU    00062_LEU  0.021152577866592883
   00055_LEU    00056_SER  1.8791067681861733
   00055_LEU    00087_TYR  1.652716446568832e-05
   00055_LEU    00060_VAL  0.0002574190010037314
   00055_LEU    00063_ARG  0.014920539780248161
   00055_LEU    00086_GLN  0.0030753679625215584
   00055_LEU    00061_ASP  0.004193699372404944
   00056_SER    00084_ILE  0.03990132153062579
   00056_SER    00059_GLY  0.003781275000072915
   00056_SER    00081_VAL  2.5149925808489905e-05
   00056_SER    00057_VAL  1.7719566086220442
   00056_SER    00085_ALA  0.00012473217831589895
   00056_SER    00073_ALA  4.3698095873824614e-05
   00056_SER    00083_ILE  0.004494865563543466
   00056_SER    00074_LEU  2.0741961288782713e-05
   00056_SER    00082_THR  0.00046505544133727995
   00056_SER    00058_ASN  0.0007663604498717063
   00056_SER    00062_LEU  0.0032355734699506832
   00056_SER    00060_VAL  0.06883766595941947
   00056_SER    00063_ARG  0.0026207561071459645
   00056_SER    00086_GLN  2.4439799535365433e-05
   00056_SER    00070_ALA  2.3289102276631825e-05
   00056_SER    00061_ASP  0.006111583539696113
   00057_VAL    00084_ILE  0.00023593357817066192
   00057_VAL    00059_GLY  0.0012906344468491117
   00057_VAL    00081_VAL  0.0023568677316096473
   00057_VAL    00061_ASP  0.0013790493230507414
   00057_VAL    00085_ALA  7.978394884944663e-06
   00057_VAL    00073_ALA  0.0051533630238400985
   00057_VAL    00083_ILE  0.009342563232511536
   00057_VAL    00069_GLN  1.6416640296980265e-05
   00057_VAL    00071_ALA  1.3454645694446858e-05
   00057_VAL    00080_THR  1.302277506701761e-05
   00057_VAL    00074_LEU  0.007808000526423506
   00057_VAL    00082_THR  0.004391549629406108
   00057_VAL    00058_ASN  1.6965448625944437
   00057_VAL    00062_LEU  0.003905710870873504
   00057_VAL    00065_ALA  6.571829213589397e-06
   00057_VAL    00060_VAL  0.020032037446730037
   00057_VAL    00063_ARG  0.0005184649509643426
   00057_VAL    00076_ASN  0.00011517377449075151
   00057_VAL    00078_GLY  2.2479243334000278e-05
   00057_VAL    00077_ALA  0.0006045601351287908
   00057_VAL    00072_ILE  2.5460490520266383e-05
   00057_VAL    00075_LYS  0.00024014818946952517
   00057_VAL    00070_ALA  0.0001761752974179004
   00058_ASN    00084_ILE  0.0002822566698433238
   00058_ASN    00075_LYS  0.0005896675121963039
   00058_ASN    00081_VAL  0.00552390816575617
   00058_ASN    00073_ALA  0.00028726870656996256
   00058_ASN    00083_ILE  0.0006071443451428359
   00058_ASN    00059_GLY  1.8962797016488733
   00058_ASN    00080_THR  0.005142970189174154
   00058_ASN    00074_LEU  0.00011794207102616735
   00058_ASN    00082_THR  0.04157423436134839
   00058_ASN    00077_ALA  0.006085423392937188
   00058_ASN    00060_VAL  0.00309130520590032
   00058_ASN    00076_ASN  0.0007248500944117093
   00058_ASN    00079_GLN  0.00012487424793995982
   00058_ASN    00078_GLY  0.0021819399414390603
   00058_ASN    00062_LEU  1.715424549075699e-05
   00058_ASN    00072_ILE  2.3967132492974738e-05
   00058_ASN    00070_ALA  2.7480420431185747e-05
   00059_GLY    00084_ILE  3.226412817496464e-05
   00059_GLY    00060_VAL  2.023486070004519
   00059_GLY    00081_VAL  1.4656798617671588e-05
   00059_GLY    00076_ASN  1.7261287121707164e-05
   00059_GLY    00073_ALA  2.2072610479944436e-05
   00059_GLY    00083_ILE  3.723485215632189e-05
   00059_GLY    00062_LEU  3.7338991332819084e-05
   00059_GLY    00061_ASP  0.003351704808678241
   00059_GLY    00082_THR  0.00029309142823528023
   00059_GLY    00077_ALA  6.266573352954067e-06
   00059_GLY    00063_ARG  0.0005567703829788145
   00060_VAL    00084_ILE  6.735768749394734e-05
   00060_VAL    00072_ILE  2.807334739055199e-05
   00060_VAL    00073_ALA  0.0021951999156463436
   00060_VAL    00083_ILE  3.0469501437088455e-05
   00060_VAL    00069_GLN  7.177210694803291e-05
   00060_VAL    00065_ALA  1.760923097251943e-05
   00060_VAL    00082_THR  4.056355978719714e-05
   00060_VAL    00062_LEU  0.010212717679199741
   00060_VAL    00074_LEU  1.37271413491057e-05
   00060_VAL    00063_ARG  0.0009414637091790014
   00060_VAL    00076_ASN  0.0001459170946335862
   00060_VAL    00077_ALA  1.49285960778899e-05
   00060_VAL    00061_ASP  1.7950178736965559
   00060_VAL    00070_ALA  2.9036338997028576e-05
   00061_ASP    00084_ILE  0.000522746825462025
   00061_ASP    00064_ASN  0.013706803502665491
   00061_ASP    00063_ARG  0.509202004851817
   00061_ASP    00073_ALA  0.0003694665492238227
   00061_ASP    00070_ALA  0.0005041663290196191
   00061_ASP    00069_GLN  0.0032410397962798166
   00061_ASP    00065_ALA  0.002884552213348417
   00061_ASP    00062_LEU  1.849884062656106
   00062_LEU    00084_ILE  5.13247207646918e-05
   00062_LEU    00064_ASN  0.0030954890144267904
   00062_LEU    00066_SER  0.00025764677766598634
   00062_LEU    00067_HID  4.597454465029578e-05
   00062_LEU    00073_ALA  0.0018157338873230615
   00062_LEU    00083_ILE  2.4282930109860766e-05
   00062_LEU    00069_GLN  0.00014370864894205256
   00062_LEU    00071_ALA  1.1248770608063671e-05
   00062_LEU    00065_ALA  0.008272005592979876
   00062_LEU    00074_LEU  1.70535839668283e-05
   00062_LEU    00063_ARG  1.9104341893480428
   00062_LEU    00070_ALA  0.006507714238332125
   00062_LEU    00072_ILE  3.1563715620452696e-05
   00062_LEU    00068_GLU  0.0002798341679404743
   00063_ARG    00084_ILE  0.000601299399665621
   00063_ARG    00065_ALA  0.0043439193568954385
   00063_ARG    00088_LYS  0.0033797469867467298
   00063_ARG    00064_ASN  1.8448537086771637
   00063_ARG    00086_GLN  0.0016465196167120381
   00063_ARG    00091_GLU  0.0009007792761151718
   00064_ASN    00069_GLN  0.0006901620171913005
   00064_ASN    00066_SER  0.000263920747388134
   00064_ASN    00065_ALA  2.134322862330739
   00065_ALA    00071_ALA  1.6146140322787262e-05
   00065_ALA    00066_SER  2.073319835926574
   00065_ALA    00067_HID  0.00038361988717067007
   00065_ALA    00073_ALA  1.3953129488098195e-05
   00065_ALA    00070_ALA  0.00014278955731537375
   00065_ALA    00069_GLN  0.025577454755470116
   00065_ALA    00068_GLU  0.00033063525252083017
   00066_SER    00071_ALA  0.0003683364410115826
   00066_SER    00067_HID  1.768919806267516
   00066_SER    00070_ALA  0.012295338761012407
   00066_SER    00069_GLN  0.07896584494316339
   00066_SER    00072_ILE  0.00011109981290829149
   00066_SER    00068_GLU  0.015139614848193173
   00067_HID    00095_PHE  2.7973335795635843e-05
   00067_HID    00071_ALA  0.014925198996241172
   00067_HID    00073_ALA  5.5837684865635985e-05
   00067_HID    00070_ALA  0.023240010357376356
   00067_HID    00069_GLN  0.002129835299080219
   00067_HID    00072_ILE  0.00021199495134920023
   00067_HID    00074_LEU  7.198521222379848e-05
   00067_HID    00068_GLU  2.0766612798440334
   00068_GLU    00071_ALA  0.009612558509404338
   00068_GLU    00073_ALA  0.0008716131176455486
   00068_GLU    00070_ALA  0.0026456603532778785
   00068_GLU    00069_GLN  2.026016485144635
   00068_GLU    00072_ILE  0.008583264488241515
   00068_GLU    00075_LYS  0.001017966829116749
   00068_GLU    00074_LEU  0.0007629132177928763
   00069_GLN    00075_LYS  0.0008899135878908002
   00069_GLN    00076_ASN  0.00020023783931163213
   00069_GLN    00073_ALA  0.011833237544796305
   00069_GLN    00070_ALA  1.9447092414208094
   00069_GLN    00072_ILE  0.023405460244957463
   00069_GLN    00071_ALA  0.002230044398486257
   00069_GLN    00074_LEU  0.00023030369438614638
   00070_ALA    00075_LYS  0.0011116149846133246
   00070_ALA    00076_ASN  0.00017488703842085654
   00070_ALA    00073_ALA  0.007985163610934857
   00070_ALA    00083_ILE  8.657020315830398e-06
   00070_ALA    00072_ILE  0.0011368046797131535
   00070_ALA    00071_ALA  2.0816870387357578
   00070_ALA    00074_LEU  0.02200686542098648
   00071_ALA    00075_LYS  0.019049694433835956
   00071_ALA    00076_ASN  0.0004471401683620453
   00071_ALA    00073_ALA  0.0007083459420714035
   00071_ALA    00072_ILE  2.1882414783468787
   00071_ALA    00074_LEU  0.004008430558227519
   00071_ALA    00077_ALA  6.129379304765593e-05
   00072_ILE    00075_LYS  0.013220796096980743
   00072_ILE    00076_ASN  0.03917738864834084
   00072_ILE    00073_ALA  1.7955763868629635
   00072_ILE    00074_LEU  0.004283303316878221
   00072_ILE    00077_ALA  0.0002903714381394344
   00073_ALA    00075_LYS  0.004949190263864739
   00073_ALA    00081_VAL  3.5882331244166834e-05
   00073_ALA    00076_ASN  0.006005862839420066
   00073_ALA    00078_GLY  6.62432109168766e-05
   00073_ALA    00074_LEU  2.2117076794611017
   00073_ALA    00077_ALA  0.008617624883288265
   00074_LEU    00084_ILE  5.7285199058469304e-06
   00074_LEU    00075_LYS  1.7271368193067524
   00074_LEU    00081_VAL  -0.000836059820791711
   00074_LEU    00076_ASN  0.0015053741826043085
   00074_LEU    00079_GLN  7.563811489076522e-05
   00074_LEU    00078_GLY  0.00023640562680641306
   00074_LEU    00083_ILE  0.000579702101924937
   00074_LEU    00082_THR  6.670383131343626e-05
   00074_LEU    00080_THR  2.6414401796069328e-05
   00074_LEU    00077_ALA  0.012254007235534268
   00075_LYS    00078_GLY  0.00029759531247680284
   00075_LYS    00081_VAL  0.00011477203939676029
   00075_LYS    00076_ASN  1.67363287603239
   00075_LYS    00077_ALA  0.005759298482770069
   00076_ASN    00078_GLY  0.000509005511642846
   00076_ASN    00081_VAL  2.8492031029937244e-05
   00076_ASN    00080_THR  3.129473616327739e-05
   00076_ASN    00077_ALA  2.079140659490886
   00077_ALA    00083_ILE  1.0546853496127559e-05
   00077_ALA    00081_VAL  0.005869122797434654
   00077_ALA    00079_GLN  0.00043108070579694023
   00077_ALA    00078_GLY  1.8397242412542614
   00077_ALA    00080_THR  0.00024277712140667333
   00077_ALA    00082_THR  0.00013464367731460272
   00078_GLY    00081_VAL  0.0014334306887674824
   00078_GLY    00080_THR  0.0038535427577757932
   00078_GLY    00082_THR  7.997291613374783e-05
   00078_GLY    00079_GLN  1.9024101368494597
   00079_GLN    00081_VAL  0.0013622932301282184
   00079_GLN    00080_THR  1.95281968094422
   00080_THR    00081_VAL  1.437100401756278
   00080_THR    00083_ILE  1.5529862553952552e-05
   00080_THR    00082_THR  0.0007894319119133246
   00081_VAL    00084_ILE  1.3723735345222484e-05
   00081_VAL    00083_ILE  0.002017799738276943
   00081_VAL    00082_THR  1.3004750465616546
   00082_THR    00084_ILE  0.00038457482151516654
   00082_THR    00083_ILE  1.6283132597692724
   00083_ILE    00084_ILE  1.9265693107061945
   00083_ILE    00086_GLN  1.93040549900404e-05
   00083_ILE    00085_ALA  0.003109271180036699
   00084_ILE    00086_GLN  0.0002621543262883829
   00084_ILE    00085_ALA  1.85847117536844
   00085_ALA    00086_GLN  2.0854369291306605
   00085_ALA    00088_LYS  0.0005355788332817946
   00085_ALA    00087_TYR  0.00032715100825660306
   00086_GLN    00088_LYS  0.032622962652751615
   00086_GLN    00087_TYR  2.1108144325777323
   00086_GLN    00091_GLU  0.0011362798875870113
   00086_GLN    00089_PRO  2.730637941402232e-05
   00087_TYR    00088_LYS  1.5730236704612464
   00087_TYR    00092_TYR  0.00012292430188725955
   00087_TYR    00089_PRO  0.010858201446268992
   00087_TYR    00090_GLU  0.0022234636739739493
   00087_TYR    00091_GLU  0.000466575373635188
   00088_LYS    00095_PHE  0.0002594524789546869
   00088_LYS    00092_TYR  0.018071372664906264
   00088_LYS    00091_GLU  0.021446930241081647
   00088_LYS    00094_ARG  0.007229147197574449
   00088_LYS    00090_GLU  0.005774389670354174
   00088_LYS    00089_PRO  1.478742368053259
   00088_LYS    00093_SER  0.0005203632276761087
   00089_PRO    00095_PHE  5.453000238914296e-05
   00089_PRO    00092_TYR  0.01154284341019883
   00089_PRO    00094_ARG  0.0004298087036560769
   00089_PRO    00090_GLU  2.084920618382367
   00089_PRO    00091_GLU  0.0011058372831171674
   00089_PRO    00093_SER  0.04264203762430549
   00089_PRO    00096_GLU  0.00014263967002294814
   00090_GLU    00095_PHE  0.0006957579500687706
   00090_GLU    00092_TYR  0.0036080405664623795
   00090_GLU    00094_ARG  0.007314872974679878
   00090_GLU    00091_GLU  2.0804102637070896
   00090_GLU    00093_SER  0.020798479918882593
   00091_GLU    00095_PHE  0.0032751691506666784
   00091_GLU    00092_TYR  1.6906400564548663
   00091_GLU    00094_ARG  0.3710207761599769
   00091_GLU    00093_SER  0.0048645318537935914
   00091_GLU    00096_GLU  0.0012097299880488418
   00092_TYR    00095_PHE  0.0324878513076159
   00092_TYR    00094_ARG  0.007674124550121231
   00092_TYR    00098_NME  4.177294658432479e-06
   00092_TYR    00097_ALA  7.08569486484967e-05
   00092_TYR    00093_SER  1.7913547104296983
   00092_TYR    00096_GLU  0.005331165168923595
   00093_SER    00095_PHE  0.002080128177133032
   00093_SER    00094_ARG  1.8587537930930764
   00093_SER    00098_NME  2.7364275838664878e-05
   00093_SER    00097_ALA  0.0023013357227331973
   00093_SER    00096_GLU  0.012174374987980798
   00094_ARG    00095_PHE  1.8893641575012452
   00094_ARG    00098_NME  0.0001875016583077615
   00094_ARG    00097_ALA  0.019736468980742418
   00094_ARG    00096_GLU  0.012626748164823403
   00095_PHE    00098_NME  3.949452358718741e-05
   00095_PHE    00097_ALA  0.0006435560641443156
   00095_PHE    00096_GLU  2.0410441240546757
   00096_GLU    00097_ALA  2.2304144099838408
   00096_GLU    00098_NME  0.0028370087610246953
   00097_ALA    00098_NME  1.753133873042188
