   00001_ACE    00046_GLY  5.414436307169192e-07
   00001_ACE    00002_ILE  1.4279072695992434
   00001_ACE    00087_TYR  0.002855787574409384
   00001_ACE    00049_ARG  0.0008712481734851694
   00001_ACE    00004_ARG  0.000305890156965862
   00001_ACE    00007_ARG  0.00013484127320328936
   00001_ACE    00003_PRO  0.001521244895651401
   00001_ACE    00089_PRO  0.0035161162018695325
   00001_ACE    00047_GLU  4.025603563940017e-05
   00002_ILE    00046_GLY  1.2430826031108435e-06
   00002_ILE    00048_LEU  2.714434109614668e-06
   00002_ILE    00088_LYS  0.00045649801157564236
   00002_ILE    00051_GLY  1.069354462153927e-05
   00002_ILE    00085_ALA  2.2746176199614792e-06
   00002_ILE    00036_ILE  6.296590065892475e-07
   00002_ILE    00004_ARG  0.0031246888659367806
   00002_ILE    00007_ARG  0.0004248864316402296
   00002_ILE    00009_ILE  3.9914940364564883e-07
   00002_ILE    00005_GLU  0.0009058281785263092
   00002_ILE    00047_GLU  0.00010602941060732437
   00002_ILE    00045_SER  6.432902789788443e-07
   00002_ILE    00087_TYR  0.005590002625449455
   00002_ILE    00086_GLN  4.491282434789325e-05
   00002_ILE    00050_LYS  9.741366680360655e-05
   00002_ILE    00052_ASP  0.0005079736557728168
   00002_ILE    00006_PRO  1.8988227838103038e-06
   00002_ILE    00003_PRO  1.1719631231442484
   00002_ILE    00089_PRO  0.00020470085299426714
   00002_ILE    00049_ARG  0.0021913422585876966
   00003_PRO    00088_LYS  0.0006254435462050809
   00003_PRO    00087_TYR  0.002016123649800119
   00003_PRO    00086_GLN  0.0004403402550800664
   00003_PRO    00085_ALA  4.4665204290569365e-06
   00003_PRO    00047_GLU  4.368861703281214e-05
   00003_PRO    00004_ARG  1.8533929421915076
   00003_PRO    00052_ASP  0.00023154763171426187
   00003_PRO    00007_ARG  0.00026010481511856844
   00003_PRO    00006_PRO  6.068334583367568e-06
   00003_PRO    00008_ARG  1.4385645615405704e-05
   00003_PRO    00009_ILE  3.763738729174023e-07
   00003_PRO    00005_GLU  0.0016598321545497642
   00003_PRO    00049_ARG  0.0002980203622158925
   00004_ARG    00088_LYS  0.002887185276799422
   00004_ARG    00087_TYR  0.04330130387993187
   00004_ARG    00089_PRO  0.0001340781899089091
   00004_ARG    00086_GLN  0.05659748749435567
   00004_ARG    00090_GLU  0.0008529617423280785
   00004_ARG    00085_ALA  0.0004644258299660193
   00004_ARG    00007_ARG  0.01956329297148216
   00004_ARG    00006_PRO  0.0016238906534692353
   00004_ARG    00055_LEU  0.00016078342800216022
   00004_ARG    00005_GLU  2.0540922370135637
   00004_ARG    00091_GLU  0.0006590684768402481
   00005_GLU    00084_ILE  0.0002706728540945134
   00005_GLU    00088_LYS  0.0013100947071833782
   00005_GLU    00087_TYR  0.004649690854648246
   00005_GLU    00086_GLN  0.008721667208589278
   00005_GLU    00085_ALA  0.0011553501312671001
   00005_GLU    00007_ARG  0.01621298536681596
   00005_GLU    00006_PRO  1.3001461298310966
   00005_GLU    00055_LEU  0.0002995700683695891
   00005_GLU    00008_ARG  0.0016490574162610454
   00006_PRO    00084_ILE  0.00015807492059625937
   00006_PRO    00088_LYS  0.00016765146868114524
   00006_PRO    00087_TYR  8.42710991794725e-05
   00006_PRO    00063_ARG  0.0003534084003636284
   00006_PRO    00086_GLN  0.01804936432076849
   00006_PRO    00085_ALA  0.005078312095980307
   00006_PRO    00052_ASP  0.0002598393196761422
   00006_PRO    00007_ARG  1.6566564798191952
   00006_PRO    00055_LEU  0.0035607694709704606
   00006_PRO    00009_ILE  1.690584849993556e-05
   00006_PRO    00008_ARG  0.000435115144051029
   00006_PRO    00053_GLN  4.4932920177343443e-05
   00007_ARG    00084_ILE  0.004710047564620668
   00007_ARG    00046_GLY  0.0011745772237385557
   00007_ARG    00048_LEU  0.022847495054457084
   00007_ARG    00054_ILE  0.0005474665429809986
   00007_ARG    00088_LYS  0.003923975115773622
   00007_ARG    00033_ILE  0.0006736353406898514
   00007_ARG    00051_GLY  0.001133154310772505
   00007_ARG    00085_ALA  0.0666117452428018
   00007_ARG    00036_ILE  0.0002585039105991428
   00007_ARG    00083_ILE  0.000823149105666487
   00007_ARG    00055_LEU  0.0007957832499665218
   00007_ARG    00009_ILE  0.007293561984740703
   00007_ARG    00082_THR  0.0003756807782683326
   00007_ARG    00053_GLN  0.0026925097528728978
   00007_ARG    00087_TYR  0.013930086557570895
   00007_ARG    00086_GLN  0.013293754837622336
   00007_ARG    00047_GLU  0.10993038313345584
   00007_ARG    00052_ASP  0.5690135270805975
   00007_ARG    00008_ARG  1.8020879856206011
   00007_ARG    00049_ARG  0.04246297586148286
   00008_ARG    00084_ILE  0.01185452428559985
   00008_ARG    00048_LEU  0.00021725057715761008
   00008_ARG    00059_GLY  0.0017183998805340819
   00008_ARG    00081_VAL  0.0006531435673432594
   00008_ARG    00085_ALA  0.0011661528890846945
   00008_ARG    00083_ILE  0.005623649573912708
   00008_ARG    00009_ILE  1.583687744652324
   00008_ARG    00080_THR  0.0006763108926956034
   00008_ARG    00082_THR  0.011473769013494946
   00008_ARG    00047_GLU  0.003415595417659134
   00008_ARG    00010_VAL  0.0021275754261755753
   00008_ARG    00056_SER  0.003346926974352291
   00008_ARG    00063_ARG  0.01301394405699956
   00008_ARG    00058_ASN  0.0025149697625001244
   00009_ILE    00084_ILE  0.0003462731633204234
   00009_ILE    00046_GLY  9.795587950759725e-06
   00009_ILE    00048_LEU  0.003391068625619657
   00009_ILE    00054_ILE  8.78985639728166e-06
   00009_ILE    00056_SER  6.975179255265395e-05
   00009_ILE    00081_VAL  0.0010575159438099228
   00009_ILE    00033_ILE  1.0009598650666935e-06
   00009_ILE    00085_ALA  0.0006974358505687879
   00009_ILE    00057_VAL  2.8966008736350422e-05
   00009_ILE    00083_ILE  0.051584959794685345
   00009_ILE    00055_LEU  1.5907588338424347e-05
   00009_ILE    00018_LEU  7.028599664418816e-06
   00009_ILE    00042_ALA  6.157586733812226e-06
   00009_ILE    00082_THR  0.004335837616727998
   00009_ILE    00047_GLU  0.01956872580004931
   00009_ILE    00011_ILE  0.006437812087439168
   00009_ILE    00045_SER  4.9887769116473375e-05
   00009_ILE    00087_TYR  1.5103243077394764e-06
   00009_ILE    00012_HIE  3.4536101195927075e-05
   00009_ILE    00086_GLN  6.767578154730747e-06
   00009_ILE    00052_ASP  0.0006621564242012575
   00009_ILE    00010_VAL  1.784449703991307
   00009_ILE    00041_PRO  6.915244691469307e-06
   00009_ILE    00020_PHE  3.075840498123908e-06
   00009_ILE    00049_ARG  0.0002009385463992653
   00010_VAL    00084_ILE  9.222687527046285e-06
   00010_VAL    00048_LEU  1.4671072515190009e-05
   00010_VAL    00081_VAL  0.010397361703144932
   00010_VAL    00083_ILE  0.00028776480881627945
   00010_VAL    00080_THR  0.0021978196229938147
   00010_VAL    00018_LEU  2.367472992862607e-05
   00010_VAL    00042_ALA  7.11226174339873e-06
   00010_VAL    00082_THR  0.0022178695684591347
   00010_VAL    00058_ASN  6.871137726813167e-05
   00010_VAL    00011_ILE  1.4732661545950112
   00010_VAL    00045_SER  0.0001575170382822237
   00010_VAL    00012_HIE  0.000290343284450381
   00010_VAL    00079_GLN  3.0150986306399327e-05
   00010_VAL    00047_GLU  0.003582210126038536
   00010_VAL    00041_PRO  1.5878621132479004e-05
   00011_ILE    00046_GLY  2.059190772001933e-05
   00011_ILE    00043_ASP  0.0002521665375023694
   00011_ILE    00033_ILE  7.351354522178176e-07
   00011_ILE    00013_ARG  0.0009737601474152437
   00011_ILE    00085_ALA  1.4716227220441525e-06
   00011_ILE    00036_ILE  2.583330166518187e-06
   00011_ILE    00082_THR  0.00022429768017892743
   00011_ILE    00042_ALA  0.0012264803031984094
   00011_ILE    00017_GLY  1.3482553195376538e-05
   00011_ILE    00045_SER  0.004482216766306852
   00011_ILE    00044_LEU  3.5369944898620996e-05
   00011_ILE    00012_HIE  1.8827492321197359
   00011_ILE    00047_GLU  0.004415488927749731
   00011_ILE    00014_GLY  6.67474864126742e-05
   00011_ILE    00019_GLY  9.29574164293592e-06
   00011_ILE    00048_LEU  0.0009641586061055173
   00011_ILE    00054_ILE  1.7999814460093095e-06
   00011_ILE    00016_THR  2.9468963481210376e-06
   00011_ILE    00081_VAL  0.09318523077969607
   00011_ILE    00040_GLY  2.139197839437098e-05
   00011_ILE    00057_VAL  1.1804473563558653e-05
   00011_ILE    00083_ILE  0.0075248436955349905
   00011_ILE    00018_LEU  0.013498448107678921
   00011_ILE    00080_THR  0.00392663023592335
   00011_ILE    00074_LEU  1.3953676098691852e-05
   00011_ILE    00058_ASN  8.623811448327868e-05
   00011_ILE    00077_ALA  1.7400513991425654e-05
   00011_ILE    00079_GLN  0.000258643245606363
   00011_ILE    00078_GLY  4.3416509006369706e-05
   00011_ILE    00041_PRO  0.006187558026696983
   00011_ILE    00020_PHE  8.732064650606269e-05
   00012_HIE    00016_THR  7.520952080827398e-05
   00012_HIE    00081_VAL  0.00045824197211737734
   00012_HIE    00013_ARG  1.8477544002973576
   00012_HIE    00042_ALA  0.00022992079784992618
   00012_HIE    00018_LEU  0.003919369323116426
   00012_HIE    00080_THR  0.009315129425683095
   00012_HIE    00047_GLU  0.0005299997353666322
   00012_HIE    00015_SER  0.0003236932599417342
   00012_HIE    00017_GLY  0.0001916818461081052
   00012_HIE    00045_SER  0.0002983265281247786
   00012_HIE    00044_LEU  8.130736928360459e-05
   00012_HIE    00079_GLN  0.005981471171517702
   00012_HIE    00078_GLY  0.00015618379517048396
   00012_HIE    00014_GLY  0.017362200050430026
   00012_HIE    00041_PRO  0.005373689442975008
   00013_ARG    00019_GLY  0.00013674115536672077
   00013_ARG    00075_LYS  0.02944537069736032
   00013_ARG    00016_THR  0.0014701943621269577
   00013_ARG    00081_VAL  0.0012399334228675582
   00013_ARG    00040_GLY  0.00011895684485802255
   00013_ARG    00057_VAL  0.0002357504071788423
   00013_ARG    00073_ALA  0.0006462095979986619
   00013_ARG    00083_ILE  0.0001351706691597334
   00013_ARG    00018_LEU  0.004765895684612497
   00013_ARG    00071_ALA  0.0004831017700204897
   00013_ARG    00080_THR  0.0043797247445268705
   00013_ARG    00074_LEU  0.006243744016533994
   00013_ARG    00042_ALA  0.0001585077592944395
   00013_ARG    00077_ALA  0.05266599508717768
   00013_ARG    00015_SER  0.0022582984535746615
   00013_ARG    00017_GLY  0.0025841838356471954
   00013_ARG    00044_LEU  0.00014690879635266912
   00013_ARG    00076_ASN  0.004374273237822714
   00013_ARG    00079_GLN  0.030593726674024345
   00013_ARG    00058_ASN  0.0026389168025658465
   00013_ARG    00078_GLY  0.0385644090018924
   00013_ARG    00014_GLY  2.027557580108334
   00013_ARG    00041_PRO  0.0002543440573115318
   00013_ARG    00020_PHE  0.00020028187470489748
   00014_GLY    00015_SER  1.53789793165842
   00014_GLY    00017_GLY  0.0025253806021803913
   00014_GLY    00016_THR  0.00108306608208797
   00014_GLY    00081_VAL  1.6606106250333777e-05
   00014_GLY    00079_GLN  0.00038533189608540617
   00014_GLY    00078_GLY  8.857246320302463e-05
   00014_GLY    00041_PRO  0.0013986576240685386
   00014_GLY    00018_LEU  0.00013420969995675392
   00014_GLY    00080_THR  5.225700448971924e-05
   00014_GLY    00074_LEU  2.045026933933362e-05
   00014_GLY    00077_ALA  1.09229282783022e-05
   00015_SER    00017_GLY  0.0012570238657134988
   00015_SER    00078_GLY  1.2062725212780096e-05
   00015_SER    00075_LYS  0.0004715877120721368
   00015_SER    00016_THR  2.0314429453418006
   00015_SER    00074_LEU  1.0872209006025754e-05
   00015_SER    00079_GLN  2.675888683177307e-05
   00015_SER    00077_ALA  6.8068071078238e-06
   00016_THR    00019_GLY  9.620471886494588e-05
   00016_THR    00075_LYS  0.001462973450760184
   00016_THR    00039_GLY  1.281736273121106e-05
   00016_THR    00081_VAL  1.6876211854626628e-06
   00016_THR    00040_GLY  5.065144296063587e-05
   00016_THR    00037_LEU  1.1626156696420083e-05
   00016_THR    00018_LEU  0.00016319412007977994
   00016_THR    00074_LEU  2.5127824437141875e-05
   00016_THR    00017_GLY  2.021318402281944
   00016_THR    00044_LEU  5.127401239893275e-06
   00016_THR    00079_GLN  7.780435680564014e-06
   00016_THR    00041_PRO  3.079273378283905e-05
   00017_GLY    00019_GLY  0.005102071444371316
   00017_GLY    00074_LEU  8.373687890866214e-05
   00017_GLY    00075_LYS  0.0005043053974841961
   00017_GLY    00081_VAL  9.828259933329363e-06
   00017_GLY    00040_GLY  0.00016769361119886895
   00017_GLY    00037_LEU  3.0666783449555076e-05
   00017_GLY    00018_LEU  1.976731347006988
   00017_GLY    00041_PRO  0.0005834861018947289
   00017_GLY    00071_ALA  1.8199000749342215e-05
   00017_GLY    00042_ALA  7.792232951249245e-05
   00017_GLY    00020_PHE  0.0001737203204982013
   00018_LEU    00033_ILE  5.3805010362808655e-06
   00018_LEU    00036_ILE  4.236651441229985e-05
   00018_LEU    00037_LEU  6.370568086162493e-05
   00018_LEU    00071_ALA  3.268018403293197e-05
   00018_LEU    00082_THR  9.719515343974922e-06
   00018_LEU    00021_ASN  2.205609941450659e-05
   00018_LEU    00045_SER  0.0002195107895579673
   00018_LEU    00044_LEU  7.860193580176921e-05
   00018_LEU    00022_ILE  7.906082338788345e-06
   00018_LEU    00076_ASN  1.0463306995532732e-05
   00018_LEU    00043_ASP  0.0006954630865769792
   00018_LEU    00047_GLU  0.0002339943354379335
   00018_LEU    00070_ALA  1.9291451940753137e-05
   00018_LEU    00019_GLY  2.0685439438894138
   00018_LEU    00048_LEU  4.300794238022734e-05
   00018_LEU    00054_ILE  4.100965614298903e-06
   00018_LEU    00075_LYS  0.0005592599802610224
   00018_LEU    00081_VAL  0.006758595721664879
   00018_LEU    00040_GLY  0.00036152811123703164
   00018_LEU    00057_VAL  1.0566580250514683e-05
   00018_LEU    00073_ALA  1.3136363146694443e-05
   00018_LEU    00083_ILE  0.0004064001607719119
   00018_LEU    00042_ALA  0.025669859443439115
   00018_LEU    00074_LEU  0.010002602925698942
   00018_LEU    00058_ASN  1.3195653824066602e-05
   00018_LEU    00077_ALA  1.9120122802528864e-05
   00018_LEU    00080_THR  4.9514064146909146e-05
   00018_LEU    00079_GLN  2.660577275255645e-05
   00018_LEU    00078_GLY  4.123270439113611e-05
   00018_LEU    00041_PRO  0.019699777337341066
   00018_LEU    00020_PHE  0.009772241357164682
   00019_GLY    00048_LEU  6.156884405790162e-05
   00019_GLY    00039_GLY  2.5412523049463577e-05
   00019_GLY    00033_ILE  1.8461323142352942e-05
   00019_GLY    00036_ILE  0.0068142349371163365
   00019_GLY    00037_LEU  0.047115057854432915
   00019_GLY    00042_ALA  0.002653276627028964
   00019_GLY    00074_LEU  1.3984882630488274e-05
   00019_GLY    00021_ASN  0.00022726728767342522
   00019_GLY    00038_ALA  7.537192679323269e-05
   00019_GLY    00044_LEU  2.7081273587106783e-05
   00019_GLY    00022_ILE  1.7618534218509862e-05
   00019_GLY    00043_ASP  0.0007628209092889346
   00019_GLY    00035_PHE  0.00024864085051658376
   00019_GLY    00041_PRO  0.00028793694003966176
   00019_GLY    00020_PHE  1.6402951264881704
   00019_GLY    00040_GLY  0.008461270675146413
   00020_PHE    00033_ILE  0.009435709327967685
   00020_PHE    00023_VAL  1.8325493071944204e-05
   00020_PHE    00085_ALA  2.371484747054128e-06
   00020_PHE    00036_ILE  0.005489939690725939
   00020_PHE    00037_LEU  0.003941584412336362
   00020_PHE    00082_THR  3.239176561452504e-06
   00020_PHE    00021_ASN  1.7551965136592107
   00020_PHE    00032_PHE  4.564515852102385e-05
   00020_PHE    00045_SER  1.4427405729828692e-05
   00020_PHE    00022_ILE  0.007288381705497065
   00020_PHE    00043_ASP  0.0005060147786783671
   00020_PHE    00047_GLU  0.0002123227473575863
   00020_PHE    00070_ALA  2.001040962723668e-05
   00020_PHE    00049_ARG  0.0001730170539668771
   00020_PHE    00048_LEU  0.004782131395077322
   00020_PHE    00054_ILE  -8.569566940684868e-06
   00020_PHE    00071_ALA  1.379308852491047e-05
   00020_PHE    00081_VAL  6.712988269557392e-06
   00020_PHE    00040_GLY  6.862394055519781e-05
   00020_PHE    00062_LEU  7.755298606707275e-07
   00020_PHE    00057_VAL  2.546372708484166e-06
   00020_PHE    00067_HID  1.4033137580002926e-05
   00020_PHE    00083_ILE  -5.80579533527014e-05
   00020_PHE    00031_ILE  5.680824303724424e-06
   00020_PHE    00034_SER  0.0001374334933124367
   00020_PHE    00042_ALA  0.01424441264659841
   00020_PHE    00074_LEU  0.003912737609381398
   00020_PHE    00077_ALA  1.4922030275654766e-06
   00020_PHE    00050_LYS  0.0002812433099099229
   00020_PHE    00052_ASP  0.0006287297912675986
   00020_PHE    00041_PRO  3.6918552139306445e-05
   00020_PHE    00035_PHE  0.0015160589162227945
   00021_ASN    00048_LEU  1.0459208917674534e-05
   00021_ASN    00054_ILE  4.107730305889857e-06
   00021_ASN    00071_ALA  1.7686685692552217e-05
   00021_ASN    00092_TYR  7.675016186487782e-05
   00021_ASN    00033_ILE  0.0020619373387366054
   00021_ASN    00034_SER  0.04993345658822263
   00021_ASN    00023_VAL  0.00032452938093222397
   00021_ASN    00067_HID  7.870022695176301e-05
   00021_ASN    00036_ILE  0.0002105108280154246
   00021_ASN    00024_GLY  5.0448105736213305e-05
   00021_ASN    00095_PHE  3.632750785266791e-05
   00021_ASN    00031_ILE  2.4301435381242882e-05
   00021_ASN    00098_NME  5.312401011520913e-06
   00021_ASN    00037_LEU  0.0010527822594854467
   00021_ASN    00074_LEU  5.914246035046531e-06
   00021_ASN    00032_PHE  0.0006094116056443275
   00021_ASN    00022_ILE  1.8168613244372054
   00021_ASN    00050_LYS  0.002752121439306002
   00021_ASN    00097_ALA  4.301304009386707e-06
   00021_ASN    00035_PHE  0.06212874091945556
   00022_ILE    00092_TYR  2.054733082989478e-05
   00022_ILE    00025_GLY  7.4899476179475735e-06
   00022_ILE    00033_ILE  -7.25873760453754e-05
   00022_ILE    00023_VAL  1.6323172071160554
   00022_ILE    00036_ILE  7.115762320277566e-06
   00022_ILE    00024_GLY  0.000244695867244691
   00022_ILE    00065_ALA  7.5150063237172855e-06
   00022_ILE    00053_GLN  3.970777115830565e-05
   00022_ILE    00032_PHE  0.009156230976144217
   00022_ILE    00070_ALA  0.0030065543062110654
   00022_ILE    00072_ILE  2.4559885948978018e-06
   00022_ILE    00068_GLU  0.0009329562881772927
   00022_ILE    00048_LEU  5.8621529735354146e-06
   00022_ILE    00054_ILE  4.4289607974131694e-05
   00022_ILE    00071_ALA  0.00036994384800569173
   00022_ILE    00030_GLY  1.3866824732021697e-05
   00022_ILE    00066_SER  2.9082986229369825e-05
   00022_ILE    00057_VAL  2.0037838466568146e-06
   00022_ILE    00067_HID  0.0034441829966612107
   00022_ILE    00073_ALA  3.8061955711075438e-06
   00022_ILE    00083_ILE  2.215515240174819e-06
   00022_ILE    00031_ILE  0.0017128696285874279
   00022_ILE    00069_GLN  1.063923784735086e-05
   00022_ILE    00034_SER  0.0004401733594606853
   00022_ILE    00074_LEU  0.0003885140016777155
   00022_ILE    00062_LEU  5.791970631426017e-06
   00022_ILE    00052_ASP  0.0004979289611865289
   00022_ILE    00035_PHE  0.00017751680701714377
   00023_VAL    00054_ILE  4.458030451533732e-05
   00023_VAL    00030_GLY  0.00047715503124654696
   00023_VAL    00092_TYR  4.003051422569465e-05
   00023_VAL    00025_GLY  0.00016133410316463163
   00023_VAL    00033_ILE  0.00030488866251091723
   00023_VAL    00098_NME  1.565265869485504e-05
   00023_VAL    00051_GLY  1.6523807889016025e-05
   00023_VAL    00067_HID  0.003339556251486724
   00023_VAL    00097_ALA  6.518385181781036e-06
   00023_VAL    00029_GLU  0.0002926479418407238
   00023_VAL    00095_PHE  0.035905524239591556
   00023_VAL    00031_ILE  0.002837448653046634
   00023_VAL    00034_SER  0.0029915517881628265
   00023_VAL    00024_GLY  1.6072285493343998
   00023_VAL    00065_ALA  4.271077895795422e-05
   00023_VAL    00053_GLN  0.00010096348661503569
   00023_VAL    00032_PHE  0.04694433063071384
   00023_VAL    00035_PHE  3.8529348809461265e-05
   00023_VAL    00068_GLU  0.0006258265734722459
   00023_VAL    00094_ARG  0.00039070748475965615
   00023_VAL    00050_LYS  0.0006388398848918696
   00023_VAL    00052_ASP  0.000634169328957522
   00023_VAL    00070_ALA  2.0427370353346606e-05
   00023_VAL    00066_SER  9.132839615419574e-05
   00023_VAL    00026_GLU  0.00040359163939829854
   00023_VAL    00096_GLU  0.0007557050771125395
   00024_GLY    00095_PHE  0.005730522830027804
   00024_GLY    00030_GLY  0.002643453025987186
   00024_GLY    00092_TYR  6.668616945174374e-06
   00024_GLY    00025_GLY  1.5082683582918222
   00024_GLY    00026_GLU  0.0023267973399881004
   00024_GLY    00028_GLY  6.296451025815724e-05
   00024_GLY    00067_HID  0.04455822444094807
   00024_GLY    00029_GLU  0.00031491026576951675
   00024_GLY    00031_ILE  0.0010879510158322996
   00024_GLY    00069_GLN  0.00014384826945951944
   00024_GLY    00034_SER  2.075661404085956e-05
   00024_GLY    00065_ALA  0.0004661715673289308
   00024_GLY    00053_GLN  4.1087739418435946e-05
   00024_GLY    00032_PHE  0.00021586019320724145
   00024_GLY    00094_ARG  0.00028754244635213213
   00024_GLY    00070_ALA  4.8914176965703965e-05
   00024_GLY    00068_GLU  0.001078645976642242
   00024_GLY    00066_SER  0.0019309173264828808
   00025_GLY    00095_PHE  0.0001280204771701982
   00025_GLY    00064_ASN  0.00033204013444694465
   00025_GLY    00030_GLY  0.0010744130086278655
   00025_GLY    00066_SER  0.01010941211213826
   00025_GLY    00028_GLY  0.0015784090601673013
   00025_GLY    00067_HID  0.0008174433829501269
   00025_GLY    00029_GLU  0.000590151876421719
   00025_GLY    00031_ILE  3.457987532897396e-05
   00025_GLY    00069_GLN  9.263043229125562e-05
   00025_GLY    00065_ALA  0.0006489321956661746
   00025_GLY    00053_GLN  2.5801394527438973e-05
   00025_GLY    00062_LEU  1.3280679626343084e-05
   00025_GLY    00063_ARG  8.072238387959768e-05
   00025_GLY    00094_ARG  0.00038190607949214274
   00025_GLY    00027_ASP  0.0014695715312653338
   00025_GLY    00032_PHE  9.33801362366003e-06
   00025_GLY    00068_GLU  0.00023684214221103802
   00025_GLY    00026_GLU  1.8315739022848783
   00025_GLY    00070_ALA  5.729400680237552e-06
   00026_GLU    00095_PHE  0.0007961077857910041
   00026_GLU    00064_ASN  0.001513217377109233
   00026_GLU    00030_GLY  0.0014698642728178306
   00026_GLU    00066_SER  0.003022522779725588
   00026_GLU    00028_GLY  0.01703621418277732
   00026_GLU    00067_HID  0.00207565835307835
   00026_GLU    00029_GLU  0.01642189936881803
   00026_GLU    00031_ILE  0.0003211131230543006
   00026_GLU    00069_GLN  0.002184404359778716
   00026_GLU    00065_ALA  0.0006691054952144619
   00026_GLU    00032_PHE  0.0003348197514581516
   00026_GLU    00094_ARG  0.002651671832422046
   00026_GLU    00027_ASP  1.6899873995129073
   00026_GLU    00068_GLU  0.0010775106498098152
   00027_ASP    00064_ASN  0.0031530614327336445
   00027_ASP    00030_GLY  0.0004587289776041106
   00027_ASP    00063_ARG  0.0005599502573327269
   00027_ASP    00066_SER  0.0004602421765135407
   00027_ASP    00094_ARG  0.006374972921445875
   00027_ASP    00028_GLY  2.067942071601821
   00027_ASP    00067_HID  0.00032817643086116864
   00027_ASP    00029_GLU  0.0199753920032383
   00027_ASP    00069_GLN  0.0004635201842322688
   00027_ASP    00065_ALA  0.00022117207019897302
   00028_GLY    00064_ASN  0.047826740942746984
   00028_GLY    00030_GLY  0.005250158765694733
   00028_GLY    00063_ARG  0.00036273669086566546
   00028_GLY    00066_SER  5.271143732573916e-05
   00028_GLY    00094_ARG  0.0006991914441112109
   00028_GLY    00067_HID  2.6027060073097782e-05
   00028_GLY    00029_GLU  1.8743955847337286
   00028_GLY    00031_ILE  2.676182044185383e-05
   00028_GLY    00032_PHE  1.0577645749156127e-05
   00028_GLY    00069_GLN  3.2732107743793065e-05
   00028_GLY    00088_LYS  0.0003226418373355057
   00028_GLY    00065_ALA  0.00020107107942160285
   00028_GLY    00053_GLN  0.0001766605792668437
   00028_GLY    00062_LEU  3.357280580055486e-05
   00029_GLU    00095_PHE  0.009128210121508225
   00029_GLU    00064_ASN  0.009503485558580051
   00029_GLU    00030_GLY  2.018173348165937
   00029_GLU    00066_SER  0.00033281342740692284
   00029_GLU    00067_HID  0.0002710293096094158
   00029_GLU    00031_ILE  0.0008741472436246458
   00029_GLU    00088_LYS  0.001973887599552329
   00029_GLU    00065_ALA  0.00046746992290879326
   00029_GLU    00053_GLN  0.010783683181674653
   00029_GLU    00062_LEU  0.0002421690208180174
   00029_GLU    00063_ARG  0.0017604117222451575
   00029_GLU    00094_ARG  0.1853547517998705
   00029_GLU    00086_GLN  0.00064913648907614
   00029_GLU    00032_PHE  0.0032412023933601135
   00029_GLU    00055_LEU  0.00034291912400441764
   00029_GLU    00091_GLU  0.00540070657769808
   00030_GLY    00054_ILE  0.0002693351663149625
   00030_GLY    00064_ASN  0.003148249443485124
   00030_GLY    00092_TYR  1.3111799499272894e-05
   00030_GLY    00066_SER  0.00015334348882390904
   00030_GLY    00067_HID  0.0001570240240326774
   00030_GLY    00095_PHE  0.001233611093679047
   00030_GLY    00031_ILE  1.2398683020234973
   00030_GLY    00088_LYS  0.0007822590026781627
   00030_GLY    00065_ALA  0.002040760310675079
   00030_GLY    00053_GLN  0.004916353907959978
   00030_GLY    00032_PHE  0.0011352888043546449
   00030_GLY    00063_ARG  0.0014361528375102686
   00030_GLY    00094_ARG  0.001272742146043517
   00030_GLY    00086_GLN  1.5959121243768447e-05
   00030_GLY    00062_LEU  0.00045611655348437954
   00030_GLY    00055_LEU  4.862389987804037e-05
   00030_GLY    00091_GLU  0.0003265180197819483
   00030_GLY    00070_ALA  1.0425127754492145e-05
   00031_ILE    00064_ASN  6.40734230122804e-05
   00031_ILE    00092_TYR  2.145780470497557e-05
   00031_ILE    00033_ILE  0.0002969658062240329
   00031_ILE    00054_ILE  0.014539677502982825
   00031_ILE    00055_LEU  9.24100105284394e-05
   00031_ILE    00088_LYS  0.0009095517650670412
   00031_ILE    00065_ALA  0.017074968201618444
   00031_ILE    00053_GLN  0.025313134769392905
   00031_ILE    00032_PHE  1.6481364717148324
   00031_ILE    00070_ALA  0.02039000632971755
   00031_ILE    00068_GLU  0.00027663286433908453
   00031_ILE    00095_PHE  0.00011635327347723688
   00031_ILE    00071_ALA  1.1120367792139137e-05
   00031_ILE    00066_SER  0.011991339873261867
   00031_ILE    00057_VAL  2.4398683251486813e-06
   00031_ILE    00067_HID  0.006389449712813715
   00031_ILE    00073_ALA  4.043406478596351e-06
   00031_ILE    00083_ILE  5.293116094749441e-06
   00031_ILE    00069_GLN  2.193014765334974e-05
   00031_ILE    00034_SER  2.8020509849154956e-05
   00031_ILE    00074_LEU  5.59147544114916e-06
   00031_ILE    00062_LEU  0.006307119921592889
   00031_ILE    00056_SER  2.689992681108566e-05
   00031_ILE    00063_ARG  0.00046273967143858
   00031_ILE    00094_ARG  0.00052443698661004
   00031_ILE    00052_ASP  0.0014529123791983656
   00031_ILE    00061_ASP  0.0004803428621399446
   00032_PHE    00095_PHE  0.007302435299026007
   00032_PHE    00088_LYS  0.017909561487332897
   00032_PHE    00092_TYR  0.017190801855376872
   00032_PHE    00033_ILE  1.8500390221094694
   00032_PHE    00051_GLY  0.003542321043717178
   00032_PHE    00090_GLU  0.0002595060984976549
   00032_PHE    00067_HID  8.896535408515556e-05
   00032_PHE    00085_ALA  1.7007511030795654e-05
   00032_PHE    00054_ILE  0.00048579887294425265
   00032_PHE    00055_LEU  1.2829009741393991e-05
   00032_PHE    00034_SER  0.0017651935340900916
   00032_PHE    00091_GLU  0.001174992417193911
   00032_PHE    00065_ALA  4.327335326023987e-05
   00032_PHE    00053_GLN  0.009535041601115757
   00032_PHE    00035_PHE  5.4035576279684766e-05
   00032_PHE    00066_SER  2.5599124990572176e-05
   00032_PHE    00087_TYR  7.346283925418485e-05
   00032_PHE    00094_ARG  0.002227649458426257
   00032_PHE    00063_ARG  0.0001592346197055777
   00032_PHE    00086_GLN  0.00012563366039523467
   00032_PHE    00050_LYS  0.0009241036998390473
   00032_PHE    00052_ASP  0.005426601019538132
   00032_PHE    00089_PRO  1.980571303350893e-05
   00032_PHE    00049_ARG  0.00020856203674878224
   00032_PHE    00093_SER  2.8794085534306586e-05
   00032_PHE    00096_GLU  0.0005806753253474703
   00033_ILE    00084_ILE  7.2549199298485055e-06
   00033_ILE    00048_LEU  0.007124536411062912
   00033_ILE    00054_ILE  0.008511380581607433
   00033_ILE    00092_TYR  0.0010851382930795888
   00033_ILE    00051_GLY  0.02455026662672374
   00033_ILE    00085_ALA  1.891473565519465e-05
   00033_ILE    00036_ILE  0.014085137338671495
   00033_ILE    00083_ILE  3.4373223407025366e-06
   00033_ILE    00034_SER  1.461783955163233
   00033_ILE    00037_LEU  1.276762957374787e-05
   00033_ILE    00042_ALA  9.784272103075555e-06
   00033_ILE    00074_LEU  2.6943674640103966e-06
   00033_ILE    00053_GLN  0.000453589137411155
   00033_ILE    00049_ARG  0.0035916310122727974
   00033_ILE    00057_VAL  8.341141582746765e-07
   00033_ILE    00087_TYR  5.4939807462698786e-05
   00033_ILE    00095_PHE  2.554146463643372e-05
   00033_ILE    00086_GLN  3.184812324570605e-05
   00033_ILE    00050_LYS  0.009991018091186188
   00033_ILE    00052_ASP  0.04096149347976714
   00033_ILE    00070_ALA  3.028517203931285e-06
   00033_ILE    00035_PHE  0.0017674328971190984
   00033_ILE    00096_GLU  0.0008034892951614146
   00034_SER    00095_PHE  0.00015385011796864085
   00034_SER    00092_TYR  0.00655678973945379
   00034_SER    00051_GLY  0.0003133187071535322
   00034_SER    00036_ILE  0.00011725457892862331
   00034_SER    00052_ASP  0.0011543323608446364
   00034_SER    00096_GLU  0.004614885675722671
   00034_SER    00054_ILE  2.4718449197149744e-06
   00034_SER    00098_NME  1.8155156225757735e-05
   00034_SER    00050_LYS  0.016894158142016853
   00034_SER    00097_ALA  1.181112047757807e-05
   00034_SER    00049_ARG  0.0004168473148732593
   00034_SER    00035_PHE  1.533676203996537
   00035_PHE    00038_ALA  2.212396583142293e-05
   00035_PHE    00048_LEU  2.766652765369712e-05
   00035_PHE    00092_TYR  6.832356990027739e-05
   00035_PHE    00051_GLY  3.88918473476591e-05
   00035_PHE    00050_LYS  0.00357476243649071
   00035_PHE    00098_NME  1.6307178008041817e-06
   00035_PHE    00037_LEU  0.005224280025425015
   00035_PHE    00042_ALA  1.4069118876369915e-05
   00035_PHE    00036_ILE  1.5319317454836812
   00035_PHE    00097_ALA  8.997185681961871e-07
   00035_PHE    00049_ARG  0.0005510053458468303
   00035_PHE    00096_GLU  0.0013061686652529833
   00036_ILE    00046_GLY  2.993351464008154e-05
   00036_ILE    00048_LEU  0.003099275193492202
   00036_ILE    00054_ILE  1.0659396567831231e-06
   00036_ILE    00039_GLY  4.5342394138596035e-05
   00036_ILE    00040_GLY  8.936380265447569e-05
   00036_ILE    00051_GLY  7.52965839726237e-06
   00036_ILE    00037_LEU  1.9472176674396184
   00036_ILE    00042_ALA  0.007832233888471688
   00036_ILE    00047_GLU  0.0001611730828001622
   00036_ILE    00038_ALA  0.0007547593610501597
   00036_ILE    00045_SER  3.058483351997299e-05
   00036_ILE    00044_LEU  2.1662285467188215e-05
   00036_ILE    00043_ASP  0.011112054288918516
   00036_ILE    00050_LYS  0.0018252483662938009
   00036_ILE    00052_ASP  0.000594530752826396
   00036_ILE    00041_PRO  1.3013707147680767e-05
   00036_ILE    00049_ARG  0.010754781398832548
   00037_LEU    00038_ALA  1.4523923666971232
   00037_LEU    00044_LEU  0.0001261932331288244
   00037_LEU    00039_GLY  0.0017412582129969466
   00037_LEU    00040_GLY  0.006279593602113361
   00037_LEU    00043_ASP  0.004311464939058254
   00037_LEU    00041_PRO  3.219548924341868e-05
   00037_LEU    00042_ALA  0.00026296181344016096
   00038_ALA    00044_LEU  7.957594423987892e-05
   00038_ALA    00039_GLY  1.4257455495294382
   00038_ALA    00040_GLY  0.009744195140256304
   00038_ALA    00043_ASP  0.004329555552132652
   00038_ALA    00042_ALA  2.6028392383498664e-05
   00039_GLY    00044_LEU  0.006985500075082875
   00039_GLY    00040_GLY  1.893393829295506
   00039_GLY    00043_ASP  0.06586101840914588
   00039_GLY    00041_PRO  0.00023040832066172954
   00039_GLY    00042_ALA  5.195424345464699e-05
   00040_GLY    00046_GLY  0.00014592114734468485
   00040_GLY    00045_SER  0.0008812955940877288
   00040_GLY    00044_LEU  0.02595320368585386
   00040_GLY    00043_ASP  0.03276707299169847
   00040_GLY    00041_PRO  1.2729055655123922
   00040_GLY    00042_ALA  0.0041392529744313416
   00041_PRO    00046_GLY  0.0008607561206083758
   00041_PRO    00048_LEU  4.17811806709089e-05
   00041_PRO    00045_SER  0.09380658875753212
   00041_PRO    00044_LEU  0.003353576062557926
   00041_PRO    00081_VAL  1.4741072365940538e-05
   00041_PRO    00043_ASP  0.00403617926384009
   00041_PRO    00083_ILE  2.597108455000178e-06
   00041_PRO    00042_ALA  2.1126825336115913
   00041_PRO    00074_LEU  6.083652018596848e-06
   00041_PRO    00047_GLU  0.0004013646205413977
   00042_ALA    00046_GLY  0.00813364444166345
   00042_ALA    00048_LEU  0.008376632966252321
   00042_ALA    00045_SER  0.008579392520582211
   00042_ALA    00044_LEU  0.0009951007161508533
   00042_ALA    00081_VAL  5.915433932194114e-06
   00042_ALA    00043_ASP  2.2024595457557536
   00042_ALA    00047_GLU  0.002962714214865612
   00042_ALA    00083_ILE  4.877957518366678e-06
   00042_ALA    00049_ARG  0.0003108743808348516
   00043_ASP    00046_GLY  0.014404760767887612
   00043_ASP    00048_LEU  0.0016505546518646122
   00043_ASP    00045_SER  0.006810535080110099
   00043_ASP    00044_LEU  1.7951980146913498
   00043_ASP    00049_ARG  0.0032015474417765497
   00043_ASP    00047_GLU  0.002798186651169327
   00044_LEU    00046_GLY  0.001746545555899137
   00044_LEU    00045_SER  1.8108375075896597
   00044_LEU    00047_GLU  0.0006284935342032544
   00045_SER    00046_GLY  2.3044758707530852
   00045_SER    00048_LEU  0.00020375980673078574
   00045_SER    00047_GLU  0.028073899805474093
   00045_SER    00083_ILE  7.148861812372188e-06
   00045_SER    00049_ARG  0.0005179477258118404
   00046_GLY    00048_LEU  0.0074608010251599076
   00046_GLY    00047_GLU  2.4566800396565163
   00046_GLY    00049_ARG  0.0014743122043041651
   00047_GLU    00048_LEU  2.138168347156036
   00047_GLU    00087_TYR  0.0007111123816736211
   00047_GLU    00085_ALA  0.0008959609966859089
   00047_GLU    00052_ASP  0.004689088063481857
   00047_GLU    00083_ILE  0.00071806954371208
   00047_GLU    00049_ARG  0.008652971876434197
   00048_LEU    00084_ILE  2.4225352083224296e-05
   00048_LEU    00054_ILE  0.0023813017621858363
   00048_LEU    00081_VAL  7.876399237336897e-06
   00048_LEU    00057_VAL  3.2777687338785178e-06
   00048_LEU    00085_ALA  5.4149094687526116e-05
   00048_LEU    00083_ILE  0.0021448673407781856
   00048_LEU    00055_LEU  1.064392522843464e-05
   00048_LEU    00074_LEU  3.866566124577374e-06
   00048_LEU    00082_THR  5.549981446410301e-06
   00048_LEU    00053_GLN  6.166067109640002e-05
   00048_LEU    00087_TYR  4.9449445350117875e-05
   00048_LEU    00086_GLN  2.5443944976919787e-05
   00048_LEU    00050_LYS  0.0004313762315254869
   00048_LEU    00052_ASP  0.01538965435478218
   00048_LEU    00049_ARG  1.8780533594797943
   00049_ARG    00054_ILE  0.00010318387788753021
   00049_ARG    00088_LYS  0.0022106776468262014
   00049_ARG    00087_TYR  0.018324342304151947
   00049_ARG    00092_TYR  0.0007444027780550465
   00049_ARG    00086_GLN  0.00103091090117665
   00049_ARG    00051_GLY  0.003639967646729369
   00049_ARG    00085_ALA  0.00034765883722476644
   00049_ARG    00050_LYS  1.5736349677141037
   00049_ARG    00052_ASP  0.12350033590147239
   00049_ARG    00089_PRO  0.0002422286338388692
   00049_ARG    00053_GLN  0.0004571053267539058
   00050_LYS    00095_PHE  0.001111105980187043
   00050_LYS    00088_LYS  0.0008399896546744924
   00050_LYS    00087_TYR  0.005434073386831716
   00050_LYS    00092_TYR  0.04326610069562064
   00050_LYS    00097_ALA  0.0009074162805503582
   00050_LYS    00051_GLY  1.7349103648745103
   00050_LYS    00052_ASP  0.009347812704773355
   00050_LYS    00098_NME  0.0004427088810541131
   00050_LYS    00089_PRO  0.00027765200700583746
   00050_LYS    00093_SER  0.0012009682236688364
   00050_LYS    00096_GLU  0.20844233317473063
   00051_GLY    00095_PHE  2.4705614797109223e-05
   00051_GLY    00088_LYS  0.017593733216752755
   00051_GLY    00092_TYR  0.0036439895006351174
   00051_GLY    00090_GLU  0.00039106478431245395
   00051_GLY    00053_GLN  0.0009896343055749656
   00051_GLY    00087_TYR  0.007153012247188197
   00051_GLY    00089_PRO  0.0002889186987170242
   00051_GLY    00086_GLN  0.0003801655925587835
   00051_GLY    00052_ASP  1.6660911466686505
   00051_GLY    00091_GLU  0.00021474236823501266
   00051_GLY    00093_SER  2.361067337690034e-05
   00051_GLY    00096_GLU  0.0009195502790136848
   00052_ASP    00084_ILE  0.0007107189980853273
   00052_ASP    00054_ILE  0.0020529160905914333
   00052_ASP    00088_LYS  0.004881105678221923
   00052_ASP    00087_TYR  0.02716460191403167
   00052_ASP    00092_TYR  0.0015580597211714013
   00052_ASP    00086_GLN  0.009253660544780499
   00052_ASP    00085_ALA  0.003992123510957505
   00052_ASP    00083_ILE  0.000439937073663237
   00052_ASP    00055_LEU  0.0007388376888214582
   00052_ASP    00089_PRO  0.0002650600539693401
   00052_ASP    00053_GLN  1.8373541350909015
   00053_GLN    00084_ILE  0.0003713696130151494
   00053_GLN    00054_ILE  1.5839924389363806
   00053_GLN    00064_ASN  0.0007018884728552827
   00053_GLN    00092_TYR  8.97931207647368e-05
   00053_GLN    00085_ALA  0.007337611926336912
   00053_GLN    00095_PHE  4.562976336406659e-05
   00053_GLN    00055_LEU  0.007731819964971033
   00053_GLN    00088_LYS  0.06268217018621014
   00053_GLN    00065_ALA  0.0002498841345599144
   00053_GLN    00091_GLU  0.001727419655625879
   00053_GLN    00062_LEU  0.0007665966156678047
   00053_GLN    00056_SER  0.00012861959339270255
   00053_GLN    00087_TYR  0.0003093197258795962
   00053_GLN    00063_ARG  0.01129295999492391
   00053_GLN    00094_ARG  0.0039096550595314914
   00053_GLN    00086_GLN  0.03459823301585541
   00053_GLN    00083_ILE  3.5729405972745916e-05
   00053_GLN    00089_PRO  8.393007912815218e-06
   00054_ILE    00084_ILE  0.0018125820711598982
   00054_ILE    00064_ASN  7.732666788630466e-05
   00054_ILE    00081_VAL  4.7705975684065514e-06
   00054_ILE    00071_ALA  4.989628070520102e-06
   00054_ILE    00057_VAL  0.0009231706784048374
   00054_ILE    00067_HID  1.427048759797337e-05
   00054_ILE    00085_ALA  -0.0008601957149255628
   00054_ILE    00073_ALA  7.110778896540331e-06
   00054_ILE    00083_ILE  0.010002977890875604
   00054_ILE    00055_LEU  1.4724061417606928
   00054_ILE    00088_LYS  0.0009569784098288771
   00054_ILE    00074_LEU  2.4003961596835294e-05
   00054_ILE    00082_THR  1.2440346089235764e-05
   00054_ILE    00062_LEU  0.0017210690607033156
   00054_ILE    00056_SER  0.001504986588242073
   00054_ILE    00065_ALA  8.52396961750653e-05
   00054_ILE    00060_VAL  2.8740069407666083e-05
   00054_ILE    00063_ARG  0.001360964983409371
   00054_ILE    00086_GLN  0.0002360311328592589
   00054_ILE    00070_ALA  3.366412420123217e-05
   00054_ILE    00061_ASP  0.0005773955475293122
   00055_LEU    00084_ILE  0.11290866844773459
   00055_LEU    00064_ASN  0.00010266442138862192
   00055_LEU    00088_LYS  0.0023372378138449743
   00055_LEU    00057_VAL  0.00015473172354077367
   00055_LEU    00085_ALA  0.002743211729234604
   00055_LEU    00083_ILE  0.00017782572760045837
   00055_LEU    00059_GLY  3.588852234240072e-05
   00055_LEU    00065_ALA  5.1801962445031564e-05
   00055_LEU    00062_LEU  0.018692540338900932
   00055_LEU    00056_SER  1.871691043363619
   00055_LEU    00087_TYR  1.1984287605414086e-05
   00055_LEU    00060_VAL  0.0002061556718091924
   00055_LEU    00063_ARG  0.0280632078093784
   00055_LEU    00086_GLN  0.00651374012534386
   00055_LEU    00061_ASP  0.004328978431541935
   00056_SER    00084_ILE  0.023241466487065775
   00056_SER    00059_GLY  0.003167347227744534
   00056_SER    00081_VAL  2.610537882159576e-05
   00056_SER    00057_VAL  1.5756258581553682
   00056_SER    00085_ALA  0.00016890187849890549
   00056_SER    00073_ALA  2.2075053341455853e-05
   00056_SER    00083_ILE  0.001990982861761905
   00056_SER    00074_LEU  2.478996532622521e-05
   00056_SER    00082_THR  0.0007358946021337645
   00056_SER    00058_ASN  0.0008660958260105248
   00056_SER    00062_LEU  0.0023343324855426726
   00056_SER    00060_VAL  0.015483633799468068
   00056_SER    00063_ARG  0.019629152014463844
   00056_SER    00086_GLN  3.565438710460173e-05
   00056_SER    00070_ALA  1.8445897837232614e-05
   00056_SER    00061_ASP  0.0032271998381248747
   00057_VAL    00084_ILE  0.00016710359453158349
   00057_VAL    00059_GLY  0.011118644937686982
   00057_VAL    00081_VAL  0.006666683507981061
   00057_VAL    00061_ASP  0.00131361812579136
   00057_VAL    00085_ALA  5.734382800725836e-06
   00057_VAL    00073_ALA  0.0011758767181599332
   00057_VAL    00083_ILE  0.007006536828355687
   00057_VAL    00069_GLN  3.245680115113714e-05
   00057_VAL    00071_ALA  9.983832017373937e-06
   00057_VAL    00080_THR  1.737769168719812e-05
   00057_VAL    00074_LEU  0.005047991137724317
   00057_VAL    00082_THR  0.004257896197082014
   00057_VAL    00058_ASN  1.7586456452405383
   00057_VAL    00062_LEU  0.009199365910542188
   00057_VAL    00065_ALA  5.901847404859339e-06
   00057_VAL    00060_VAL  0.026828832831321692
   00057_VAL    00063_ARG  0.001133378969570351
   00057_VAL    00076_ASN  7.265372213729916e-05
   00057_VAL    00078_GLY  8.569403622346804e-06
   00057_VAL    00077_ALA  2.0954054804559355e-05
   00057_VAL    00072_ILE  1.5105777633122383e-05
   00057_VAL    00075_LYS  0.00021731491539943998
   00057_VAL    00070_ALA  0.0001678758635015132
   00058_ASN    00084_ILE  0.00016440392363979684
   00058_ASN    00075_LYS  0.0008718865131653733
   00058_ASN    00081_VAL  0.0067416925219034906
   00058_ASN    00073_ALA  0.005144364580103492
   00058_ASN    00083_ILE  0.00024989669017803717
   00058_ASN    00059_GLY  1.7496393126201206
   00058_ASN    00080_THR  0.0022994952818076813
   00058_ASN    00074_LEU  0.00018773194025995449
   00058_ASN    00082_THR  0.10582582545606138
   00058_ASN    00077_ALA  0.005085077137817183
   00058_ASN    00060_VAL  0.0050281124611160815
   00058_ASN    00076_ASN  0.0014361763884601188
   00058_ASN    00079_GLN  5.4666274923807056e-05
   00058_ASN    00078_GLY  0.0017148780668549257
   00058_ASN    00062_LEU  6.282010798467832e-06
   00058_ASN    00072_ILE  6.334312982445374e-05
   00058_ASN    00070_ALA  6.472819688026251e-05
   00059_GLY    00084_ILE  3.952229785794858e-05
   00059_GLY    00060_VAL  2.082708938098282
   00059_GLY    00081_VAL  1.5801662191331117e-05
   00059_GLY    00076_ASN  8.532985337311864e-06
   00059_GLY    00073_ALA  7.737944597251955e-06
   00059_GLY    00083_ILE  4.5270332693334604e-05
   00059_GLY    00062_LEU  3.171515542296255e-05
   00059_GLY    00061_ASP  0.0028278347864167243
   00059_GLY    00082_THR  0.00025000359055110254
   00059_GLY    00077_ALA  3.321855114171921e-06
   00059_GLY    00063_ARG  0.0018057331096001026
   00060_VAL    00084_ILE  5.9446786017369484e-05
   00060_VAL    00072_ILE  1.5255221711464614e-05
   00060_VAL    00073_ALA  0.0007777418576334359
   00060_VAL    00083_ILE  3.469469685908058e-05
   00060_VAL    00069_GLN  6.705535705720217e-05
   00060_VAL    00065_ALA  1.865489364190795e-05
   00060_VAL    00082_THR  4.147517008056671e-05
   00060_VAL    00062_LEU  0.018124351247150967
   00060_VAL    00074_LEU  1.1541865814556628e-05
   00060_VAL    00063_ARG  0.002376037507226661
   00060_VAL    00076_ASN  5.127573885037522e-05
   00060_VAL    00077_ALA  4.890351725097327e-06
   00060_VAL    00061_ASP  1.3681562704872043
   00060_VAL    00070_ALA  2.5657187034184752e-05
   00061_ASP    00084_ILE  0.0004950234582149985
   00061_ASP    00064_ASN  0.01199087019373805
   00061_ASP    00063_ARG  0.27680235445795387
   00061_ASP    00073_ALA  0.00025290423822275395
   00061_ASP    00070_ALA  0.00030689182592576663
   00061_ASP    00069_GLN  0.0020422039753481736
   00061_ASP    00065_ALA  0.0030375929910836617
   00061_ASP    00062_LEU  1.7231984910161655
   00062_LEU    00084_ILE  5.1176278170838664e-05
   00062_LEU    00064_ASN  0.004343685700050792
   00062_LEU    00066_SER  0.00035770507192493464
   00062_LEU    00067_HID  3.8268009444522e-05
   00062_LEU    00073_ALA  0.00019567995423802414
   00062_LEU    00083_ILE  2.131606723099851e-05
   00062_LEU    00069_GLN  0.00033993810292889693
   00062_LEU    00071_ALA  8.933985969452578e-06
   00062_LEU    00065_ALA  0.03194231984439702
   00062_LEU    00074_LEU  4.739168851063302e-06
   00062_LEU    00063_ARG  1.7364040720934
   00062_LEU    00070_ALA  0.0022804042804234594
   00062_LEU    00072_ILE  1.9708260264043185e-05
   00062_LEU    00068_GLU  0.0003044147223522779
   00063_ARG    00084_ILE  0.0025580006608770193
   00063_ARG    00065_ALA  0.0032469916747252807
   00063_ARG    00088_LYS  0.00529910107437125
   00063_ARG    00064_ASN  1.9371715521851804
   00063_ARG    00086_GLN  0.001960181270709758
   00063_ARG    00091_GLU  0.0006950706202070418
   00064_ASN    00069_GLN  0.0003545089270212798
   00064_ASN    00066_SER  0.00016804831909485589
   00064_ASN    00065_ALA  2.378083997674415
   00065_ALA    00071_ALA  1.5765526601305875e-05
   00065_ALA    00066_SER  1.7132863879961213
   00065_ALA    00067_HID  0.0005110565857278117
   00065_ALA    00073_ALA  1.1393131359406224e-05
   00065_ALA    00070_ALA  0.00011132449760325377
   00065_ALA    00069_GLN  0.001943876751772697
   00065_ALA    00068_GLU  0.0002771080296025671
   00066_SER    00071_ALA  0.0004134732741308216
   00066_SER    00067_HID  1.7249684265110228
   00066_SER    00070_ALA  0.012403501464972875
   00066_SER    00069_GLN  0.03342640808472136
   00066_SER    00072_ILE  8.68021533765897e-05
   00066_SER    00068_GLU  0.002496026271173092
   00067_HID    00095_PHE  3.2033025286769785e-05
   00067_HID    00071_ALA  0.01727452187763094
   00067_HID    00073_ALA  6.0345071514961026e-05
   00067_HID    00070_ALA  0.006385854610956183
   00067_HID    00069_GLN  0.0015072022133900617
   00067_HID    00072_ILE  0.00022149976219348422
   00067_HID    00074_LEU  8.703343020156861e-05
   00067_HID    00068_GLU  1.7776318740489603
   00068_GLU    00071_ALA  0.012904379011841364
   00068_GLU    00073_ALA  0.0013220868762659603
   00068_GLU    00070_ALA  0.003744434217467992
   00068_GLU    00069_GLN  2.0110419795718806
   00068_GLU    00072_ILE  0.016028000578235394
   00068_GLU    00075_LYS  0.002144025606015556
   00068_GLU    00074_LEU  0.0008812110918473253
   00069_GLN    00075_LYS  0.000910655564421366
   00069_GLN    00076_ASN  0.0001535069277804
   00069_GLN    00073_ALA  0.008149721141195823
   00069_GLN    00070_ALA  2.199308852182403
   00069_GLN    00072_ILE  0.017148041926821237
   00069_GLN    00071_ALA  0.0009142842855899812
   00069_GLN    00074_LEU  0.00017977217017164904
   00070_ALA    00075_LYS  0.0010073012325173972
   00070_ALA    00076_ASN  0.00013797250056744078
   00070_ALA    00073_ALA  0.006963818058655384
   00070_ALA    00083_ILE  5.854488800040323e-06
   00070_ALA    00072_ILE  0.003062012140369307
   00070_ALA    00071_ALA  2.0823215394428924
   00070_ALA    00074_LEU  0.026499029089649843
   00071_ALA    00075_LYS  0.01214190621002032
   00071_ALA    00076_ASN  0.00030107921754496267
   00071_ALA    00073_ALA  0.0012446250077109455
   00071_ALA    00072_ILE  2.1744873275193783
   00071_ALA    00074_LEU  0.0014479868011743832
   00071_ALA    00077_ALA  3.89900832227194e-05
   00072_ILE    00075_LYS  0.026649518262782262
   00072_ILE    00076_ASN  0.028522320358507852
   00072_ILE    00073_ALA  2.022872747976614
   00072_ILE    00074_LEU  0.0025642488364999152
   00072_ILE    00077_ALA  0.00022722876237829737
   00073_ALA    00075_LYS  0.0030431395201167815
   00073_ALA    00081_VAL  6.127201185947168e-05
   00073_ALA    00076_ASN  0.004442031661547947
   00073_ALA    00078_GLY  5.339643065820241e-05
   00073_ALA    00074_LEU  2.146592634527185
   00073_ALA    00077_ALA  0.0016569646875465656
   00074_LEU    00084_ILE  5.363106638104921e-06
   00074_LEU    00075_LYS  2.208416766175515
   00074_LEU    00081_VAL  0.003814551591370563
   00074_LEU    00076_ASN  0.0009530106845810648
   00074_LEU    00079_GLN  2.922722104529534e-05
   00074_LEU    00078_GLY  0.0001040901668456724
   00074_LEU    00083_ILE  0.00024257743894396698
   00074_LEU    00082_THR  3.6334703405519854e-05
   00074_LEU    00080_THR  3.629452044748627e-05
   00074_LEU    00077_ALA  0.006356908214055457
   00075_LYS    00078_GLY  0.000163985337846347
   00075_LYS    00081_VAL  0.0001648417495644727
   00075_LYS    00076_ASN  1.9995653604409083
   00075_LYS    00077_ALA  0.010015348610499257
   00076_ASN    00078_GLY  0.0003430986705238667
   00076_ASN    00081_VAL  2.2516341068966197e-05
   00076_ASN    00080_THR  3.341946445359163e-05
   00076_ASN    00077_ALA  2.104469473630547
   00077_ALA    00083_ILE  4.741356120504614e-06
   00077_ALA    00081_VAL  0.015887511187416357
   00077_ALA    00079_GLN  0.0005393457741125743
   00077_ALA    00078_GLY  1.410714417087779
   00077_ALA    00080_THR  0.00039598023972117297
   00077_ALA    00082_THR  7.908961383322472e-05
   00078_GLY    00081_VAL  0.0009065818188949393
   00078_GLY    00080_THR  0.006522352725604519
   00078_GLY    00082_THR  5.9870658800803117e-05
   00078_GLY    00079_GLN  1.9071668546389953
   00079_GLN    00081_VAL  0.0002032052268947478
   00079_GLN    00080_THR  2.0415498529111256
   00080_THR    00081_VAL  1.6621651509313664
   00080_THR    00083_ILE  2.3710046792470467e-05
   00080_THR    00082_THR  0.0010836475047887064
   00081_VAL    00084_ILE  1.4486702423883593e-05
   00081_VAL    00083_ILE  0.0035387869660957957
   00081_VAL    00082_THR  1.717429258972104
   00082_THR    00084_ILE  0.00040131696728984575
   00082_THR    00083_ILE  1.8301706399470001
   00083_ILE    00084_ILE  1.9012641150039051
   00083_ILE    00086_GLN  2.0318050947157684e-05
   00083_ILE    00085_ALA  0.0008341649416657855
   00084_ILE    00086_GLN  0.00025319173810638796
   00084_ILE    00085_ALA  1.84908734215228
   00085_ALA    00086_GLN  2.0712629581047954
   00085_ALA    00088_LYS  0.0006137444955784574
   00085_ALA    00087_TYR  0.0004791149766430435
   00086_GLN    00088_LYS  0.027147267585373492
   00086_GLN    00087_TYR  1.7849715400579351
   00086_GLN    00091_GLU  0.0013480903647235803
   00086_GLN    00089_PRO  1.7503568613646716e-05
   00087_TYR    00088_LYS  1.8654340360061366
   00087_TYR    00092_TYR  8.546126263872785e-05
   00087_TYR    00089_PRO  0.012622296296298451
   00087_TYR    00090_GLU  0.001976955345962337
   00087_TYR    00091_GLU  0.0004673037621108094
   00088_LYS    00095_PHE  0.0007374770744558312
   00088_LYS    00092_TYR  0.012792577640984858
   00088_LYS    00091_GLU  0.01545668991513652
   00088_LYS    00094_ARG  0.018528299976198332
   00088_LYS    00090_GLU  0.007168932877171074
   00088_LYS    00089_PRO  1.3119359056719218
   00088_LYS    00093_SER  0.0007069625245916577
   00089_PRO    00095_PHE  5.3957451526217415e-05
   00089_PRO    00092_TYR  0.00822063385124484
   00089_PRO    00094_ARG  0.000387896660630481
   00089_PRO    00090_GLU  1.8644513500887316
   00089_PRO    00091_GLU  0.002774362759067218
   00089_PRO    00093_SER  0.0060052151967607435
   00089_PRO    00096_GLU  0.0002629292579002287
   00090_GLU    00095_PHE  0.0008192286738402153
   00090_GLU    00092_TYR  0.003094901893902783
   00090_GLU    00094_ARG  0.00779526904329811
   00090_GLU    00091_GLU  2.1112391394694905
   00090_GLU    00093_SER  0.2084055820163349
   00091_GLU    00095_PHE  0.006286897717510561
   00091_GLU    00092_TYR  2.0993673372396344
   00091_GLU    00094_ARG  0.3032476578343182
   00091_GLU    00093_SER  0.013172881047155591
   00091_GLU    00096_GLU  0.0011686688158834664
   00092_TYR    00095_PHE  0.023707135259014737
   00092_TYR    00094_ARG  0.011070328664414613
   00092_TYR    00098_NME  0.0001211428936217683
   00092_TYR    00097_ALA  0.0004581448795295008
   00092_TYR    00093_SER  2.1261885454587177
   00092_TYR    00096_GLU  0.36170552002602063
   00093_SER    00095_PHE  0.002233684674625938
   00093_SER    00094_ARG  2.4069713150571834
   00093_SER    00098_NME  0.00017420226792313055
   00093_SER    00097_ALA  0.011631623868776298
   00093_SER    00096_GLU  0.005036056224994694
   00094_ARG    00095_PHE  2.177278383925661
   00094_ARG    00098_NME  0.002162201559532996
   00094_ARG    00097_ALA  0.007493203425247962
   00094_ARG    00096_GLU  0.0050801755608540266
   00095_PHE    00098_NME  0.004240932632880463
   00095_PHE    00097_ALA  0.008098433873261646
   00095_PHE    00096_GLU  2.0270352467906094
   00096_GLU    00097_ALA  1.996267531586744
   00096_GLU    00098_NME  0.00629516684351072
   00097_ALA    00098_NME  2.412628549938796
