   00001_ACE    00046_GLY  1.1932456173940094e-05
   00001_ACE    00002_ILE  1.0818484565436604
   00001_ACE    00087_TYR  3.293742807385175e-05
   00001_ACE    00049_ARG  0.0008054392831547083
   00001_ACE    00004_ARG  0.00033627907709047976
   00001_ACE    00007_ARG  0.0003896751314314211
   00001_ACE    00003_PRO  0.0004866511808322331
   00001_ACE    00089_PRO  1.1628363064349494e-06
   00001_ACE    00047_GLU  0.00033756251074834695
   00002_ILE    00046_GLY  2.184048921284875e-05
   00002_ILE    00048_LEU  1.3585157324803499e-05
   00002_ILE    00088_LYS  0.00014888683042266155
   00002_ILE    00051_GLY  3.267882464433058e-06
   00002_ILE    00085_ALA  5.7401836427629466e-06
   00002_ILE    00036_ILE  4.6112613844605286e-07
   00002_ILE    00004_ARG  0.0024998574781052384
   00002_ILE    00007_ARG  0.00373433181282807
   00002_ILE    00009_ILE  1.833595296351414e-06
   00002_ILE    00005_GLU  0.0006258779277841868
   00002_ILE    00047_GLU  0.0005562829533794959
   00002_ILE    00045_SER  3.4344097633255296e-06
   00002_ILE    00087_TYR  0.004694221179206746
   00002_ILE    00086_GLN  4.021859551072021e-05
   00002_ILE    00050_LYS  4.3524420631609844e-05
   00002_ILE    00052_ASP  0.001030791897642173
   00002_ILE    00006_PRO  6.650885564614669e-06
   00002_ILE    00003_PRO  1.2961713203210798
   00002_ILE    00089_PRO  7.322327519026901e-06
   00002_ILE    00049_ARG  0.005317594725516266
   00003_PRO    00088_LYS  0.00018455694855102397
   00003_PRO    00087_TYR  0.0014123456215103542
   00003_PRO    00086_GLN  0.00031808580804097285
   00003_PRO    00085_ALA  3.1007372864685724e-05
   00003_PRO    00047_GLU  0.00020334309723768755
   00003_PRO    00004_ARG  1.2871960785710959
   00003_PRO    00052_ASP  0.0007002272732388336
   00003_PRO    00007_ARG  0.004999279480622137
   00003_PRO    00006_PRO  5.52605463019206e-05
   00003_PRO    00008_ARG  2.807646565646563e-05
   00003_PRO    00009_ILE  1.7155874524664364e-06
   00003_PRO    00005_GLU  0.004573944266167059
   00003_PRO    00049_ARG  0.0003045544837859937
   00004_ARG    00088_LYS  0.012703113402935362
   00004_ARG    00087_TYR  0.016811686916162596
   00004_ARG    00089_PRO  0.005164082547716768
   00004_ARG    00086_GLN  0.012782290694828287
   00004_ARG    00090_GLU  0.13884242454622409
   00004_ARG    00085_ALA  0.00016583111268159582
   00004_ARG    00007_ARG  0.0050059597295930925
   00004_ARG    00006_PRO  0.0003149491338081788
   00004_ARG    00055_LEU  9.021683458150904e-05
   00004_ARG    00005_GLU  1.476706815819859
   00004_ARG    00091_GLU  0.007068540676198221
   00005_GLU    00084_ILE  0.0001620134891297087
   00005_GLU    00088_LYS  0.0017281857671852885
   00005_GLU    00087_TYR  0.0015356728100383542
   00005_GLU    00086_GLN  0.008646588785637253
   00005_GLU    00085_ALA  0.000777827019136152
   00005_GLU    00007_ARG  0.007012006360916831
   00005_GLU    00006_PRO  1.3514263186695523
   00005_GLU    00055_LEU  0.00024798356922208425
   00005_GLU    00008_ARG  0.000704074358747743
   00006_PRO    00084_ILE  0.00012314855948068924
   00006_PRO    00088_LYS  0.00017253590263473792
   00006_PRO    00087_TYR  5.270298327969955e-05
   00006_PRO    00063_ARG  0.00047423293402855285
   00006_PRO    00086_GLN  0.004686696949790666
   00006_PRO    00085_ALA  0.001981933548307151
   00006_PRO    00052_ASP  0.0002329052041002674
   00006_PRO    00007_ARG  1.1469008145488273
   00006_PRO    00055_LEU  0.0020261175544257475
   00006_PRO    00009_ILE  9.393186690812982e-06
   00006_PRO    00008_ARG  0.00018284246856627655
   00006_PRO    00053_GLN  3.6852420961340526e-05
   00007_ARG    00084_ILE  0.002510063959349835
   00007_ARG    00046_GLY  0.001083710186713196
   00007_ARG    00048_LEU  0.007252848627510624
   00007_ARG    00054_ILE  0.0003510369642822874
   00007_ARG    00088_LYS  0.0031439367839851398
   00007_ARG    00033_ILE  0.0003346590913872977
   00007_ARG    00051_GLY  0.0008537796810565693
   00007_ARG    00085_ALA  0.017131302762855315
   00007_ARG    00036_ILE  0.00018257765368936244
   00007_ARG    00083_ILE  0.0005946090935031211
   00007_ARG    00055_LEU  0.00046789577536856115
   00007_ARG    00009_ILE  0.0038133509884217317
   00007_ARG    00082_THR  0.00021198368058150606
   00007_ARG    00053_GLN  0.002025699566446176
   00007_ARG    00087_TYR  0.011712889675104551
   00007_ARG    00086_GLN  0.010032628577885368
   00007_ARG    00047_GLU  0.03454571386438068
   00007_ARG    00052_ASP  0.12379788341237398
   00007_ARG    00008_ARG  1.0899836328580401
   00007_ARG    00049_ARG  0.013202843373835533
   00008_ARG    00084_ILE  0.007672094436289643
   00008_ARG    00048_LEU  0.00016621217002351293
   00008_ARG    00059_GLY  0.00045377719584281017
   00008_ARG    00081_VAL  0.0008015809145771905
   00008_ARG    00085_ALA  0.0007419961335257773
   00008_ARG    00083_ILE  0.004214235668912051
   00008_ARG    00009_ILE  1.1088370236016636
   00008_ARG    00080_THR  0.0006437550470429034
   00008_ARG    00082_THR  0.008221553471137368
   00008_ARG    00047_GLU  0.0037378201037680087
   00008_ARG    00010_VAL  0.00568437406641551
   00008_ARG    00056_SER  0.0007402973662287692
   00008_ARG    00063_ARG  0.0010057350162406419
   00008_ARG    00058_ASN  0.0012077732905596285
   00009_ILE    00084_ILE  0.0002049625421478396
   00009_ILE    00046_GLY  7.290100228721236e-06
   00009_ILE    00048_LEU  0.003922285674097347
   00009_ILE    00054_ILE  4.5275390199542415e-06
   00009_ILE    00056_SER  2.6219405834419372e-05
   00009_ILE    00081_VAL  0.0004989589254152835
   00009_ILE    00033_ILE  6.455651572714719e-07
   00009_ILE    00085_ALA  0.0009900285491402003
   00009_ILE    00057_VAL  1.6213339468620357e-05
   00009_ILE    00083_ILE  0.02047265782879751
   00009_ILE    00055_LEU  8.607737872887227e-06
   00009_ILE    00018_LEU  5.995971602534023e-06
   00009_ILE    00042_ALA  4.196916220788662e-06
   00009_ILE    00082_THR  0.0020046151530607377
   00009_ILE    00047_GLU  0.006582443337640652
   00009_ILE    00011_ILE  0.0016250512378924813
   00009_ILE    00045_SER  2.55696355352429e-05
   00009_ILE    00087_TYR  1.0881273825864695e-06
   00009_ILE    00012_HIE  1.6527287207885424e-05
   00009_ILE    00086_GLN  2.9494410053340034e-06
   00009_ILE    00052_ASP  0.0005215089673353631
   00009_ILE    00010_VAL  1.2032716768599137
   00009_ILE    00041_PRO  5.170735902964988e-06
   00009_ILE    00020_PHE  1.5222745466338778e-06
   00009_ILE    00049_ARG  7.07725339311142e-05
   00010_VAL    00084_ILE  4.3388222080861525e-06
   00010_VAL    00048_LEU  7.001060868297607e-06
   00010_VAL    00081_VAL  0.002285783811471438
   00010_VAL    00083_ILE  0.00017514839398813557
   00010_VAL    00080_THR  0.0034391136581526024
   00010_VAL    00018_LEU  7.383869250449631e-06
   00010_VAL    00042_ALA  2.833462676978294e-06
   00010_VAL    00082_THR  0.0038418842979553243
   00010_VAL    00058_ASN  1.9218601759728335e-05
   00010_VAL    00011_ILE  1.1755341217627453
   00010_VAL    00045_SER  3.8888971141463034e-05
   00010_VAL    00012_HIE  0.00013516972893932536
   00010_VAL    00079_GLN  1.659622826147245e-05
   00010_VAL    00047_GLU  0.0015895044877808214
   00010_VAL    00041_PRO  6.853561890957495e-06
   00011_ILE    00046_GLY  6.641415174557332e-06
   00011_ILE    00043_ASP  0.00010037996685862495
   00011_ILE    00033_ILE  4.5307474671578025e-07
   00011_ILE    00013_ARG  0.0015731637374410221
   00011_ILE    00085_ALA  1.0680691011128443e-06
   00011_ILE    00036_ILE  9.53320803718547e-07
   00011_ILE    00082_THR  0.00017396158437698193
   00011_ILE    00042_ALA  0.00028042435128291333
   00011_ILE    00017_GLY  7.629827497032066e-06
   00011_ILE    00045_SER  0.0016933960289736366
   00011_ILE    00044_LEU  1.0538681396831969e-05
   00011_ILE    00012_HIE  1.1030417288135015
   00011_ILE    00047_GLU  0.0005688314005378934
   00011_ILE    00014_GLY  3.687684346844027e-05
   00011_ILE    00019_GLY  2.1010008601215704e-06
   00011_ILE    00048_LEU  0.0001344805389112327
   00011_ILE    00054_ILE  1.3000915611574215e-06
   00011_ILE    00016_THR  1.928435569246582e-05
   00011_ILE    00081_VAL  0.013229133294611348
   00011_ILE    00040_GLY  5.273252837792716e-06
   00011_ILE    00057_VAL  6.126217120129115e-06
   00011_ILE    00083_ILE  0.0003412845818861713
   00011_ILE    00018_LEU  0.004678622359078987
   00011_ILE    00080_THR  0.002488017110645105
   00011_ILE    00074_LEU  8.34362319325675e-06
   00011_ILE    00058_ASN  2.0643363008877005e-05
   00011_ILE    00077_ALA  1.2093596240076469e-05
   00011_ILE    00079_GLN  0.0003294994229838974
   00011_ILE    00078_GLY  5.674445581613132e-05
   00011_ILE    00041_PRO  0.0026363267745802593
   00011_ILE    00020_PHE  3.3339666279999537e-06
   00012_HIE    00016_THR  0.00017623254064177483
   00012_HIE    00081_VAL  0.0002598578850790817
   00012_HIE    00013_ARG  1.049242803937618
   00012_HIE    00042_ALA  6.829187586254144e-05
   00012_HIE    00018_LEU  9.032137005980129e-05
   00012_HIE    00080_THR  0.007106031511494866
   00012_HIE    00047_GLU  0.00031639270387590816
   00012_HIE    00015_SER  8.038041476577916e-05
   00012_HIE    00017_GLY  4.313898380408259e-05
   00012_HIE    00045_SER  0.00017001538483082354
   00012_HIE    00044_LEU  5.4278598796723304e-05
   00012_HIE    00079_GLN  0.005743738822998465
   00012_HIE    00078_GLY  7.411787918900633e-05
   00012_HIE    00014_GLY  0.005224557864777847
   00012_HIE    00041_PRO  0.00044817139407447935
   00013_ARG    00019_GLY  0.0006740622545128336
   00013_ARG    00075_LYS  0.009028292286579035
   00013_ARG    00016_THR  0.03695810479443913
   00013_ARG    00081_VAL  0.006292481226475161
   00013_ARG    00040_GLY  0.0001958220163776582
   00013_ARG    00057_VAL  0.00045706013447678265
   00013_ARG    00073_ALA  0.0010900679234430158
   00013_ARG    00083_ILE  0.00028351218823377414
   00013_ARG    00018_LEU  0.011980872633400037
   00013_ARG    00071_ALA  0.00038280850288608694
   00013_ARG    00080_THR  0.0049324632405177765
   00013_ARG    00074_LEU  0.027671875426788225
   00013_ARG    00042_ALA  0.00030360569499441063
   00013_ARG    00077_ALA  0.03850460080554051
   00013_ARG    00015_SER  0.003408306620479838
   00013_ARG    00017_GLY  0.004602608833856196
   00013_ARG    00044_LEU  0.00012176927804151286
   00013_ARG    00076_ASN  0.00319034086244272
   00013_ARG    00079_GLN  0.014574951155700728
   00013_ARG    00058_ASN  0.0028885028587903637
   00013_ARG    00078_GLY  0.03227051931672412
   00013_ARG    00014_GLY  1.5954874150450875
   00013_ARG    00041_PRO  0.0016417792381755736
   00013_ARG    00020_PHE  0.000475995219235042
   00014_GLY    00015_SER  1.1170504921626252
   00014_GLY    00017_GLY  3.758384425210633e-05
   00014_GLY    00016_THR  0.0030683914775514634
   00014_GLY    00081_VAL  2.402266841989552e-05
   00014_GLY    00079_GLN  0.007157694960061047
   00014_GLY    00078_GLY  0.00022730033405387408
   00014_GLY    00041_PRO  1.3579173351741083e-05
   00014_GLY    00018_LEU  2.059343901228284e-05
   00014_GLY    00080_THR  0.00013031323418571963
   00014_GLY    00074_LEU  1.716457930709861e-05
   00014_GLY    00077_ALA  4.339124833733752e-05
   00015_SER    00017_GLY  0.00023321786100331793
   00015_SER    00078_GLY  2.6108876438132882e-05
   00015_SER    00075_LYS  0.0008499005176100039
   00015_SER    00016_THR  1.5650671898291382
   00015_SER    00074_LEU  1.1856985502402042e-05
   00015_SER    00079_GLN  0.0006861473569741793
   00015_SER    00077_ALA  1.6322251131765577e-05
   00016_THR    00019_GLY  0.00011220475601623467
   00016_THR    00075_LYS  0.000632339534293828
   00016_THR    00039_GLY  1.9368025462072878e-05
   00016_THR    00081_VAL  2.8611190847614382e-05
   00016_THR    00040_GLY  0.00011409446164210422
   00016_THR    00037_LEU  1.5884430724743628e-05
   00016_THR    00018_LEU  0.0005070643706723832
   00016_THR    00074_LEU  4.900375529474342e-05
   00016_THR    00017_GLY  1.130010651376421
   00016_THR    00044_LEU  1.2470460390358975e-05
   00016_THR    00079_GLN  0.00013224892698799877
   00016_THR    00041_PRO  0.00031448355089846574
   00017_GLY    00019_GLY  0.004245244606834291
   00017_GLY    00074_LEU  4.662582929821857e-05
   00017_GLY    00075_LYS  0.000491158467511056
   00017_GLY    00081_VAL  5.787926107590686e-06
   00017_GLY    00040_GLY  0.00011614613722844486
   00017_GLY    00037_LEU  2.2827996714551697e-05
   00017_GLY    00018_LEU  1.2435346267265432
   00017_GLY    00041_PRO  0.0009872755047787179
   00017_GLY    00071_ALA  9.399004580087966e-06
   00017_GLY    00042_ALA  6.612736556164266e-05
   00017_GLY    00020_PHE  6.401684480338064e-05
   00018_LEU    00033_ILE  5.240035105410043e-06
   00018_LEU    00036_ILE  3.4357377913511875e-05
   00018_LEU    00037_LEU  6.520814577836241e-05
   00018_LEU    00071_ALA  1.2336372418745238e-05
   00018_LEU    00082_THR  8.912569774711884e-06
   00018_LEU    00021_ASN  3.7846022314419785e-05
   00018_LEU    00045_SER  7.18859146328188e-05
   00018_LEU    00044_LEU  3.392395710740683e-05
   00018_LEU    00022_ILE  4.987401294755669e-06
   00018_LEU    00076_ASN  7.067403097994561e-06
   00018_LEU    00043_ASP  0.00039799490903231924
   00018_LEU    00047_GLU  0.00017554684405504756
   00018_LEU    00070_ALA  1.188043263676975e-05
   00018_LEU    00019_GLY  1.5280195226893236
   00018_LEU    00048_LEU  5.199970922736318e-05
   00018_LEU    00054_ILE  3.160429281110203e-06
   00018_LEU    00075_LYS  0.0002506376285203793
   00018_LEU    00081_VAL  0.002140336171468927
   00018_LEU    00040_GLY  0.00036224641710919266
   00018_LEU    00057_VAL  8.773936267444615e-06
   00018_LEU    00073_ALA  7.314160104397882e-06
   00018_LEU    00083_ILE  0.00012852494244394727
   00018_LEU    00042_ALA  0.005652436104975909
   00018_LEU    00074_LEU  0.006329406180011222
   00018_LEU    00058_ASN  7.046324578693366e-06
   00018_LEU    00077_ALA  1.1852873729533632e-05
   00018_LEU    00080_THR  1.5180389391741633e-05
   00018_LEU    00079_GLN  2.8917873054600922e-05
   00018_LEU    00078_GLY  3.91034024913534e-05
   00018_LEU    00041_PRO  0.004062869739427359
   00018_LEU    00020_PHE  0.007792517919172222
   00019_GLY    00048_LEU  2.152314795775107e-05
   00019_GLY    00039_GLY  2.1590952282573995e-05
   00019_GLY    00033_ILE  1.5159509616942657e-05
   00019_GLY    00036_ILE  0.0011609329708128953
   00019_GLY    00037_LEU  0.007865648793475401
   00019_GLY    00042_ALA  0.0002981383830870351
   00019_GLY    00074_LEU  1.1670308374986501e-05
   00019_GLY    00021_ASN  0.00022776260614970956
   00019_GLY    00038_ALA  6.0731631138824226e-05
   00019_GLY    00044_LEU  1.9350348494546713e-05
   00019_GLY    00022_ILE  1.028740550748231e-05
   00019_GLY    00043_ASP  0.00040277279133992195
   00019_GLY    00035_PHE  0.0002608809515426526
   00019_GLY    00041_PRO  0.0002942529090271723
   00019_GLY    00020_PHE  1.3636610926044674
   00019_GLY    00040_GLY  0.000261108374560335
   00020_PHE    00033_ILE  0.005726168692737462
   00020_PHE    00023_VAL  1.1380570694383372e-05
   00020_PHE    00085_ALA  2.4956696159544593e-06
   00020_PHE    00036_ILE  0.003590583020590112
   00020_PHE    00037_LEU  0.0005121071387965325
   00020_PHE    00082_THR  1.923257789767993e-06
   00020_PHE    00021_ASN  1.1494771256778349
   00020_PHE    00032_PHE  2.0191325334592833e-05
   00020_PHE    00045_SER  8.14723820192107e-06
   00020_PHE    00022_ILE  0.0032943243104462745
   00020_PHE    00043_ASP  0.00019569742312161773
   00020_PHE    00047_GLU  0.00013807169632247207
   00020_PHE    00070_ALA  1.4902921894375602e-05
   00020_PHE    00049_ARG  0.00010294799732000024
   00020_PHE    00048_LEU  0.0029285367597220928
   00020_PHE    00054_ILE  0.0006217954155207796
   00020_PHE    00071_ALA  1.2489967488135095e-05
   00020_PHE    00081_VAL  3.0575556512224435e-06
   00020_PHE    00040_GLY  4.0794009176165906e-05
   00020_PHE    00062_LEU  6.367301905209841e-07
   00020_PHE    00057_VAL  2.651926097868295e-06
   00020_PHE    00067_HID  8.169657684002149e-06
   00020_PHE    00083_ILE  0.0002140260757765211
   00020_PHE    00031_ILE  4.651073072423647e-06
   00020_PHE    00034_SER  0.000145194807656197
   00020_PHE    00042_ALA  0.002396665331841888
   00020_PHE    00074_LEU  0.0014229256870056483
   00020_PHE    00077_ALA  1.4429451107406422e-06
   00020_PHE    00050_LYS  0.0002853845196849375
   00020_PHE    00052_ASP  0.0006750606653844125
   00020_PHE    00041_PRO  2.921597384777881e-05
   00020_PHE    00035_PHE  0.004019140851201739
   00021_ASN    00048_LEU  1.6851363952600024e-05
   00021_ASN    00054_ILE  9.807105834986097e-06
   00021_ASN    00071_ALA  8.053573967901445e-06
   00021_ASN    00092_TYR  5.435870523283721e-05
   00021_ASN    00033_ILE  0.001628648767704626
   00021_ASN    00034_SER  0.011486940286830291
   00021_ASN    00023_VAL  0.00010912008790451944
   00021_ASN    00067_HID  3.7768073483936656e-05
   00021_ASN    00036_ILE  0.0001799272141566242
   00021_ASN    00024_GLY  1.5933105924819597e-05
   00021_ASN    00095_PHE  1.2429095170074841e-05
   00021_ASN    00031_ILE  1.7725711197064016e-05
   00021_ASN    00098_NME  2.4041698937308367e-06
   00021_ASN    00037_LEU  0.00012396599316910186
   00021_ASN    00074_LEU  9.83971584045686e-06
   00021_ASN    00032_PHE  0.00030032171641712055
   00021_ASN    00022_ILE  1.2093620471321638
   00021_ASN    00050_LYS  0.0016469885627667163
   00021_ASN    00097_ALA  1.2221575042835678e-05
   00021_ASN    00035_PHE  0.013610894644472753
   00022_ILE    00092_TYR  2.1005159774679635e-05
   00022_ILE    00025_GLY  7.5828328346485485e-06
   00022_ILE    00033_ILE  0.0021075482977870957
   00022_ILE    00023_VAL  1.1083092370807368
   00022_ILE    00036_ILE  4.5075035413892765e-06
   00022_ILE    00024_GLY  0.00011453234755133517
   00022_ILE    00065_ALA  5.1030495197998675e-06
   00022_ILE    00053_GLN  2.2952424296145842e-05
   00022_ILE    00032_PHE  0.004294067673252759
   00022_ILE    00070_ALA  0.0010448145566346533
   00022_ILE    00072_ILE  2.750145966334167e-06
   00022_ILE    00068_GLU  0.00047162607971789234
   00022_ILE    00048_LEU  2.768711013056769e-06
   00022_ILE    00054_ILE  0.0026293565430950557
   00022_ILE    00071_ALA  0.0008765876163425372
   00022_ILE    00030_GLY  1.539850783948893e-05
   00022_ILE    00066_SER  1.712460226646927e-05
   00022_ILE    00057_VAL  1.6405796036883598e-06
   00022_ILE    00067_HID  0.003190871293702152
   00022_ILE    00073_ALA  2.8768180996002374e-06
   00022_ILE    00083_ILE  1.2321493139061782e-06
   00022_ILE    00031_ILE  0.002532550536146758
   00022_ILE    00069_GLN  1.0626844660252442e-05
   00022_ILE    00034_SER  0.0015430840543662607
   00022_ILE    00074_LEU  0.00012019553475055017
   00022_ILE    00062_LEU  4.2615019469122035e-06
   00022_ILE    00052_ASP  0.00025902260855893136
   00022_ILE    00035_PHE  8.330716171078335e-05
   00023_VAL    00054_ILE  1.2892954143900941e-05
   00023_VAL    00030_GLY  0.0002987412732322721
   00023_VAL    00092_TYR  0.0006447475599394281
   00023_VAL    00025_GLY  0.00016034055421127312
   00023_VAL    00033_ILE  0.00015959277306193043
   00023_VAL    00098_NME  7.088556570449027e-07
   00023_VAL    00051_GLY  1.3006651849722836e-05
   00023_VAL    00067_HID  0.001564952086598407
   00023_VAL    00097_ALA  3.144292042248255e-06
   00023_VAL    00029_GLU  0.001503558100447044
   00023_VAL    00095_PHE  0.0037184308991738166
   00023_VAL    00031_ILE  0.002150243508089213
   00023_VAL    00034_SER  0.0020089522511257626
   00023_VAL    00024_GLY  1.1148537618492849
   00023_VAL    00065_ALA  2.5146587708151198e-05
   00023_VAL    00053_GLN  6.162518188006677e-05
   00023_VAL    00032_PHE  0.014966341522607115
   00023_VAL    00035_PHE  5.949183082002378e-06
   00023_VAL    00068_GLU  0.0005602602426401575
   00023_VAL    00094_ARG  0.0007896142177425052
   00023_VAL    00050_LYS  0.00047682869591132075
   00023_VAL    00052_ASP  0.0002558713714835287
   00023_VAL    00070_ALA  2.0947765449447307e-05
   00023_VAL    00066_SER  5.485815705580006e-05
   00023_VAL    00026_GLU  0.0002501263905771111
   00023_VAL    00096_GLU  0.00041081254450299844
   00024_GLY    00095_PHE  0.0011816822053549547
   00024_GLY    00030_GLY  0.0015853200281058112
   00024_GLY    00092_TYR  1.1457251731861919e-05
   00024_GLY    00025_GLY  1.0917647523062386
   00024_GLY    00026_GLU  0.0015614885537846345
   00024_GLY    00028_GLY  4.224224793275573e-05
   00024_GLY    00067_HID  0.022611042099998074
   00024_GLY    00029_GLU  0.0075654199872556786
   00024_GLY    00031_ILE  0.00038757429288375334
   00024_GLY    00069_GLN  5.602161929929454e-05
   00024_GLY    00034_SER  2.6928642241727618e-05
   00024_GLY    00065_ALA  0.00017187901705459786
   00024_GLY    00053_GLN  3.4122658866626245e-05
   00024_GLY    00032_PHE  0.00024676895317458697
   00024_GLY    00094_ARG  0.0011125285135988715
   00024_GLY    00070_ALA  1.7646901537022753e-05
   00024_GLY    00068_GLU  0.001546879144540387
   00024_GLY    00066_SER  0.0018058511219059207
   00025_GLY    00095_PHE  3.7548137743333314e-05
   00025_GLY    00064_ASN  0.00010797877144208719
   00025_GLY    00030_GLY  0.0024922506929084534
   00025_GLY    00066_SER  0.006008218473369454
   00025_GLY    00028_GLY  0.0008743383826419816
   00025_GLY    00067_HID  0.0004231230694439777
   00025_GLY    00029_GLU  0.021379843388260687
   00025_GLY    00031_ILE  0.0001373496785513918
   00025_GLY    00069_GLN  3.9704432560524784e-05
   00025_GLY    00065_ALA  0.0007205314223303743
   00025_GLY    00053_GLN  3.463668632414818e-05
   00025_GLY    00062_LEU  1.253704636072058e-05
   00025_GLY    00063_ARG  7.12906311185087e-05
   00025_GLY    00094_ARG  0.0006677236621414484
   00025_GLY    00027_ASP  0.0021050337518135997
   00025_GLY    00032_PHE  1.858187106073715e-05
   00025_GLY    00068_GLU  0.00076137718721894
   00025_GLY    00026_GLU  1.460277193902989
   00025_GLY    00070_ALA  3.305083507894645e-06
   00026_GLU    00095_PHE  0.00028660446104592527
   00026_GLU    00064_ASN  0.000710936514148669
   00026_GLU    00030_GLY  0.0010468520228633128
   00026_GLU    00066_SER  0.000959124631783335
   00026_GLU    00028_GLY  0.007257588697050351
   00026_GLU    00067_HID  0.0008666610672776476
   00026_GLU    00029_GLU  0.034302640045341955
   00026_GLU    00031_ILE  0.00019632959425222593
   00026_GLU    00069_GLN  0.0005204157109185842
   00026_GLU    00065_ALA  0.00042065023157381894
   00026_GLU    00032_PHE  0.00017382573919173566
   00026_GLU    00094_ARG  0.005229257003804122
   00026_GLU    00027_ASP  1.1539234538259078
   00026_GLU    00068_GLU  0.0016046872064882
   00027_ASP    00064_ASN  0.0015547613024694813
   00027_ASP    00030_GLY  0.00037342487458711006
   00027_ASP    00063_ARG  0.0006034558707305621
   00027_ASP    00066_SER  0.00032600973751991487
   00027_ASP    00094_ARG  0.003414883955380788
   00027_ASP    00028_GLY  1.3313797680693864
   00027_ASP    00067_HID  0.00022977960890601241
   00027_ASP    00029_GLU  0.004887743874481402
   00027_ASP    00069_GLN  0.00027964722852717776
   00027_ASP    00065_ALA  0.00019776971923846632
   00028_GLY    00064_ASN  0.012613205658248115
   00028_GLY    00030_GLY  0.00265523492024033
   00028_GLY    00063_ARG  0.00038201305922158033
   00028_GLY    00066_SER  3.4235845642857375e-05
   00028_GLY    00094_ARG  0.0006912144231284726
   00028_GLY    00067_HID  1.955676159369408e-05
   00028_GLY    00029_GLU  1.3968497899962282
   00028_GLY    00031_ILE  1.4065554042183534e-05
   00028_GLY    00032_PHE  6.1153913215398345e-06
   00028_GLY    00069_GLN  1.7767008018399317e-05
   00028_GLY    00088_LYS  0.000269540675865328
   00028_GLY    00065_ALA  0.0002632905108747492
   00028_GLY    00053_GLN  0.00015790632976081753
   00028_GLY    00062_LEU  2.2288988969096463e-05
   00029_GLU    00095_PHE  0.006354635171487578
   00029_GLU    00064_ASN  0.0015462819896893388
   00029_GLU    00030_GLY  1.7064883053146187
   00029_GLU    00066_SER  0.0005911630605077008
   00029_GLU    00067_HID  0.0011293265773386911
   00029_GLU    00031_ILE  0.0009628680618583613
   00029_GLU    00088_LYS  0.00233311797312751
   00029_GLU    00065_ALA  0.000654511299060611
   00029_GLU    00053_GLN  0.00775011115655971
   00029_GLU    00062_LEU  0.00023549761651597896
   00029_GLU    00063_ARG  0.0012816979037669047
   00029_GLU    00094_ARG  0.14271273878106627
   00029_GLU    00086_GLN  0.00032633725736231235
   00029_GLU    00032_PHE  0.0019436318586268612
   00029_GLU    00055_LEU  0.00018168103415405637
   00029_GLU    00091_GLU  0.002128273776861545
   00030_GLY    00054_ILE  0.00017658163930349253
   00030_GLY    00064_ASN  0.0007930746356681066
   00030_GLY    00092_TYR  7.83912683419346e-06
   00030_GLY    00066_SER  0.00011523056720902735
   00030_GLY    00067_HID  0.0001384692548177031
   00030_GLY    00095_PHE  9.320957681823153e-05
   00030_GLY    00031_ILE  1.1841864910870814
   00030_GLY    00088_LYS  0.00034869537807248103
   00030_GLY    00065_ALA  0.0021918775178126964
   00030_GLY    00053_GLN  0.0027890135420151627
   00030_GLY    00032_PHE  0.0008694744769002962
   00030_GLY    00063_ARG  0.0006169964107767086
   00030_GLY    00094_ARG  0.0015301511335114508
   00030_GLY    00086_GLN  1.3316927090688379e-05
   00030_GLY    00062_LEU  0.00032425687606715554
   00030_GLY    00055_LEU  2.4907370780687136e-05
   00030_GLY    00091_GLU  0.0002025661209519192
   00030_GLY    00070_ALA  1.2684944464115959e-05
   00031_ILE    00064_ASN  4.288003778640804e-05
   00031_ILE    00092_TYR  1.1554209606981359e-05
   00031_ILE    00033_ILE  0.0001349950038951578
   00031_ILE    00054_ILE  0.007429096371882171
   00031_ILE    00055_LEU  6.700279752787239e-05
   00031_ILE    00088_LYS  0.0006664110654460941
   00031_ILE    00065_ALA  0.006643795269361558
   00031_ILE    00053_GLN  0.005470231297265475
   00031_ILE    00032_PHE  1.109514909927693
   00031_ILE    00070_ALA  0.005517315809916669
   00031_ILE    00068_GLU  0.00043218489521440484
   00031_ILE    00095_PHE  1.852810594490218e-05
   00031_ILE    00071_ALA  7.97050468196325e-06
   00031_ILE    00066_SER  0.0019220619985102889
   00031_ILE    00057_VAL  2.4579931479903884e-06
   00031_ILE    00067_HID  0.008746956709206808
   00031_ILE    00073_ALA  3.074648313304763e-06
   00031_ILE    00083_ILE  3.4752256795825315e-06
   00031_ILE    00069_GLN  2.5894138432100896e-05
   00031_ILE    00034_SER  2.7962193079790597e-05
   00031_ILE    00074_LEU  3.6599325222855894e-06
   00031_ILE    00062_LEU  0.0036926882986450644
   00031_ILE    00056_SER  1.1697215554598562e-05
   00031_ILE    00063_ARG  0.00016369711001297012
   00031_ILE    00094_ARG  0.0004913392329185142
   00031_ILE    00052_ASP  0.001182440842579653
   00031_ILE    00061_ASP  0.00030515435186899594
   00032_PHE    00095_PHE  0.0011083735194282525
   00032_PHE    00088_LYS  0.008525240254184717
   00032_PHE    00092_TYR  0.005299062545663976
   00032_PHE    00033_ILE  1.20287351949297
   00032_PHE    00051_GLY  0.0008143466594873874
   00032_PHE    00090_GLU  0.0002991068694794028
   00032_PHE    00067_HID  6.546656782054789e-05
   00032_PHE    00085_ALA  1.0713624470848449e-05
   00032_PHE    00054_ILE  0.0003242566773865067
   00032_PHE    00055_LEU  6.014875928893221e-06
   00032_PHE    00034_SER  0.0012778071543941047
   00032_PHE    00091_GLU  0.002087170431277749
   00032_PHE    00065_ALA  3.4772595417048014e-05
   00032_PHE    00053_GLN  0.0035354921743443977
   00032_PHE    00035_PHE  4.2148918436155684e-05
   00032_PHE    00066_SER  9.189738996689634e-06
   00032_PHE    00087_TYR  2.5243104206722666e-05
   00032_PHE    00094_ARG  0.0021312653951223812
   00032_PHE    00063_ARG  0.0001960542690176864
   00032_PHE    00086_GLN  9.440514173234856e-05
   00032_PHE    00050_LYS  0.0007070230794875981
   00032_PHE    00052_ASP  0.004386315049148594
   00032_PHE    00089_PRO  1.776053046544073e-05
   00032_PHE    00049_ARG  0.00011498549535214648
   00032_PHE    00093_SER  1.0878495761489656e-05
   00032_PHE    00096_GLU  0.0003873857131365427
   00033_ILE    00084_ILE  5.384817910816845e-06
   00033_ILE    00048_LEU  0.0017180319667518663
   00033_ILE    00054_ILE  0.0032071815385297364
   00033_ILE    00092_TYR  0.00047686195614290885
   00033_ILE    00051_GLY  0.005875018821017766
   00033_ILE    00085_ALA  8.024749397994616e-06
   00033_ILE    00036_ILE  0.004369740666511127
   00033_ILE    00083_ILE  9.405230779522773e-06
   00033_ILE    00034_SER  1.1219376826567895
   00033_ILE    00037_LEU  5.943400582661484e-06
   00033_ILE    00042_ALA  5.300468591470655e-06
   00033_ILE    00074_LEU  3.159502070737896e-06
   00033_ILE    00053_GLN  0.0002656816685813272
   00033_ILE    00049_ARG  0.0008465686346875233
   00033_ILE    00057_VAL  7.088287385182139e-07
   00033_ILE    00087_TYR  2.0700239150368455e-05
   00033_ILE    00095_PHE  1.5464621428698664e-05
   00033_ILE    00086_GLN  1.4812679892830717e-05
   00033_ILE    00050_LYS  0.005431372812337534
   00033_ILE    00052_ASP  0.01391786007916308
   00033_ILE    00070_ALA  3.2667723660652373e-06
   00033_ILE    00035_PHE  0.0008296383840904917
   00033_ILE    00096_GLU  0.0005913894242942403
   00034_SER    00095_PHE  8.274476454651231e-05
   00034_SER    00092_TYR  0.004470313442803949
   00034_SER    00051_GLY  8.185277343867431e-05
   00034_SER    00036_ILE  5.375671398858966e-05
   00034_SER    00052_ASP  0.0008047466754179126
   00034_SER    00096_GLU  0.003208123181544717
   00034_SER    00054_ILE  2.2121441882135562e-06
   00034_SER    00098_NME  3.0630742421848377e-06
   00034_SER    00050_LYS  0.012907493742302673
   00034_SER    00097_ALA  3.496646814709806e-05
   00034_SER    00049_ARG  0.0003056047106058954
   00034_SER    00035_PHE  1.4991141487082855
   00035_PHE    00038_ALA  4.1784427594855816e-05
   00035_PHE    00048_LEU  1.5391854760445924e-05
   00035_PHE    00092_TYR  4.2454837829054985e-05
   00035_PHE    00051_GLY  3.341091095217403e-05
   00035_PHE    00050_LYS  0.002666947876635797
   00035_PHE    00098_NME  5.726074549329369e-07
   00035_PHE    00037_LEU  0.0029710647142794744
   00035_PHE    00042_ALA  1.5947888816540047e-05
   00035_PHE    00036_ILE  1.2989414041032827
   00035_PHE    00097_ALA  4.654933674208855e-06
   00035_PHE    00049_ARG  0.0004821410692294339
   00035_PHE    00096_GLU  0.0006420998519060745
   00036_ILE    00046_GLY  1.3780262229008698e-05
   00036_ILE    00048_LEU  0.0006595216856205908
   00036_ILE    00054_ILE  4.239938386115762e-07
   00036_ILE    00039_GLY  3.184892629945696e-05
   00036_ILE    00040_GLY  6.125343647403524e-05
   00036_ILE    00051_GLY  5.2501296561197255e-06
   00036_ILE    00037_LEU  1.266399252413665
   00036_ILE    00042_ALA  0.0017872481118705744
   00036_ILE    00047_GLU  0.00011015665695192036
   00036_ILE    00038_ALA  0.0010228207242722798
   00036_ILE    00045_SER  1.4745847793176176e-05
   00036_ILE    00044_LEU  1.095965368288264e-05
   00036_ILE    00043_ASP  0.004477301544342876
   00036_ILE    00050_LYS  0.0019033676282667164
   00036_ILE    00052_ASP  0.0004040876423088552
   00036_ILE    00041_PRO  8.53660159152226e-06
   00036_ILE    00049_ARG  0.0017005568703185492
   00037_LEU    00038_ALA  1.0818663940361832
   00037_LEU    00044_LEU  0.0001143894087231877
   00037_LEU    00039_GLY  0.0011342213677069547
   00037_LEU    00040_GLY  0.00421500621204405
   00037_LEU    00043_ASP  0.004496899040076787
   00037_LEU    00041_PRO  3.811881766079253e-05
   00037_LEU    00042_ALA  0.00025010526635900357
   00038_ALA    00044_LEU  7.100489998269339e-05
   00038_ALA    00039_GLY  1.2450788061649372
   00038_ALA    00040_GLY  0.0039427175985146355
   00038_ALA    00043_ASP  0.007714208552288479
   00038_ALA    00042_ALA  2.039752616226461e-05
   00039_GLY    00044_LEU  0.002835836462205469
   00039_GLY    00040_GLY  1.3390999724911135
   00039_GLY    00043_ASP  0.013580252431237378
   00039_GLY    00041_PRO  6.99673372406364e-05
   00039_GLY    00042_ALA  6.100181439274049e-05
   00040_GLY    00046_GLY  4.3305570314767356e-05
   00040_GLY    00045_SER  0.0005900716769358164
   00040_GLY    00044_LEU  0.007673549223944147
   00040_GLY    00043_ASP  0.012167480681459156
   00040_GLY    00041_PRO  1.286969939703212
   00040_GLY    00042_ALA  0.0017026906531616211
   00041_PRO    00046_GLY  0.0004568700275611865
   00041_PRO    00048_LEU  3.537788092095997e-05
   00041_PRO    00045_SER  0.02388873001204718
   00041_PRO    00044_LEU  0.002025697078768269
   00041_PRO    00081_VAL  7.147759121248252e-06
   00041_PRO    00043_ASP  0.0015485376139232868
   00041_PRO    00083_ILE  1.4611797098886488e-06
   00041_PRO    00042_ALA  1.3851665863806069
   00041_PRO    00074_LEU  3.038084277960517e-06
   00041_PRO    00047_GLU  0.00017946735580348687
   00042_ALA    00046_GLY  0.006519125421085698
   00042_ALA    00048_LEU  0.002974302863670735
   00042_ALA    00045_SER  0.0035166315126871485
   00042_ALA    00044_LEU  0.0006697042893202749
   00042_ALA    00081_VAL  1.9808580375256865e-06
   00042_ALA    00043_ASP  1.5392336187487843
   00042_ALA    00047_GLU  0.001886604868833534
   00042_ALA    00083_ILE  1.457073412767276e-06
   00042_ALA    00049_ARG  0.00027109259548603403
   00043_ASP    00046_GLY  0.009107454022955663
   00043_ASP    00048_LEU  0.00071565803021227
   00043_ASP    00045_SER  0.005972082695632108
   00043_ASP    00044_LEU  1.4337663128753806
   00043_ASP    00049_ARG  0.0028596997789405772
   00043_ASP    00047_GLU  0.002218188395007633
   00044_LEU    00046_GLY  0.0010193035606425715
   00044_LEU    00045_SER  1.4152288939050723
   00044_LEU    00047_GLU  0.0004433722850198653
   00045_SER    00046_GLY  1.4248205269002776
   00045_SER    00048_LEU  0.00019142252526082245
   00045_SER    00047_GLU  0.011799309379750296
   00045_SER    00083_ILE  2.969267253636378e-06
   00045_SER    00049_ARG  0.0003777986779914774
   00046_GLY    00048_LEU  0.0014912804005769035
   00046_GLY    00047_GLU  1.450929920537699
   00046_GLY    00049_ARG  0.000748216593973693
   00047_GLU    00048_LEU  1.491696945876917
   00047_GLU    00087_TYR  0.000639296940339042
   00047_GLU    00085_ALA  0.0005178678433653859
   00047_GLU    00052_ASP  0.004678832935693629
   00047_GLU    00083_ILE  0.00037755973845415267
   00047_GLU    00049_ARG  0.0027952147605031378
   00048_LEU    00084_ILE  1.5194812657714826e-05
   00048_LEU    00054_ILE  1.4526752798484088e-05
   00048_LEU    00081_VAL  5.830131569796038e-06
   00048_LEU    00057_VAL  2.3018319545935e-06
   00048_LEU    00085_ALA  0.00035271694029122156
   00048_LEU    00083_ILE  0.0018092287603556267
   00048_LEU    00055_LEU  6.410623663306052e-06
   00048_LEU    00074_LEU  2.5558593693249335e-06
   00048_LEU    00082_THR  4.5035428422331496e-06
   00048_LEU    00053_GLN  3.1591054595186136e-05
   00048_LEU    00087_TYR  2.7962772672922983e-05
   00048_LEU    00086_GLN  2.0210129070892095e-05
   00048_LEU    00050_LYS  0.0003008748702976236
   00048_LEU    00052_ASP  0.009680018198945045
   00048_LEU    00049_ARG  1.1244985675238481
   00049_ARG    00054_ILE  5.3002800127462765e-05
   00049_ARG    00088_LYS  0.001618691039016456
   00049_ARG    00087_TYR  0.023484353197287876
   00049_ARG    00092_TYR  0.0007369249233286954
   00049_ARG    00086_GLN  0.00037383540062341355
   00049_ARG    00051_GLY  0.0018605908817568254
   00049_ARG    00085_ALA  0.00013363323355267487
   00049_ARG    00050_LYS  1.1015846124608477
   00049_ARG    00052_ASP  0.033504527605489026
   00049_ARG    00089_PRO  0.0003261815714381473
   00049_ARG    00053_GLN  0.00021735857922832027
   00050_LYS    00095_PHE  0.0010927495672656616
   00050_LYS    00088_LYS  0.0007745130272604887
   00050_LYS    00087_TYR  0.0013411184893869802
   00050_LYS    00092_TYR  0.033301107408713844
   00050_LYS    00097_ALA  0.001735731711497884
   00050_LYS    00051_GLY  1.1764008393155347
   00050_LYS    00052_ASP  0.007524600271551051
   00050_LYS    00098_NME  0.00035308978444837416
   00050_LYS    00089_PRO  0.00030016562724494313
   00050_LYS    00093_SER  0.0009519978691183439
   00050_LYS    00096_GLU  0.11192848975294763
   00051_GLY    00095_PHE  1.5024735103042999e-05
   00051_GLY    00088_LYS  0.009711456791203754
   00051_GLY    00092_TYR  0.0014846655939132548
   00051_GLY    00090_GLU  0.0005042090773545672
   00051_GLY    00053_GLN  0.0007355253956369362
   00051_GLY    00087_TYR  0.0012666178590026232
   00051_GLY    00089_PRO  0.0004130851536206126
   00051_GLY    00086_GLN  0.0003229646217599761
   00051_GLY    00052_ASP  1.6087967180215832
   00051_GLY    00091_GLU  0.0002943336117084843
   00051_GLY    00093_SER  1.194432533378735e-05
   00051_GLY    00096_GLU  0.0008547305715918281
   00052_ASP    00084_ILE  0.0006373105694329866
   00052_ASP    00054_ILE  0.002318059697150838
   00052_ASP    00088_LYS  0.004022276531665817
   00052_ASP    00087_TYR  0.01776642664900534
   00052_ASP    00092_TYR  0.0011957411198286964
   00052_ASP    00086_GLN  0.010315072061371822
   00052_ASP    00085_ALA  0.0036809792068916384
   00052_ASP    00083_ILE  0.00042474293269237026
   00052_ASP    00055_LEU  0.0005947339387026788
   00052_ASP    00089_PRO  0.0002802682636723716
   00052_ASP    00053_GLN  1.1171917815800274
   00053_GLN    00084_ILE  0.000279036461069583
   00053_GLN    00054_ILE  1.088312419214864
   00053_GLN    00064_ASN  0.0005048349296599747
   00053_GLN    00092_TYR  2.7557449360205886e-05
   00053_GLN    00085_ALA  0.004540762148090065
   00053_GLN    00095_PHE  1.736563820399399e-05
   00053_GLN    00055_LEU  0.0037474505711335075
   00053_GLN    00088_LYS  0.03319175474414596
   00053_GLN    00065_ALA  0.00019223384007701556
   00053_GLN    00091_GLU  0.0018980055353495235
   00053_GLN    00062_LEU  0.0004049034945318501
   00053_GLN    00056_SER  7.046088880488311e-05
   00053_GLN    00087_TYR  0.0003042418783352908
   00053_GLN    00063_ARG  0.01568130304760843
   00053_GLN    00094_ARG  0.0018882454164888146
   00053_GLN    00086_GLN  0.012844465590649633
   00053_GLN    00083_ILE  1.908632882534313e-05
   00053_GLN    00089_PRO  8.698579407156792e-06
   00054_ILE    00084_ILE  0.0012069130053022426
   00054_ILE    00064_ASN  7.079804296565197e-05
   00054_ILE    00081_VAL  2.7231435188366207e-06
   00054_ILE    00071_ALA  2.6467563227285067e-06
   00054_ILE    00057_VAL  0.0014172852636849728
   00054_ILE    00067_HID  1.1160573131019323e-05
   00054_ILE    00085_ALA  0.0003137132213910034
   00054_ILE    00073_ALA  6.090006220973726e-06
   00054_ILE    00083_ILE  0.0030406956443974143
   00054_ILE    00055_LEU  1.2186349790845856
   00054_ILE    00088_LYS  0.0007681131253938357
   00054_ILE    00074_LEU  5.2429598138783304e-05
   00054_ILE    00082_THR  8.518891706407109e-06
   00054_ILE    00062_LEU  0.002472674993750101
   00054_ILE    00056_SER  0.000871580516835863
   00054_ILE    00065_ALA  4.0090502783812614e-05
   00054_ILE    00060_VAL  2.6467810438664484e-05
   00054_ILE    00063_ARG  0.0009130906745370748
   00054_ILE    00086_GLN  0.000139182496802026
   00054_ILE    00070_ALA  0.0002302698775402752
   00054_ILE    00061_ASP  0.00054461022045566
   00055_LEU    00084_ILE  0.01144073869125097
   00055_LEU    00064_ASN  7.951079694968093e-05
   00055_LEU    00088_LYS  0.0013367403680100967
   00055_LEU    00057_VAL  5.9779126190047586e-05
   00055_LEU    00085_ALA  0.0014527509714640158
   00055_LEU    00083_ILE  0.00010909194540071243
   00055_LEU    00059_GLY  1.8910782833351975e-05
   00055_LEU    00065_ALA  2.044041463684263e-05
   00055_LEU    00062_LEU  0.006369431168047261
   00055_LEU    00056_SER  1.4401306788152592
   00055_LEU    00087_TYR  8.63308257233392e-06
   00055_LEU    00060_VAL  0.00025860065169587267
   00055_LEU    00063_ARG  0.00885881670157981
   00055_LEU    00086_GLN  0.005100323067100508
   00055_LEU    00061_ASP  0.003031081827490068
   00056_SER    00084_ILE  0.012291691127189548
   00056_SER    00059_GLY  0.003394392682268601
   00056_SER    00081_VAL  2.1714124891924543e-05
   00056_SER    00057_VAL  1.2532585152676143
   00056_SER    00085_ALA  0.00011060831308185551
   00056_SER    00073_ALA  2.9313357815506003e-05
   00056_SER    00083_ILE  0.0021696035367510746
   00056_SER    00074_LEU  1.8507753878330592e-05
   00056_SER    00082_THR  0.0002767593753944229
   00056_SER    00058_ASN  0.0002282612601892374
   00056_SER    00062_LEU  0.001953664077122732
   00056_SER    00060_VAL  0.024576760905921063
   00056_SER    00063_ARG  0.0016877874241542177
   00056_SER    00086_GLN  2.5457689386291332e-05
   00056_SER    00070_ALA  1.9578066178429034e-05
   00056_SER    00061_ASP  0.002819479845980847
   00057_VAL    00084_ILE  0.00015361067874007168
   00057_VAL    00059_GLY  0.00355603874432981
   00057_VAL    00081_VAL  0.0007684001865861625
   00057_VAL    00061_ASP  0.0006181528540823647
   00057_VAL    00085_ALA  5.350320613853232e-06
   00057_VAL    00073_ALA  0.0017796924323459857
   00057_VAL    00083_ILE  0.0031721531158501832
   00057_VAL    00069_GLN  3.406487572531574e-05
   00057_VAL    00071_ALA  8.254857822948767e-06
   00057_VAL    00080_THR  9.527291994004685e-06
   00057_VAL    00074_LEU  0.005656660733750508
   00057_VAL    00082_THR  0.0018719904073186406
   00057_VAL    00058_ASN  1.1879117737876355
   00057_VAL    00062_LEU  0.004633039834009587
   00057_VAL    00065_ALA  3.336124035388666e-06
   00057_VAL    00060_VAL  0.013184903666492978
   00057_VAL    00063_ARG  0.0003152006010680322
   00057_VAL    00076_ASN  5.3795025536775354e-05
   00057_VAL    00078_GLY  1.454896540801485e-05
   00057_VAL    00077_ALA  0.00020197389134846676
   00057_VAL    00072_ILE  1.5071189658775874e-05
   00057_VAL    00075_LYS  0.00016895508965399079
   00057_VAL    00070_ALA  8.517617192039502e-05
   00058_ASN    00084_ILE  2.5790430817244982e-05
   00058_ASN    00075_LYS  0.0007616433078846543
   00058_ASN    00081_VAL  0.0014793815396037266
   00058_ASN    00073_ALA  0.0011666280963923547
   00058_ASN    00083_ILE  0.00019552300385837187
   00058_ASN    00059_GLY  1.2729510359843075
   00058_ASN    00080_THR  0.0006592567731193698
   00058_ASN    00074_LEU  0.00010253611093004909
   00058_ASN    00082_THR  0.010216949143390828
   00058_ASN    00077_ALA  0.004026697207005996
   00058_ASN    00060_VAL  0.002312357973282692
   00058_ASN    00076_ASN  0.0011396909265090308
   00058_ASN    00079_GLN  3.013434334892481e-05
   00058_ASN    00078_GLY  0.0010814522674106155
   00058_ASN    00062_LEU  6.4520563473202705e-06
   00058_ASN    00072_ILE  6.910864942891676e-05
   00058_ASN    00070_ALA  2.7922614821386457e-05
   00059_GLY    00084_ILE  2.3326266413067036e-05
   00059_GLY    00060_VAL  1.3463248611494225
   00059_GLY    00081_VAL  1.562560341462534e-05
   00059_GLY    00076_ASN  1.112296839626763e-05
   00059_GLY    00073_ALA  9.774480278839267e-06
   00059_GLY    00083_ILE  3.053373698571579e-05
   00059_GLY    00062_LEU  2.5287294834597543e-05
   00059_GLY    00061_ASP  0.0019627892420644847
   00059_GLY    00082_THR  0.00020005812079731784
   00059_GLY    00077_ALA  6.140034928751746e-06
   00059_GLY    00063_ARG  0.00018500501933698998
   00060_VAL    00084_ILE  2.6786155795081325e-05
   00060_VAL    00072_ILE  1.2552771933170923e-05
   00060_VAL    00073_ALA  0.00043877485292902093
   00060_VAL    00083_ILE  2.0786189844610024e-05
   00060_VAL    00069_GLN  8.029249213961034e-05
   00060_VAL    00065_ALA  1.1105401685738064e-05
   00060_VAL    00082_THR  2.4472100124443085e-05
   00060_VAL    00062_LEU  0.002598292533864018
   00060_VAL    00074_LEU  9.19781692573522e-06
   00060_VAL    00063_ARG  0.00041749876467657145
   00060_VAL    00076_ASN  4.9376923930492365e-05
   00060_VAL    00077_ALA  4.2716420295637155e-06
   00060_VAL    00061_ASP  1.1676630948623437
   00060_VAL    00070_ALA  1.4202883328486969e-05
   00061_ASP    00084_ILE  0.00027560542311200464
   00061_ASP    00064_ASN  0.008740149710359437
   00061_ASP    00063_ARG  0.03042805641072804
   00061_ASP    00073_ALA  0.0002456860262340393
   00061_ASP    00070_ALA  0.000371340003141626
   00061_ASP    00069_GLN  0.0025525430392364912
   00061_ASP    00065_ALA  0.002159045928584191
   00061_ASP    00062_LEU  1.148334361906575
   00062_LEU    00084_ILE  3.8572875527331986e-05
   00062_LEU    00064_ASN  0.0028058447946893183
   00062_LEU    00066_SER  9.445562673997885e-05
   00062_LEU    00067_HID  3.280976453607703e-05
   00062_LEU    00073_ALA  0.00028849819324077737
   00062_LEU    00083_ILE  1.4624321562850673e-05
   00062_LEU    00069_GLN  0.0005125145715004366
   00062_LEU    00071_ALA  6.764462225637965e-06
   00062_LEU    00065_ALA  0.008827725754424509
   00062_LEU    00074_LEU  1.045974511189898e-05
   00062_LEU    00063_ARG  1.4390022398828521
   00062_LEU    00070_ALA  0.0032937730065227475
   00062_LEU    00072_ILE  1.4664947637539842e-05
   00062_LEU    00068_GLU  0.0004004124019745715
   00063_ARG    00084_ILE  0.0007007911798558243
   00063_ARG    00065_ALA  0.002614540595352831
   00063_ARG    00088_LYS  0.013369446280538712
   00063_ARG    00064_ASN  1.4385467072377707
   00063_ARG    00086_GLN  0.006275633444408776
   00063_ARG    00091_GLU  0.0017386302210027965
   00064_ASN    00069_GLN  0.00011658820347465946
   00064_ASN    00066_SER  0.00020535857426761653
   00064_ASN    00065_ALA  1.5349691766880966
   00065_ALA    00071_ALA  1.0960142233907498e-05
   00065_ALA    00066_SER  1.0690627243323025
   00065_ALA    00067_HID  0.0002480199804124853
   00065_ALA    00073_ALA  6.656700555407231e-06
   00065_ALA    00070_ALA  9.677474284605689e-05
   00065_ALA    00069_GLN  0.003887019378100357
   00065_ALA    00068_GLU  0.001161344802454328
   00066_SER    00071_ALA  0.00015137284550926047
   00066_SER    00067_HID  1.1543574328591402
   00066_SER    00070_ALA  0.002723561249205254
   00066_SER    00069_GLN  0.019960418434549355
   00066_SER    00072_ILE  3.935386207037925e-05
   00066_SER    00068_GLU  0.05715953173049924
   00067_HID    00095_PHE  2.6019780678556376e-05
   00067_HID    00071_ALA  0.004678011331330577
   00067_HID    00073_ALA  3.608289078506548e-05
   00067_HID    00070_ALA  0.005849504345518562
   00067_HID    00069_GLN  0.001777368439228578
   00067_HID    00072_ILE  0.00016649255056109066
   00067_HID    00074_LEU  2.6723000677156574e-05
   00067_HID    00068_GLU  1.4846969555965006
   00068_GLU    00071_ALA  0.0066000768421165925
   00068_GLU    00073_ALA  0.0006309747242483862
   00068_GLU    00070_ALA  0.001771892503695088
   00068_GLU    00069_GLN  1.5241326639099946
   00068_GLU    00072_ILE  0.008775153620238708
   00068_GLU    00075_LYS  0.0007272166710337477
   00068_GLU    00074_LEU  0.0002847748846093484
   00069_GLN    00075_LYS  0.00045414040195339593
   00069_GLN    00076_ASN  0.00019754087297759091
   00069_GLN    00073_ALA  0.004965692334907207
   00069_GLN    00070_ALA  1.4255081451834064
   00069_GLN    00072_ILE  0.004812836613800407
   00069_GLN    00071_ALA  0.000982345266895613
   00069_GLN    00074_LEU  0.0002066781990010295
   00070_ALA    00075_LYS  0.0006732586545301865
   00070_ALA    00076_ASN  8.675845575651819e-05
   00070_ALA    00073_ALA  0.004124714937888897
   00070_ALA    00083_ILE  4.862622063345793e-06
   00070_ALA    00072_ILE  0.0013395974060174283
   00070_ALA    00071_ALA  1.5854239624746822
   00070_ALA    00074_LEU  0.009889695079449251
   00071_ALA    00075_LYS  0.007501309482253037
   00071_ALA    00076_ASN  0.0003094597444318576
   00071_ALA    00073_ALA  0.0008582011353215126
   00071_ALA    00072_ILE  1.4560084085435712
   00071_ALA    00074_LEU  0.002796784879153975
   00071_ALA    00077_ALA  1.9912626266512304e-05
   00072_ILE    00075_LYS  0.007167099274206089
   00072_ILE    00076_ASN  0.014192759483566103
   00072_ILE    00073_ALA  1.4958598351541603
   00072_ILE    00074_LEU  0.0011623694723652252
   00072_ILE    00077_ALA  0.0002358664751511834
   00073_ALA    00075_LYS  0.0023706683823995225
   00073_ALA    00081_VAL  2.748452221043077e-05
   00073_ALA    00076_ASN  0.0030800211471447994
   00073_ALA    00078_GLY  6.997777958948e-05
   00073_ALA    00074_LEU  1.4443840585815686
   00073_ALA    00077_ALA  0.005529967215113463
   00074_LEU    00084_ILE  4.320098018007861e-06
   00074_LEU    00075_LYS  1.4607798565708037
   00074_LEU    00081_VAL  0.0015542538933891357
   00074_LEU    00076_ASN  0.0011048805229094893
   00074_LEU    00079_GLN  2.51965937558496e-05
   00074_LEU    00078_GLY  0.00015810208639193668
   00074_LEU    00083_ILE  0.00020492919986520318
   00074_LEU    00082_THR  2.826231522172651e-05
   00074_LEU    00080_THR  2.406329259327069e-05
   00074_LEU    00077_ALA  0.003110536426156261
   00075_LYS    00078_GLY  0.00024279052901225427
   00075_LYS    00081_VAL  0.00012416163652040463
   00075_LYS    00076_ASN  1.3943491894469873
   00075_LYS    00077_ALA  0.004495772465348622
   00076_ASN    00078_GLY  0.0004667540029310828
   00076_ASN    00081_VAL  1.9913554755810168e-05
   00076_ASN    00080_THR  1.5084257055324788e-05
   00076_ASN    00077_ALA  1.613337191026009
   00077_ALA    00083_ILE  4.655565570650972e-06
   00077_ALA    00081_VAL  0.005550527074070742
   00077_ALA    00079_GLN  0.00021495562753272125
   00077_ALA    00078_GLY  1.203664957214955
   00077_ALA    00080_THR  0.0002541494436029045
   00077_ALA    00082_THR  5.0674194779415005e-05
   00078_GLY    00081_VAL  0.0010847876719735472
   00078_GLY    00080_THR  0.003214248750248309
   00078_GLY    00082_THR  5.0701796394558706e-05
   00078_GLY    00079_GLN  1.2561428945715607
   00079_GLN    00081_VAL  0.0002903820190382032
   00079_GLN    00080_THR  1.378344356452933
   00080_THR    00081_VAL  1.2012092277474635
   00080_THR    00083_ILE  1.5643936796377256e-05
   00080_THR    00082_THR  0.0003269381900712106
   00081_VAL    00084_ILE  7.641870292616224e-06
   00081_VAL    00083_ILE  0.0010023733023235108
   00081_VAL    00082_THR  1.1357368041390652
   00082_THR    00084_ILE  0.0002627145133371037
   00082_THR    00083_ILE  1.1177622583413211
   00083_ILE    00084_ILE  1.1339383800120935
   00083_ILE    00086_GLN  1.0229462066195857e-05
   00083_ILE    00085_ALA  0.00033214086931513325
   00084_ILE    00086_GLN  9.133168395877456e-05
   00084_ILE    00085_ALA  1.112818407687448
   00085_ALA    00086_GLN  1.2039738824931547
   00085_ALA    00088_LYS  0.0004595677229854213
   00085_ALA    00087_TYR  0.00011825482459507074
   00086_GLN    00088_LYS  0.024815362819424546
   00086_GLN    00087_TYR  1.1181245166399425
   00086_GLN    00091_GLU  0.0023107164023983373
   00086_GLN    00089_PRO  1.2336562742826923e-05
   00087_TYR    00088_LYS  1.2134914130407155
   00087_TYR    00092_TYR  4.041574280875645e-05
   00087_TYR    00089_PRO  0.005199900736343634
   00087_TYR    00090_GLU  0.004631158061202882
   00087_TYR    00091_GLU  0.0007895759277983716
   00088_LYS    00095_PHE  0.0001606929510440793
   00088_LYS    00092_TYR  0.0045115468789045975
   00088_LYS    00091_GLU  0.04450389762706426
   00088_LYS    00094_ARG  0.0028940473485656957
   00088_LYS    00090_GLU  0.009768744008622756
   00088_LYS    00089_PRO  1.2311400500372185
   00088_LYS    00093_SER  0.0002419539953145996
   00089_PRO    00095_PHE  2.6826002731128102e-05
   00089_PRO    00092_TYR  0.0046203861676184736
   00089_PRO    00094_ARG  0.0003677554621211338
   00089_PRO    00090_GLU  1.4828360629990767
   00089_PRO    00091_GLU  0.0014911320217246248
   00089_PRO    00093_SER  0.007135146208332087
   00089_PRO    00096_GLU  0.00024456521938608496
   00090_GLU    00095_PHE  0.0002227768074834985
   00090_GLU    00092_TYR  0.0022163394619852403
   00090_GLU    00094_ARG  0.003186212835517757
   00090_GLU    00091_GLU  1.4225176991602644
   00090_GLU    00093_SER  0.01896578206901976
   00091_GLU    00095_PHE  0.0013753232453781743
   00091_GLU    00092_TYR  1.5071723086675055
   00091_GLU    00094_ARG  0.01615773680370733
   00091_GLU    00093_SER  0.0037295140538587805
   00091_GLU    00096_GLU  0.0006553593925465634
   00092_TYR    00095_PHE  0.014718083528967574
   00092_TYR    00094_ARG  0.008195845117339966
   00092_TYR    00098_NME  1.005735461396779e-05
   00092_TYR    00097_ALA  0.00021006613653680892
   00092_TYR    00093_SER  1.3657414897605882
   00092_TYR    00096_GLU  0.0470082929152075
   00093_SER    00095_PHE  0.0018015674712629234
   00093_SER    00094_ARG  1.4615441163162577
   00093_SER    00098_NME  1.9390361320673704e-05
   00093_SER    00097_ALA  5.692431799736132e-05
   00093_SER    00096_GLU  0.0071160552076321715
   00094_ARG    00095_PHE  1.4262393817850645
   00094_ARG    00098_NME  5.511491390316112e-05
   00094_ARG    00097_ALA  0.00019408371471403536
   00094_ARG    00096_GLU  0.006793865131556082
   00095_PHE    00098_NME  0.00014497707352909074
   00095_PHE    00097_ALA  0.0008665404121227162
   00095_PHE    00096_GLU  1.5539810731259271
   00096_GLU    00097_ALA  1.1499614611439493
   00096_GLU    00098_NME  0.0024501088865712993
   00097_ALA    00098_NME  1.1961487931613455
