   00001_ACE    00046_GLY  0.0003390851561557244
   00001_ACE    00002_ILE  7.458293995838904
   00001_ACE    00087_TYR  0.001575621222533746
   00001_ACE    00049_ARG  0.027559532889075512
   00001_ACE    00004_ARG  0.032432861448199575
   00001_ACE    00007_ARG  0.02917554544273168
   00001_ACE    00003_PRO  0.008274394787931565
   00001_ACE    00089_PRO  0.00010422761470864109
   00001_ACE    00047_GLU  0.02861724435098639
   00002_ILE    00046_GLY  0.0006567805962534951
   00002_ILE    00048_LEU  0.0009730293376644238
   00002_ILE    00088_LYS  0.027997000281518334
   00002_ILE    00051_GLY  0.0004905147668068486
   00002_ILE    00085_ALA  0.0006914677396301503
   00002_ILE    00036_ILE  7.727738781519272e-05
   00002_ILE    00004_ARG  0.10546219119601197
   00002_ILE    00007_ARG  0.07752221858043427
   00002_ILE    00009_ILE  0.00016628089521847353
   00002_ILE    00005_GLU  0.04013137920319896
   00002_ILE    00047_GLU  0.050659669898613306
   00002_ILE    00045_SER  0.0003350539341646665
   00002_ILE    00087_TYR  0.028985578071263413
   00002_ILE    00086_GLN  0.0028418657589478875
   00002_ILE    00050_LYS  0.012967882773060328
   00002_ILE    00052_ASP  0.07101332601617949
   00002_ILE    00006_PRO  0.0008830339073689937
   00002_ILE    00003_PRO  7.701533632542149
   00002_ILE    00089_PRO  0.00035500712112893984
   00002_ILE    00049_ARG  0.061404182323379616
   00003_PRO    00088_LYS  0.017598188186659997
   00003_PRO    00087_TYR  0.01596558552150625
   00003_PRO    00086_GLN  0.008895306302058955
   00003_PRO    00085_ALA  0.0017987237753635632
   00003_PRO    00047_GLU  0.020612549731678285
   00003_PRO    00004_ARG  7.872415184366458
   00003_PRO    00052_ASP  0.02910124776145152
   00003_PRO    00007_ARG  0.07092545681892347
   00003_PRO    00006_PRO  0.0026376629634270172
   00003_PRO    00008_ARG  0.008443912495448262
   00003_PRO    00009_ILE  0.00036622598316763517
   00003_PRO    00005_GLU  0.0604146961835312
   00003_PRO    00049_ARG  0.016645120553782054
   00004_ARG    00088_LYS  0.5059734030542086
   00004_ARG    00087_TYR  0.30016963783578127
   00004_ARG    00089_PRO  0.051935349086575225
   00004_ARG    00086_GLN  0.2137963189746933
   00004_ARG    00090_GLU  1.2755290578834664
   00004_ARG    00085_ALA  0.02953221422460279
   00004_ARG    00007_ARG  0.5408737848331542
   00004_ARG    00006_PRO  0.02082836838407092
   00004_ARG    00055_LEU  0.024943690633812337
   00004_ARG    00005_GLU  8.62823155486062
   00004_ARG    00091_GLU  0.35594115140321353
   00005_GLU    00084_ILE  0.02613239459198452
   00005_GLU    00088_LYS  0.16760211359898594
   00005_GLU    00087_TYR  0.08727239462114085
   00005_GLU    00086_GLN  0.34205250089937284
   00005_GLU    00085_ALA  0.043580125397344335
   00005_GLU    00007_ARG  0.3883666976997679
   00005_GLU    00006_PRO  6.829573041155397
   00005_GLU    00055_LEU  0.03831767627166062
   00005_GLU    00008_ARG  0.1520354675595732
   00006_PRO    00084_ILE  0.0021197320273123716
   00006_PRO    00088_LYS  0.01892116736945449
   00006_PRO    00087_TYR  0.0027692410711067815
   00006_PRO    00063_ARG  0.025179378585671194
   00006_PRO    00086_GLN  0.040218309510014254
   00006_PRO    00085_ALA  0.01685432145179974
   00006_PRO    00052_ASP  0.01967900723649975
   00006_PRO    00007_ARG  6.389805225070155
   00006_PRO    00055_LEU  0.01036791799297497
   00006_PRO    00009_ILE  0.000943029982409685
   00006_PRO    00008_ARG  0.02715929010187569
   00006_PRO    00053_GLN  0.001378455485970637
   00007_ARG    00084_ILE  0.05580393906982867
   00007_ARG    00046_GLY  0.05683809640123213
   00007_ARG    00048_LEU  0.12820854000366458
   00007_ARG    00054_ILE  0.03216121158749714
   00007_ARG    00088_LYS  0.3270945540591473
   00007_ARG    00033_ILE  0.02982462309421783
   00007_ARG    00051_GLY  0.05409255546215055
   00007_ARG    00085_ALA  0.175671586968026
   00007_ARG    00036_ILE  0.026583039922071963
   00007_ARG    00083_ILE  0.049221366641057925
   00007_ARG    00055_LEU  0.04115627090817821
   00007_ARG    00009_ILE  0.0707344679558468
   00007_ARG    00082_THR  0.04050643757232819
   00007_ARG    00053_GLN  0.14226782271488841
   00007_ARG    00087_TYR  0.23194250088177193
   00007_ARG    00086_GLN  0.2881649156655559
   00007_ARG    00047_GLU  0.639534044109486
   00007_ARG    00052_ASP  1.373739369480251
   00007_ARG    00008_ARG  6.8109820015894655
   00007_ARG    00049_ARG  0.5953078136256726
   00008_ARG    00084_ILE  0.07855557260410302
   00008_ARG    00048_LEU  0.03033070908233776
   00008_ARG    00059_GLY  0.04535881461072924
   00008_ARG    00081_VAL  0.06175802547271412
   00008_ARG    00085_ALA  0.05426292057571213
   00008_ARG    00083_ILE  0.10697975314478766
   00008_ARG    00009_ILE  6.125748365075932
   00008_ARG    00080_THR  0.0683169600412425
   00008_ARG    00082_THR  0.20455624026516123
   00008_ARG    00047_GLU  0.24375161158863506
   00008_ARG    00010_VAL  0.09602890847760631
   00008_ARG    00056_SER  0.06926457117681956
   00008_ARG    00063_ARG  0.4738368114649469
   00008_ARG    00058_ASN  0.1233030906145862
   00009_ILE    00084_ILE  0.0053750799750253144
   00009_ILE    00046_GLY  0.0005373619727815431
   00009_ILE    00048_LEU  0.014087951501580308
   00009_ILE    00054_ILE  0.00030995430164286236
   00009_ILE    00056_SER  0.000876759500273703
   00009_ILE    00081_VAL  0.007581398705508655
   00009_ILE    00033_ILE  0.00019129622205393506
   00009_ILE    00085_ALA  0.006793826564943767
   00009_ILE    00057_VAL  0.0008400983584086799
   00009_ILE    00083_ILE  0.06926049054693946
   00009_ILE    00055_LEU  0.0005281896121846103
   00009_ILE    00018_LEU  0.0006822049014582529
   00009_ILE    00042_ALA  0.000509949278043412
   00009_ILE    00082_THR  0.021439373179429476
   00009_ILE    00047_GLU  0.06393707167172168
   00009_ILE    00011_ILE  0.013134488221790388
   00009_ILE    00045_SER  0.003018013245822845
   00009_ILE    00087_TYR  0.0003535581592130593
   00009_ILE    00012_HIE  0.0015799020697181134
   00009_ILE    00086_GLN  0.0009993651252511251
   00009_ILE    00052_ASP  0.0476621423212011
   00009_ILE    00010_VAL  6.210567748582396
   00009_ILE    00041_PRO  0.0005576491797292779
   00009_ILE    00020_PHE  0.00035905323039813527
   00009_ILE    00049_ARG  0.018871529391543036
   00010_VAL    00084_ILE  0.0008019820507262583
   00010_VAL    00048_LEU  0.0010155657584324622
   00010_VAL    00081_VAL  0.020369114791126724
   00010_VAL    00083_ILE  0.005826553813643952
   00010_VAL    00080_THR  0.01437706472077656
   00010_VAL    00018_LEU  0.0009199500281698273
   00010_VAL    00042_ALA  0.0006932186191241351
   00010_VAL    00082_THR  0.021474465201519872
   00010_VAL    00058_ASN  0.001025420448617059
   00010_VAL    00011_ILE  5.858175256326327
   00010_VAL    00045_SER  0.006465588630981845
   00010_VAL    00012_HIE  0.00887633130016266
   00010_VAL    00079_GLN  0.0014183727166356501
   00010_VAL    00047_GLU  0.04883215757592211
   00010_VAL    00041_PRO  0.001286668823887211
   00011_ILE    00046_GLY  0.0003923775112906609
   00011_ILE    00043_ASP  0.021545676944922883
   00011_ILE    00033_ILE  9.31663180498778e-05
   00011_ILE    00013_ARG  0.0760234484318782
   00011_ILE    00085_ALA  0.00019074320555908614
   00011_ILE    00036_ILE  0.00010748290592430728
   00011_ILE    00082_THR  0.006868588913971545
   00011_ILE    00042_ALA  0.005425458892207464
   00011_ILE    00017_GLY  0.0010610932576993078
   00011_ILE    00045_SER  0.017428410635550378
   00011_ILE    00044_LEU  0.0008982749494710946
   00011_ILE    00012_HIE  9.1193466391084
   00011_ILE    00047_GLU  0.03010264425827616
   00011_ILE    00014_GLY  0.0022667033939136705
   00011_ILE    00019_GLY  0.000417957412488543
   00011_ILE    00048_LEU  0.006215625658769454
   00011_ILE    00054_ILE  9.541611939229504e-05
   00011_ILE    00016_THR  0.0015715843750672854
   00011_ILE    00081_VAL  0.11197730457101174
   00011_ILE    00040_GLY  0.0008928257021153527
   00011_ILE    00057_VAL  0.00025938301875208004
   00011_ILE    00083_ILE  0.008807421764069345
   00011_ILE    00018_LEU  0.012562534848092593
   00011_ILE    00080_THR  0.025395724804305554
   00011_ILE    00074_LEU  0.0007204085957326562
   00011_ILE    00058_ASN  0.0010067722569831207
   00011_ILE    00077_ALA  0.0006402881700749421
   00011_ILE    00079_GLN  0.007979250283702811
   00011_ILE    00078_GLY  0.002256160661557141
   00011_ILE    00041_PRO  0.011741091246402132
   00011_ILE    00020_PHE  0.000732141364181292
   00012_HIE    00016_THR  0.008918034212495554
   00012_HIE    00081_VAL  0.007665861243370083
   00012_HIE    00013_ARG  7.785690494308502
   00012_HIE    00042_ALA  0.0017029581731782695
   00012_HIE    00018_LEU  0.0038237054086121586
   00012_HIE    00080_THR  0.05402066411748869
   00012_HIE    00047_GLU  0.03437662397493177
   00012_HIE    00015_SER  0.006524948151560829
   00012_HIE    00017_GLY  0.0026580022289732297
   00012_HIE    00045_SER  0.005647087384832148
   00012_HIE    00044_LEU  0.0025035399832264347
   00012_HIE    00079_GLN  0.06353154732468407
   00012_HIE    00078_GLY  0.005096425136035874
   00012_HIE    00014_GLY  0.05021815460580936
   00012_HIE    00041_PRO  0.006102283564585631
   00013_ARG    00019_GLY  0.048812644597934884
   00013_ARG    00075_LYS  0.34060404695968344
   00013_ARG    00016_THR  0.39683451261827124
   00013_ARG    00081_VAL  0.10900805600043326
   00013_ARG    00040_GLY  0.024158178340215247
   00013_ARG    00057_VAL  0.039759995527999546
   00013_ARG    00073_ALA  0.045739372402408725
   00013_ARG    00083_ILE  0.03185946257470288
   00013_ARG    00018_LEU  0.16263638940691924
   00013_ARG    00071_ALA  0.023258171651603543
   00013_ARG    00080_THR  0.19473453684991235
   00013_ARG    00074_LEU  0.16303504552941064
   00013_ARG    00042_ALA  0.03626835687496658
   00013_ARG    00077_ALA  0.3207326401088642
   00013_ARG    00015_SER  0.14411978770507458
   00013_ARG    00017_GLY  0.10094535898532205
   00013_ARG    00044_LEU  0.027425953087991048
   00013_ARG    00076_ASN  0.17042888489450342
   00013_ARG    00079_GLN  0.28379163407542685
   00013_ARG    00058_ASN  0.19512040603626193
   00013_ARG    00078_GLY  0.2741666103914376
   00013_ARG    00014_GLY  10.12734143527063
   00013_ARG    00041_PRO  0.03038657435544447
   00013_ARG    00020_PHE  0.0454962644723402
   00014_GLY    00015_SER  10.161658493630206
   00014_GLY    00017_GLY  0.0019179070404121874
   00014_GLY    00016_THR  0.03697160770311648
   00014_GLY    00081_VAL  0.0010406345068760625
   00014_GLY    00079_GLN  0.08828239374806544
   00014_GLY    00078_GLY  0.007144782478635998
   00014_GLY    00041_PRO  0.0006944688493967281
   00014_GLY    00018_LEU  0.0010962526852800658
   00014_GLY    00080_THR  0.005918947224175803
   00014_GLY    00074_LEU  0.0006231347133742699
   00014_GLY    00077_ALA  0.001436021208287262
   00015_SER    00017_GLY  0.008831935299437026
   00015_SER    00078_GLY  0.0024042162088348095
   00015_SER    00075_LYS  0.03486937531253425
   00015_SER    00016_THR  10.236717885783925
   00015_SER    00074_LEU  0.0008750264847490867
   00015_SER    00079_GLN  0.013348891778850914
   00015_SER    00077_ALA  0.0010309562515280271
   00016_THR    00019_GLY  0.004453904203994056
   00016_THR    00075_LYS  0.04391987913755444
   00016_THR    00039_GLY  0.0011503496661300647
   00016_THR    00081_VAL  0.0008918183114967347
   00016_THR    00040_GLY  0.002901521415546119
   00016_THR    00037_LEU  0.0012060047191564378
   00016_THR    00018_LEU  0.015315236393278253
   00016_THR    00074_LEU  0.0025683607499537185
   00016_THR    00017_GLY  7.076625042588145
   00016_THR    00044_LEU  0.0008490460574214666
   00016_THR    00079_GLN  0.0062617789179497405
   00016_THR    00041_PRO  0.004744440297080063
   00017_GLY    00019_GLY  0.03723037865107075
   00017_GLY    00074_LEU  0.0032549562511066305
   00017_GLY    00075_LYS  0.03212679862254905
   00017_GLY    00081_VAL  0.0008148307066420874
   00017_GLY    00040_GLY  0.002478128982561935
   00017_GLY    00037_LEU  0.002213587922056545
   00017_GLY    00018_LEU  8.588392732914786
   00017_GLY    00041_PRO  0.011878371910749258
   00017_GLY    00071_ALA  0.00039879687213246405
   00017_GLY    00042_ALA  0.0026236392923636898
   00017_GLY    00020_PHE  0.003242909525054295
   00018_LEU    00033_ILE  0.0004147705717822125
   00018_LEU    00036_ILE  0.0014854132839073936
   00018_LEU    00037_LEU  0.003818246346354664
   00018_LEU    00071_ALA  0.0005897482899569089
   00018_LEU    00082_THR  0.0012016437302070726
   00018_LEU    00021_ASN  0.001846612623431589
   00018_LEU    00045_SER  0.0015286920827648398
   00018_LEU    00044_LEU  0.0008649314022687925
   00018_LEU    00022_ILE  0.0006068443063196664
   00018_LEU    00076_ASN  0.0009866535254053621
   00018_LEU    00043_ASP  0.03447205647945783
   00018_LEU    00047_GLU  0.024823402712312908
   00018_LEU    00070_ALA  0.0008343501107724475
   00018_LEU    00019_GLY  10.319648449444282
   00018_LEU    00048_LEU  0.0013645419179052294
   00018_LEU    00054_ILE  0.0002329637992515221
   00018_LEU    00075_LYS  0.028920786519853744
   00018_LEU    00081_VAL  0.026903935451626566
   00018_LEU    00040_GLY  0.0053966339899936605
   00018_LEU    00057_VAL  0.000515545160582649
   00018_LEU    00073_ALA  0.0009452353250868485
   00018_LEU    00083_ILE  0.013337517517799236
   00018_LEU    00042_ALA  0.029942387662537564
   00018_LEU    00074_LEU  0.04174998245776838
   00018_LEU    00058_ASN  0.0006717346060767197
   00018_LEU    00077_ALA  0.0014748505562854758
   00018_LEU    00080_THR  0.001369553241151071
   00018_LEU    00079_GLN  0.0016908400940614868
   00018_LEU    00078_GLY  0.0012011935070951746
   00018_LEU    00041_PRO  0.0325023831596299
   00018_LEU    00020_PHE  0.036870743887782706
   00019_GLY    00048_LEU  0.0009737365013120583
   00019_GLY    00039_GLY  0.0014544592210199911
   00019_GLY    00033_ILE  0.0007760842365754155
   00019_GLY    00036_ILE  0.009140227662244106
   00019_GLY    00037_LEU  0.05003206612756924
   00019_GLY    00042_ALA  0.004425268786063278
   00019_GLY    00074_LEU  0.0012056926280280334
   00019_GLY    00021_ASN  0.007485444736080818
   00019_GLY    00038_ALA  0.0025815285583456688
   00019_GLY    00044_LEU  0.0008454349097176137
   00019_GLY    00022_ILE  0.0009875697256319384
   00019_GLY    00043_ASP  0.02386293380612474
   00019_GLY    00035_PHE  0.007768395877679563
   00019_GLY    00041_PRO  0.002434168479029352
   00019_GLY    00020_PHE  9.287657063882264
   00019_GLY    00040_GLY  0.004441505568019053
   00020_PHE    00033_ILE  0.01685634477724793
   00020_PHE    00023_VAL  0.0011898522247292857
   00020_PHE    00085_ALA  0.00026901914931203117
   00020_PHE    00036_ILE  0.024395197038558636
   00020_PHE    00037_LEU  0.008625671981840735
   00020_PHE    00082_THR  0.0006699636114314986
   00020_PHE    00021_ASN  7.457284689217001
   00020_PHE    00032_PHE  0.0016987421992760911
   00020_PHE    00045_SER  0.0007521597800503395
   00020_PHE    00022_ILE  0.02010111136202928
   00020_PHE    00043_ASP  0.03024932268094901
   00020_PHE    00047_GLU  0.02626591051990946
   00020_PHE    00070_ALA  0.0016666622400986445
   00020_PHE    00049_ARG  0.025453266600724944
   00020_PHE    00048_LEU  0.008623494933746012
   00020_PHE    00054_ILE  0.0037656068858538234
   00020_PHE    00071_ALA  0.0012015235579834044
   00020_PHE    00081_VAL  0.0005793797040660896
   00020_PHE    00040_GLY  0.001813781922990576
   00020_PHE    00062_LEU  0.00021087837861002697
   00020_PHE    00057_VAL  0.0004738540987937542
   00020_PHE    00067_HID  0.0010974503508986598
   00020_PHE    00083_ILE  0.006082682446754817
   00020_PHE    00031_ILE  0.0006832046326949732
   00020_PHE    00034_SER  0.003443058305520138
   00020_PHE    00042_ALA  0.02521553680294286
   00020_PHE    00074_LEU  0.01307683940531968
   00020_PHE    00077_ALA  0.0003259097239452236
   00020_PHE    00050_LYS  0.03637016330589478
   00020_PHE    00052_ASP  0.05119461476518419
   00020_PHE    00041_PRO  0.0013259082796591077
   00020_PHE    00035_PHE  0.02658514595032936
   00021_ASN    00048_LEU  0.0011730224655450501
   00021_ASN    00054_ILE  0.0006915556014115358
   00021_ASN    00071_ALA  0.0012063807804667127
   00021_ASN    00092_TYR  0.004233130552674265
   00021_ASN    00033_ILE  0.012241097275114415
   00021_ASN    00034_SER  0.10220370345566067
   00021_ASN    00023_VAL  0.011018681021606034
   00021_ASN    00067_HID  0.004349916075500298
   00021_ASN    00036_ILE  0.00655326365405564
   00021_ASN    00024_GLY  0.0019493796643085411
   00021_ASN    00095_PHE  0.0016101402168841935
   00021_ASN    00031_ILE  0.001455037135514678
   00021_ASN    00098_NME  0.00013127505309143336
   00021_ASN    00037_LEU  0.0033106041882767214
   00021_ASN    00074_LEU  0.0007430899881892429
   00021_ASN    00032_PHE  0.009029299396092276
   00021_ASN    00022_ILE  6.613546558821425
   00021_ASN    00050_LYS  0.14302052714465846
   00021_ASN    00097_ALA  0.0005488576722531785
   00021_ASN    00035_PHE  0.06746240272003536
   00022_ILE    00092_TYR  0.0015444022627544409
   00022_ILE    00025_GLY  0.0008712350373944779
   00022_ILE    00033_ILE  0.01193251054459583
   00022_ILE    00023_VAL  6.607040956825644
   00022_ILE    00036_ILE  0.0006800433609501377
   00022_ILE    00024_GLY  0.005042021534196977
   00022_ILE    00065_ALA  0.000648203253636573
   00022_ILE    00053_GLN  0.0013072270720766764
   00022_ILE    00032_PHE  0.034855831595992245
   00022_ILE    00070_ALA  0.007398443529317014
   00022_ILE    00072_ILE  0.0006703905013792953
   00022_ILE    00068_GLU  0.04463124940505354
   00022_ILE    00048_LEU  0.00035609334613902736
   00022_ILE    00054_ILE  0.014021998373944971
   00022_ILE    00071_ALA  0.006049663897457937
   00022_ILE    00030_GLY  0.0012956228966290312
   00022_ILE    00066_SER  0.0019366535992326344
   00022_ILE    00057_VAL  0.0003518441426108829
   00022_ILE    00067_HID  0.02592962703442096
   00022_ILE    00073_ALA  0.0003661970352314908
   00022_ILE    00083_ILE  0.00017388071719601862
   00022_ILE    00031_ILE  0.009277761537718395
   00022_ILE    00069_GLN  0.0021762592700365563
   00022_ILE    00034_SER  0.019814400154594767
   00022_ILE    00074_LEU  0.0027530970631961375
   00022_ILE    00062_LEU  0.0004145482368483739
   00022_ILE    00052_ASP  0.022530030441120702
   00022_ILE    00035_PHE  0.0031246438956414996
   00023_VAL    00054_ILE  0.0008070649367309439
   00023_VAL    00030_GLY  0.008320244784094046
   00023_VAL    00092_TYR  0.004614215371234995
   00023_VAL    00025_GLY  0.010770330017184254
   00023_VAL    00033_ILE  0.005519693514323371
   00023_VAL    00098_NME  6.40425322453294e-05
   00023_VAL    00051_GLY  0.0007319930406976847
   00023_VAL    00067_HID  0.04144614791160938
   00023_VAL    00097_ALA  0.00026748030456686615
   00023_VAL    00029_GLU  0.05755894688336396
   00023_VAL    00095_PHE  0.011469413025167506
   00023_VAL    00031_ILE  0.01753638088020057
   00023_VAL    00034_SER  0.02820153131229449
   00023_VAL    00024_GLY  5.884719745251612
   00023_VAL    00065_ALA  0.0014837025241742
   00023_VAL    00053_GLN  0.0029506345950176057
   00023_VAL    00032_PHE  0.07874857376976115
   00023_VAL    00035_PHE  0.0006051758060570266
   00023_VAL    00068_GLU  0.04931646881525807
   00023_VAL    00094_ARG  0.047719156359760276
   00023_VAL    00050_LYS  0.054335554898948535
   00023_VAL    00052_ASP  0.02609176509349503
   00023_VAL    00070_ALA  0.00097386809565003
   00023_VAL    00066_SER  0.0040015969909124064
   00023_VAL    00026_GLU  0.03916528399592488
   00023_VAL    00096_GLU  0.045140408666375545
   00024_GLY    00095_PHE  0.00868615914010539
   00024_GLY    00030_GLY  0.013761024544147123
   00024_GLY    00092_TYR  0.0011982461019655643
   00024_GLY    00025_GLY  6.37579784743505
   00024_GLY    00026_GLU  0.09960614290847974
   00024_GLY    00028_GLY  0.002099686945081846
   00024_GLY    00067_HID  0.1261002297699501
   00024_GLY    00029_GLU  0.07814835399872908
   00024_GLY    00031_ILE  0.006766603934543639
   00024_GLY    00069_GLN  0.001743961896372926
   00024_GLY    00034_SER  0.0012639226632134113
   00024_GLY    00065_ALA  0.00534920631658489
   00024_GLY    00053_GLN  0.0029925526044053004
   00024_GLY    00032_PHE  0.007293224217622619
   00024_GLY    00094_ARG  0.041227983228994645
   00024_GLY    00070_ALA  0.0004989491828309155
   00024_GLY    00068_GLU  0.06636283345556392
   00024_GLY    00066_SER  0.016278053988804463
   00025_GLY    00095_PHE  0.0010460502669647914
   00025_GLY    00064_ASN  0.007695436844635199
   00025_GLY    00030_GLY  0.050862043728286524
   00025_GLY    00066_SER  0.02597679822910871
   00025_GLY    00028_GLY  0.025548853663622802
   00025_GLY    00067_HID  0.008430295419544286
   00025_GLY    00029_GLU  0.09693199947913653
   00025_GLY    00031_ILE  0.013579497402129935
   00025_GLY    00069_GLN  0.0013746609516968964
   00025_GLY    00065_ALA  0.024619788486953544
   00025_GLY    00053_GLN  0.0035732397669344658
   00025_GLY    00062_LEU  0.0012435470827952628
   00025_GLY    00063_ARG  0.021801468091885823
   00025_GLY    00094_ARG  0.028983531667104014
   00025_GLY    00027_ASP  0.07376634233726999
   00025_GLY    00032_PHE  0.0014907100327063577
   00025_GLY    00068_GLU  0.03418803275356255
   00025_GLY    00026_GLU  8.571673365808094
   00025_GLY    00070_ALA  0.00036904234199446
   00026_GLU    00095_PHE  0.04468228703580796
   00026_GLU    00064_ASN  0.09233669106862746
   00026_GLU    00030_GLY  0.07413453655769218
   00026_GLU    00066_SER  0.06461684162779366
   00026_GLU    00028_GLY  0.14872959169893796
   00026_GLU    00067_HID  0.06115931136027802
   00026_GLU    00029_GLU  0.3914356895966613
   00026_GLU    00031_ILE  0.036533339100040155
   00026_GLU    00069_GLN  0.042197793733563624
   00026_GLU    00065_ALA  0.03919597530694889
   00026_GLU    00032_PHE  0.03101669342884415
   00026_GLU    00094_ARG  0.2977572358673288
   00026_GLU    00027_ASP  9.041363878471117
   00026_GLU    00068_GLU  0.16754552057378336
   00027_ASP    00064_ASN  0.11479123699047147
   00027_ASP    00030_GLY  0.03670598535411292
   00027_ASP    00063_ARG  0.10999376840863756
   00027_ASP    00066_SER  0.05717605764671574
   00027_ASP    00094_ARG  0.2423651556169317
   00027_ASP    00028_GLY  9.28093311850361
   00027_ASP    00067_HID  0.046378117658433804
   00027_ASP    00029_GLU  0.24577012624162975
   00027_ASP    00069_GLN  0.04616806667857053
   00027_ASP    00065_ALA  0.026595287132231943
   00028_GLY    00064_ASN  0.028653555196182016
   00028_GLY    00030_GLY  0.0479528033848084
   00028_GLY    00063_ARG  0.02866704906500843
   00028_GLY    00066_SER  0.0014219179839258726
   00028_GLY    00094_ARG  0.04447153781639025
   00028_GLY    00067_HID  0.001172040998180078
   00028_GLY    00029_GLU  11.095232263897742
   00028_GLY    00031_ILE  0.002323786407183509
   00028_GLY    00032_PHE  0.0007919134785809084
   00028_GLY    00069_GLN  0.0005830544734105396
   00028_GLY    00088_LYS  0.0345148452833531
   00028_GLY    00065_ALA  0.006239731375715618
   00028_GLY    00053_GLN  0.006483345768481837
   00028_GLY    00062_LEU  0.00142834764642605
   00029_GLU    00095_PHE  0.12111459989586003
   00029_GLU    00064_ASN  0.07653993270671423
   00029_GLU    00030_GLY  10.802231736927814
   00029_GLU    00066_SER  0.03191358453829061
   00029_GLU    00067_HID  0.051340095164090875
   00029_GLU    00031_ILE  0.0503264504212049
   00029_GLU    00088_LYS  0.2226831658625413
   00029_GLU    00065_ALA  0.03840641080617239
   00029_GLU    00053_GLN  0.2992819785783286
   00029_GLU    00062_LEU  0.03237142278995995
   00029_GLU    00063_ARG  0.1490024975276604
   00029_GLU    00094_ARG  1.3505022579831478
   00029_GLU    00086_GLN  0.0854185038438086
   00029_GLU    00032_PHE  0.08368917700983532
   00029_GLU    00055_LEU  0.028535938275006258
   00029_GLU    00091_GLU  0.3258624269888802
   00030_GLY    00054_ILE  0.004340256578217775
   00030_GLY    00064_ASN  0.0051598236219524115
   00030_GLY    00092_TYR  0.0014143802080608288
   00030_GLY    00066_SER  0.0035063026436637002
   00030_GLY    00067_HID  0.005360702754526929
   00030_GLY    00095_PHE  0.0017911639183111705
   00030_GLY    00031_ILE  6.273345415464417
   00030_GLY    00088_LYS  0.038502328741498594
   00030_GLY    00065_ALA  0.005957631108211144
   00030_GLY    00053_GLN  0.05979543250376914
   00030_GLY    00032_PHE  0.028420201543202853
   00030_GLY    00063_ARG  0.028724763437298188
   00030_GLY    00094_ARG  0.05545133700582483
   00030_GLY    00086_GLN  0.0016754079524883643
   00030_GLY    00062_LEU  0.002800929274456296
   00030_GLY    00055_LEU  0.0008770317751451831
   00030_GLY    00091_GLU  0.02530263911853042
   00030_GLY    00070_ALA  0.0007128970955363511
   00031_ILE    00064_ASN  0.0015855254672768216
   00031_ILE    00092_TYR  0.0015125671413792029
   00031_ILE    00033_ILE  0.007078307096396228
   00031_ILE    00054_ILE  0.0673010140769611
   00031_ILE    00055_LEU  0.0024679498921762887
   00031_ILE    00088_LYS  0.05733638323406012
   00031_ILE    00065_ALA  0.03487662711116855
   00031_ILE    00053_GLN  0.06473685841235852
   00031_ILE    00032_PHE  6.109861603014427
   00031_ILE    00070_ALA  0.038621144239072404
   00031_ILE    00068_GLU  0.04351148979060578
   00031_ILE    00095_PHE  0.0010002002051566216
   00031_ILE    00071_ALA  0.000499454457800326
   00031_ILE    00066_SER  0.0076913431461443915
   00031_ILE    00057_VAL  0.0005650650015757341
   00031_ILE    00067_HID  0.04817528402914198
   00031_ILE    00073_ALA  0.00021849974423388837
   00031_ILE    00083_ILE  0.0003949051626234059
   00031_ILE    00069_GLN  0.001950742291458594
   00031_ILE    00034_SER  0.0014376961185308802
   00031_ILE    00074_LEU  0.0003214097973716261
   00031_ILE    00062_LEU  0.030356181406680303
   00031_ILE    00056_SER  0.0015036089425973008
   00031_ILE    00063_ARG  0.021273239081626986
   00031_ILE    00094_ARG  0.041240386285218845
   00031_ILE    00052_ASP  0.05797014460545156
   00031_ILE    00061_ASP  0.02308631959706755
   00032_PHE    00095_PHE  0.007115022762426949
   00032_PHE    00088_LYS  0.11194807390226653
   00032_PHE    00092_TYR  0.03563993907494524
   00032_PHE    00033_ILE  5.887023147655852
   00032_PHE    00051_GLY  0.012560926552957213
   00032_PHE    00090_GLU  0.03726479044251397
   00032_PHE    00067_HID  0.003210026456942357
   00032_PHE    00085_ALA  0.0005299923644308778
   00032_PHE    00054_ILE  0.007971633362417631
   00032_PHE    00055_LEU  0.0009848044842317256
   00032_PHE    00034_SER  0.02081598254007435
   00032_PHE    00091_GLU  0.06953539260293025
   00032_PHE    00065_ALA  0.0011661304393002512
   00032_PHE    00053_GLN  0.05282051253426991
   00032_PHE    00035_PHE  0.0023307727077658295
   00032_PHE    00066_SER  0.0008112678214022551
   00032_PHE    00087_TYR  0.0010276765309033084
   00032_PHE    00094_ARG  0.09798233856953947
   00032_PHE    00063_ARG  0.03169620711617712
   00032_PHE    00086_GLN  0.002949402231565108
   00032_PHE    00050_LYS  0.07128753262649559
   00032_PHE    00052_ASP  0.08401017529352649
   00032_PHE    00089_PRO  0.0012405909319621535
   00032_PHE    00049_ARG  0.023424446533622714
   00032_PHE    00093_SER  0.0013130618704189476
   00032_PHE    00096_GLU  0.05194311598217517
   00033_ILE    00084_ILE  0.0004281825956241811
   00033_ILE    00048_LEU  0.020888134416153965
   00033_ILE    00054_ILE  0.016818326867482285
   00033_ILE    00092_TYR  0.012272958629538812
   00033_ILE    00051_GLY  0.024108556091175667
   00033_ILE    00085_ALA  0.00041656109008301036
   00033_ILE    00036_ILE  0.013119564760885116
   00033_ILE    00083_ILE  0.00027887504852967956
   00033_ILE    00034_SER  6.608167692739408
   00033_ILE    00037_LEU  0.0004527901338559201
   00033_ILE    00042_ALA  0.0004731831004590836
   00033_ILE    00074_LEU  0.00019991303016134832
   00033_ILE    00053_GLN  0.008513603072872472
   00033_ILE    00049_ARG  0.049701021174506116
   00033_ILE    00057_VAL  0.00021909245699865257
   00033_ILE    00087_TYR  0.0011252888820614303
   00033_ILE    00095_PHE  0.0009415713535925066
   00033_ILE    00086_GLN  0.0013604583921379356
   00033_ILE    00050_LYS  0.11317463086405573
   00033_ILE    00052_ASP  0.11146150235735597
   00033_ILE    00070_ALA  0.00039453435589858717
   00033_ILE    00035_PHE  0.009868045433199324
   00033_ILE    00096_GLU  0.04758850184203449
   00034_SER    00095_PHE  0.00246757677425483
   00034_SER    00092_TYR  0.03879100690302817
   00034_SER    00051_GLY  0.0021447125473883655
   00034_SER    00036_ILE  0.0032018748150059156
   00034_SER    00052_ASP  0.05339989253989514
   00034_SER    00096_GLU  0.15268442355545978
   00034_SER    00054_ILE  0.0003864204646884976
   00034_SER    00098_NME  0.0001916828398542512
   00034_SER    00050_LYS  0.2738541228583766
   00034_SER    00097_ALA  0.0008141880023577987
   00034_SER    00049_ARG  0.05236415537699
   00034_SER    00035_PHE  10.102783724688386
   00035_PHE    00038_ALA  0.002365071803769287
   00035_PHE    00048_LEU  0.0016928252565028433
   00035_PHE    00092_TYR  0.0026313479201858186
   00035_PHE    00051_GLY  0.0010197329247277648
   00035_PHE    00050_LYS  0.09283789968682744
   00035_PHE    00098_NME  5.218662890854745e-05
   00035_PHE    00037_LEU  0.02541437044025879
   00035_PHE    00042_ALA  0.0012532949810588525
   00035_PHE    00036_ILE  7.970630369132581
   00035_PHE    00097_ALA  0.00019823189360449982
   00035_PHE    00049_ARG  0.05752958210995631
   00035_PHE    00096_GLU  0.0508063830518214
   00036_ILE    00046_GLY  0.0005845245853254186
   00036_ILE    00048_LEU  0.009472754805851621
   00036_ILE    00054_ILE  0.00010604715260546406
   00036_ILE    00039_GLY  0.0018902368432227867
   00036_ILE    00040_GLY  0.0030392104905474773
   00036_ILE    00051_GLY  0.0003694593704343181
   00036_ILE    00037_LEU  7.959486448500674
   00036_ILE    00042_ALA  0.011621396260853326
   00036_ILE    00047_GLU  0.021885478646298317
   00036_ILE    00038_ALA  0.016592493650467704
   00036_ILE    00045_SER  0.000683666851952654
   00036_ILE    00044_LEU  0.0008703694730203036
   00036_ILE    00043_ASP  0.09135472785723404
   00036_ILE    00050_LYS  0.07608993276731463
   00036_ILE    00052_ASP  0.0388870095217095
   00036_ILE    00041_PRO  0.000681797016042191
   00036_ILE    00049_ARG  0.07649752631606824
   00037_LEU    00038_ALA  6.6165719576449
   00037_LEU    00044_LEU  0.0023221490727874453
   00037_LEU    00039_GLY  0.01829178700874014
   00037_LEU    00040_GLY  0.03477425875193202
   00037_LEU    00043_ASP  0.12820234096307728
   00037_LEU    00041_PRO  0.0016277263582803057
   00037_LEU    00042_ALA  0.00420069060859368
   00038_ALA    00044_LEU  0.0029775098713973715
   00038_ALA    00039_GLY  10.162541908897152
   00038_ALA    00040_GLY  0.05344359042084439
   00038_ALA    00043_ASP  0.12061102980733743
   00038_ALA    00042_ALA  0.001676772425467963
   00039_GLY    00044_LEU  0.01670491938688906
   00039_GLY    00040_GLY  10.698198393009061
   00039_GLY    00043_ASP  0.12795695803610396
   00039_GLY    00041_PRO  0.0023687170000621072
   00039_GLY    00042_ALA  0.0029088662990563283
   00040_GLY    00046_GLY  0.0014725480140197196
   00040_GLY    00045_SER  0.008675348729134521
   00040_GLY    00044_LEU  0.09033060946604468
   00040_GLY    00043_ASP  0.15627984660891214
   00040_GLY    00041_PRO  7.599734641891425
   00040_GLY    00042_ALA  0.036027483045155045
   00041_PRO    00046_GLY  0.0035511286460373115
   00041_PRO    00048_LEU  0.002020044348679336
   00041_PRO    00045_SER  0.05961977766899712
   00041_PRO    00044_LEU  0.023877477146290817
   00041_PRO    00081_VAL  0.0008500469734880372
   00041_PRO    00043_ASP  0.04609870859380761
   00041_PRO    00083_ILE  0.0003287262394319748
   00041_PRO    00042_ALA  8.970443435171708
   00041_PRO    00074_LEU  0.00035442513986212135
   00041_PRO    00047_GLU  0.014369724298837311
   00042_ALA    00046_GLY  0.015906053584182622
   00042_ALA    00048_LEU  0.031227329586756263
   00042_ALA    00045_SER  0.035851505447975156
   00042_ALA    00044_LEU  0.016459686941756042
   00042_ALA    00081_VAL  0.0004383186584081431
   00042_ALA    00043_ASP  8.77459448656503
   00042_ALA    00047_GLU  0.023791751142101566
   00042_ALA    00083_ILE  0.00037014802014567587
   00042_ALA    00049_ARG  0.03635146816793317
   00043_ASP    00046_GLY  0.13434273782224107
   00043_ASP    00048_LEU  0.05468404787343849
   00043_ASP    00045_SER  0.15208979592978342
   00043_ASP    00044_LEU  10.801484612848945
   00043_ASP    00049_ARG  0.44643016542697134
   00043_ASP    00047_GLU  0.1564901417580544
   00044_LEU    00046_GLY  0.011880567412538585
   00044_LEU    00045_SER  8.294090016680617
   00044_LEU    00047_GLU  0.05027923146682577
   00045_SER    00046_GLY  11.584640226661177
   00045_SER    00048_LEU  0.009212330105870508
   00045_SER    00047_GLU  0.26403782732802866
   00045_SER    00083_ILE  0.000901060332067798
   00045_SER    00049_ARG  0.06112832577422026
   00046_GLY    00048_LEU  0.03343962314494375
   00046_GLY    00047_GLU  9.54513226880624
   00046_GLY    00049_ARG  0.08073146751375647
   00047_GLU    00048_LEU  7.571931896163158
   00047_GLU    00087_TYR  0.0913661728259506
   00047_GLU    00085_ALA  0.036034221735184425
   00047_GLU    00052_ASP  0.22035569836077887
   00047_GLU    00083_ILE  0.030888648751752193
   00047_GLU    00049_ARG  0.29318750380860414
   00048_LEU    00084_ILE  0.0009147266108193563
   00048_LEU    00054_ILE  0.000537494794365899
   00048_LEU    00081_VAL  0.0005292125424223088
   00048_LEU    00057_VAL  0.000280114207022497
   00048_LEU    00085_ALA  0.004017089766213921
   00048_LEU    00083_ILE  0.004743654223852901
   00048_LEU    00055_LEU  0.0003194165923613763
   00048_LEU    00074_LEU  0.00032029817185681757
   00048_LEU    00082_THR  0.0008518377660877387
   00048_LEU    00053_GLN  0.0015506089521105505
   00048_LEU    00087_TYR  0.0021045381411712353
   00048_LEU    00086_GLN  0.00162816027101107
   00048_LEU    00050_LYS  0.0451694688622475
   00048_LEU    00052_ASP  0.15234871526931917
   00048_LEU    00049_ARG  6.35562751741466
   00049_ARG    00054_ILE  0.01683889203361093
   00049_ARG    00088_LYS  0.17771347031955714
   00049_ARG    00087_TYR  0.23787751225490636
   00049_ARG    00092_TYR  0.07496850738506523
   00049_ARG    00086_GLN  0.057606634794784006
   00049_ARG    00051_GLY  0.06995431904396315
   00049_ARG    00085_ALA  0.02373177640215006
   00049_ARG    00050_LYS  5.668458687327146
   00049_ARG    00052_ASP  0.5318732123403538
   00049_ARG    00089_PRO  0.020201422234375013
   00049_ARG    00053_GLN  0.0587379526377425
   00050_LYS    00095_PHE  0.07406178854723494
   00050_LYS    00088_LYS  0.11664658111016536
   00050_LYS    00087_TYR  0.04574478907946136
   00050_LYS    00092_TYR  0.3821459931830185
   00050_LYS    00097_ALA  0.04058154028987552
   00050_LYS    00051_GLY  6.206475367324709
   00050_LYS    00052_ASP  0.2725422362952726
   00050_LYS    00098_NME  0.018767782573302635
   00050_LYS    00089_PRO  0.02688232712941944
   00050_LYS    00093_SER  0.097439197204638
   00050_LYS    00096_GLU  0.7716538854311401
   00051_GLY    00095_PHE  0.0008748657732189725
   00051_GLY    00088_LYS  0.08667724267111783
   00051_GLY    00092_TYR  0.017842633193869053
   00051_GLY    00090_GLU  0.03663880931480606
   00051_GLY    00053_GLN  0.016209423088486528
   00051_GLY    00087_TYR  0.012942074970985094
   00051_GLY    00089_PRO  0.013688370509950438
   00051_GLY    00086_GLN  0.007991081316558419
   00051_GLY    00052_ASP  8.023668194792643
   00051_GLY    00091_GLU  0.029005944335854142
   00051_GLY    00093_SER  0.001449370605629961
   00051_GLY    00096_GLU  0.05499873272589649
   00052_ASP    00084_ILE  0.052087807617137265
   00052_ASP    00054_ILE  0.06697625665516761
   00052_ASP    00088_LYS  0.2283092972118743
   00052_ASP    00087_TYR  0.31234692577911677
   00052_ASP    00092_TYR  0.10376230320372895
   00052_ASP    00086_GLN  0.2624651788710506
   00052_ASP    00085_ALA  0.10137905131623311
   00052_ASP    00083_ILE  0.047027955200572444
   00052_ASP    00055_LEU  0.05074765404409343
   00052_ASP    00089_PRO  0.02282037050981939
   00052_ASP    00053_GLN  6.850525840885751
   00053_GLN    00084_ILE  0.008813785629721295
   00053_GLN    00054_ILE  6.26397464507788
   00053_GLN    00064_ASN  0.005409473213269928
   00053_GLN    00092_TYR  0.0043113817031031065
   00053_GLN    00085_ALA  0.044680724954746856
   00053_GLN    00095_PHE  0.0017602943911444791
   00053_GLN    00055_LEU  0.04242507888184978
   00053_GLN    00088_LYS  0.5092588237711251
   00053_GLN    00065_ALA  0.003951193232327435
   00053_GLN    00091_GLU  0.1609569670730518
   00053_GLN    00062_LEU  0.008851498366278203
   00053_GLN    00056_SER  0.006744384531593493
   00053_GLN    00087_TYR  0.008635058180676877
   00053_GLN    00063_ARG  0.21349446118838739
   00053_GLN    00094_ARG  0.2137063465167659
   00053_GLN    00086_GLN  0.06713467452421673
   00053_GLN    00083_ILE  0.002101015518774377
   00053_GLN    00089_PRO  0.0015222822639491343
   00054_ILE    00084_ILE  0.00765995919631362
   00054_ILE    00064_ASN  0.0016772681381328606
   00054_ILE    00081_VAL  0.00024280929127754006
   00054_ILE    00071_ALA  0.000451436454349
   00054_ILE    00057_VAL  0.017549255830400044
   00054_ILE    00067_HID  0.0015694419466904489
   00054_ILE    00085_ALA  0.005823051304289109
   00054_ILE    00073_ALA  0.0003936899232282193
   00054_ILE    00083_ILE  0.0020613742012003
   00054_ILE    00055_LEU  5.745752631123947
   00054_ILE    00088_LYS  0.0606934754787599
   00054_ILE    00074_LEU  0.0004687956100533636
   00054_ILE    00082_THR  0.0008904284761438216
   00054_ILE    00062_LEU  0.015271805887940313
   00054_ILE    00056_SER  0.013537467214131665
   00054_ILE    00065_ALA  0.0018464249174091356
   00054_ILE    00060_VAL  0.0013444514533044946
   00054_ILE    00063_ARG  0.058617223799597495
   00054_ILE    00086_GLN  0.006046658588752217
   00054_ILE    00070_ALA  0.002905835593406295
   00054_ILE    00061_ASP  0.044819296758236295
   00055_LEU    00084_ILE  0.050610048030624966
   00055_LEU    00064_ASN  0.002307214510703699
   00055_LEU    00088_LYS  0.08230458793467799
   00055_LEU    00057_VAL  0.004394351424415324
   00055_LEU    00085_ALA  0.021174838629783848
   00055_LEU    00083_ILE  0.0023385104776845102
   00055_LEU    00059_GLY  0.001637465444687356
   00055_LEU    00065_ALA  0.001184205148251201
   00055_LEU    00062_LEU  0.03777991925712978
   00055_LEU    00056_SER  8.677434667061327
   00055_LEU    00087_TYR  0.000859670032079338
   00055_LEU    00060_VAL  0.006010987117004997
   00055_LEU    00063_ARG  0.25859679626569415
   00055_LEU    00086_GLN  0.023986413025392683
   00055_LEU    00061_ASP  0.09520624318300183
   00056_SER    00084_ILE  0.06992033157053171
   00056_SER    00059_GLY  0.039364550500613986
   00056_SER    00081_VAL  0.0016255230391867778
   00056_SER    00057_VAL  6.409512864133202
   00056_SER    00085_ALA  0.004115636396901331
   00056_SER    00073_ALA  0.002597469668401776
   00056_SER    00083_ILE  0.015453793581236667
   00056_SER    00074_LEU  0.0020808445956039456
   00056_SER    00082_THR  0.013427807584176823
   00056_SER    00058_ASN  0.010799189297716906
   00056_SER    00062_LEU  0.023041926464762122
   00056_SER    00060_VAL  0.15797734531461055
   00056_SER    00063_ARG  0.23534874240716708
   00056_SER    00086_GLN  0.001809715361904799
   00056_SER    00070_ALA  0.0026268743258388264
   00056_SER    00061_ASP  0.0900684072569277
   00057_VAL    00084_ILE  0.004326347819366275
   00057_VAL    00059_GLY  0.04339164729026951
   00057_VAL    00081_VAL  0.0036877060615598265
   00057_VAL    00061_ASP  0.042926498694284436
   00057_VAL    00085_ALA  0.0008307024127292975
   00057_VAL    00073_ALA  0.020568195532705124
   00057_VAL    00083_ILE  0.02297638939787725
   00057_VAL    00069_GLN  0.0044106653300844635
   00057_VAL    00071_ALA  0.0011017504084822006
   00057_VAL    00080_THR  0.0008028037073893018
   00057_VAL    00074_LEU  0.018436134851788893
   00057_VAL    00082_THR  0.02148233985875592
   00057_VAL    00058_ASN  6.2187357107048715
   00057_VAL    00062_LEU  0.03408977929574492
   00057_VAL    00065_ALA  0.00046911497706469534
   00057_VAL    00060_VAL  0.09517518634690783
   00057_VAL    00063_ARG  0.06474427952110932
   00057_VAL    00076_ASN  0.003188881910139536
   00057_VAL    00078_GLY  0.0009276831380227306
   00057_VAL    00077_ALA  0.0015593263218844696
   00057_VAL    00072_ILE  0.0019509344054298764
   00057_VAL    00075_LYS  0.03410354044766414
   00057_VAL    00070_ALA  0.005947014376460883
   00058_ASN    00084_ILE  0.0007825971257618584
   00058_ASN    00075_LYS  0.13128404769772598
   00058_ASN    00081_VAL  0.01610379682172803
   00058_ASN    00073_ALA  0.04662996080313549
   00058_ASN    00083_ILE  0.004516543938837304
   00058_ASN    00059_GLY  6.67340690273697
   00058_ASN    00080_THR  0.00764852188528905
   00058_ASN    00074_LEU  0.005621272610662776
   00058_ASN    00082_THR  0.05491948377771932
   00058_ASN    00077_ALA  0.04581386264419662
   00058_ASN    00060_VAL  0.04211865073450953
   00058_ASN    00076_ASN  0.05745130661473291
   00058_ASN    00079_GLN  0.003161334491383242
   00058_ASN    00078_GLY  0.015345650348224878
   00058_ASN    00062_LEU  0.0006331139873808056
   00058_ASN    00072_ILE  0.006828323627822483
   00058_ASN    00070_ALA  0.0016665046536275005
   00059_GLY    00084_ILE  0.0008952009436139274
   00059_GLY    00060_VAL  6.862884035698198
   00059_GLY    00081_VAL  0.0008135128107524286
   00059_GLY    00076_ASN  0.0012523801580398416
   00059_GLY    00073_ALA  0.0013548992256980695
   00059_GLY    00083_ILE  0.0014972131650947222
   00059_GLY    00062_LEU  0.0018214277275498947
   00059_GLY    00061_ASP  0.06975308726802311
   00059_GLY    00082_THR  0.015331510199274064
   00059_GLY    00077_ALA  0.00034703133287638095
   00059_GLY    00063_ARG  0.05913942879913636
   00060_VAL    00084_ILE  0.0011492901529111424
   00060_VAL    00072_ILE  0.0015381690505686827
   00060_VAL    00073_ALA  0.006421590209688704
   00060_VAL    00083_ILE  0.0011279853843266412
   00060_VAL    00069_GLN  0.005540754553157336
   00060_VAL    00065_ALA  0.0011352864842249615
   00060_VAL    00082_THR  0.00285175872362804
   00060_VAL    00062_LEU  0.027295287136691132
   00060_VAL    00074_LEU  0.0012144084550852214
   00060_VAL    00063_ARG  0.0903933381791299
   00060_VAL    00076_ASN  0.0026211919624447013
   00060_VAL    00077_ALA  0.0005459503956004129
   00060_VAL    00061_ASP  7.458525264511867
   00060_VAL    00070_ALA  0.0014983800923221826
   00061_ASP    00084_ILE  0.033101489206688595
   00061_ASP    00064_ASN  0.3916150230580028
   00061_ASP    00063_ARG  1.0874438490260618
   00061_ASP    00073_ALA  0.02996528841432733
   00061_ASP    00070_ALA  0.03790972224534201
   00061_ASP    00069_GLN  0.13033571781721714
   00061_ASP    00065_ALA  0.06655698863391898
   00061_ASP    00062_LEU  6.875836632599364
   00062_LEU    00084_ILE  0.001271017187539539
   00062_LEU    00064_ASN  0.04175840304204791
   00062_LEU    00066_SER  0.0022811737477117
   00062_LEU    00067_HID  0.002366741833440464
   00062_LEU    00073_ALA  0.0014293664549498374
   00062_LEU    00083_ILE  0.0005674898082305429
   00062_LEU    00069_GLN  0.02120486230543696
   00062_LEU    00071_ALA  0.0008048440670564064
   00062_LEU    00065_ALA  0.046503560851924614
   00062_LEU    00074_LEU  0.0006388259222042964
   00062_LEU    00063_ARG  8.849625115374176
   00062_LEU    00070_ALA  0.031562596587888334
   00062_LEU    00072_ILE  0.0007274469723942233
   00062_LEU    00068_GLU  0.04143010522103822
   00063_ARG    00084_ILE  0.07925168097063705
   00063_ARG    00065_ALA  0.05752811229741532
   00063_ARG    00088_LYS  0.3172535674643152
   00063_ARG    00064_ASN  7.922744506491616
   00063_ARG    00086_GLN  0.1453441025642011
   00063_ARG    00091_GLU  0.11773154525322872
   00064_ASN    00069_GLN  0.006423049775486842
   00064_ASN    00066_SER  0.009919026975818732
   00064_ASN    00065_ALA  8.277707165610275
   00065_ALA    00071_ALA  0.0007775742333199693
   00065_ALA    00066_SER  7.187843268528873
   00065_ALA    00067_HID  0.013985606067122066
   00065_ALA    00073_ALA  0.00037797874172884355
   00065_ALA    00070_ALA  0.002740294521422152
   00065_ALA    00069_GLN  0.020152860324661157
   00065_ALA    00068_GLU  0.0642037597568802
   00066_SER    00071_ALA  0.0025352397783475504
   00066_SER    00067_HID  6.637188189030163
   00066_SER    00070_ALA  0.01068001984772685
   00066_SER    00069_GLN  0.06592682830642359
   00066_SER    00072_ILE  0.0012496287085595086
   00066_SER    00068_GLU  0.679713237206298
   00067_HID    00095_PHE  0.001306035317089248
   00067_HID    00071_ALA  0.013614166626014692
   00067_HID    00073_ALA  0.0010595758892354625
   00067_HID    00070_ALA  0.04600485606972356
   00067_HID    00069_GLN  0.03266731332191644
   00067_HID    00072_ILE  0.0028688612943054514
   00067_HID    00074_LEU  0.0007529994102952869
   00067_HID    00068_GLU  9.545382215030509
   00068_GLU    00071_ALA  0.10185165422266196
   00068_GLU    00073_ALA  0.03415213400215231
   00068_GLU    00070_ALA  0.04948824712152535
   00068_GLU    00069_GLN  8.949341488618952
   00068_GLU    00072_ILE  0.09238869077136919
   00068_GLU    00075_LYS  0.15826463603439483
   00068_GLU    00074_LEU  0.030135118255547134
   00069_GLN    00075_LYS  0.1297035649527641
   00069_GLN    00076_ASN  0.009804750551494467
   00069_GLN    00073_ALA  0.03755573194035711
   00069_GLN    00070_ALA  7.840421648051933
   00069_GLN    00072_ILE  0.04294494598375837
   00069_GLN    00071_ALA  0.022638890810198556
   00069_GLN    00074_LEU  0.007445913919372034
   00070_ALA    00075_LYS  0.048016781408732334
   00070_ALA    00076_ASN  0.0026414781745208783
   00070_ALA    00073_ALA  0.030072876866466324
   00070_ALA    00083_ILE  0.0005106561384056646
   00070_ALA    00072_ILE  0.020586978313652568
   00070_ALA    00071_ALA  10.735876297236588
   00070_ALA    00074_LEU  0.05489442955379081
   00071_ALA    00075_LYS  0.10861971218815344
   00071_ALA    00076_ASN  0.009815865147619944
   00071_ALA    00073_ALA  0.01649562473892271
   00071_ALA    00072_ILE  7.761326589175292
   00071_ALA    00074_LEU  0.03468122582070474
   00071_ALA    00077_ALA  0.00083636005324909
   00072_ILE    00075_LYS  0.12228231814168637
   00072_ILE    00076_ASN  0.10459705596665861
   00072_ILE    00073_ALA  10.26386557046778
   00072_ILE    00074_LEU  0.024931445155970375
   00072_ILE    00077_ALA  0.0036365359615599746
   00073_ALA    00075_LYS  0.08899958706450248
   00073_ALA    00081_VAL  0.0016539226965856997
   00073_ALA    00076_ASN  0.03807398103805997
   00073_ALA    00078_GLY  0.0015497022596207958
   00073_ALA    00074_LEU  8.242893444817664
   00073_ALA    00077_ALA  0.02516715183990403
   00074_LEU    00084_ILE  0.00030569467851548204
   00074_LEU    00075_LYS  9.089344131720978
   00074_LEU    00081_VAL  0.008559381028793535
   00074_LEU    00076_ASN  0.026775999810736948
   00074_LEU    00079_GLN  0.001548042709123503
   00074_LEU    00078_GLY  0.002253061222200356
   00074_LEU    00083_ILE  0.0009901710750177836
   00074_LEU    00082_THR  0.0018613198067079456
   00074_LEU    00080_THR  0.0013537027316955028
   00074_LEU    00077_ALA  0.03312534129704299
   00075_LYS    00078_GLY  0.025312777434788544
   00075_LYS    00081_VAL  0.022914692351946753
   00075_LYS    00076_ASN  10.555742690225863
   00075_LYS    00077_ALA  0.10294667664400534
   00076_ASN    00078_GLY  0.015504107466377023
   00076_ASN    00081_VAL  0.0016833795661387015
   00076_ASN    00080_THR  0.0020157047791257965
   00076_ASN    00077_ALA  9.04927685723225
   00077_ALA    00083_ILE  0.00035493643452412575
   00077_ALA    00081_VAL  0.029511360955779418
   00077_ALA    00079_GLN  0.010875946749236955
   00077_ALA    00078_GLY  7.111305367988175
   00077_ALA    00080_THR  0.007321511161710789
   00077_ALA    00082_THR  0.0012873905485625552
   00078_GLY    00081_VAL  0.009702639200464382
   00078_GLY    00080_THR  0.0455396289044867
   00078_GLY    00082_THR  0.0031680727728603236
   00078_GLY    00079_GLN  8.944603503997923
   00079_GLN    00081_VAL  0.008585092316894262
   00079_GLN    00080_THR  10.996028713482414
   00080_THR    00081_VAL  7.526095404892799
   00080_THR    00083_ILE  0.0008319455741447624
   00080_THR    00082_THR  0.009761476591371067
   00081_VAL    00084_ILE  0.0009313745178586938
   00081_VAL    00083_ILE  0.01797239719049093
   00081_VAL    00082_THR  6.321572074775049
   00082_THR    00084_ILE  0.006851505027728731
   00082_THR    00083_ILE  6.314365930812138
   00083_ILE    00084_ILE  6.056481504203238
   00083_ILE    00086_GLN  0.0016422388109996078
   00083_ILE    00085_ALA  0.009340871804872074
   00084_ILE    00086_GLN  0.006034219744742153
   00084_ILE    00085_ALA  5.984302997222571
   00085_ALA    00086_GLN  6.433662001378449
   00085_ALA    00088_LYS  0.04238513926024932
   00085_ALA    00087_TYR  0.00623284020511412
   00086_GLN    00088_LYS  0.5958797605128328
   00086_GLN    00087_TYR  5.49737046558283
   00086_GLN    00091_GLU  0.14741564483173747
   00086_GLN    00089_PRO  0.00184761948664267
   00087_TYR    00088_LYS  7.233159847705574
   00087_TYR    00092_TYR  0.00222251738492052
   00087_TYR    00089_PRO  0.04033921116458956
   00087_TYR    00090_GLU  0.21814059157019924
   00087_TYR    00091_GLU  0.07163667010198897
   00088_LYS    00095_PHE  0.022415091770444696
   00088_LYS    00092_TYR  0.08110533670350362
   00088_LYS    00091_GLU  0.3718832890410758
   00088_LYS    00094_ARG  0.3787730464735235
   00088_LYS    00090_GLU  0.344583830430467
   00088_LYS    00089_PRO  5.7423299384650495
   00088_LYS    00093_SER  0.034402723497636116
   00089_PRO    00095_PHE  0.0005446610217077742
   00089_PRO    00092_TYR  0.04812715568215804
   00089_PRO    00094_ARG  0.03187453492872129
   00089_PRO    00090_GLU  8.521191845811911
   00089_PRO    00091_GLU  0.05218426883563129
   00089_PRO    00093_SER  0.034298649891354345
   00089_PRO    00096_GLU  0.020877769594895623
   00090_GLU    00095_PHE  0.022674074378697277
   00090_GLU    00092_TYR  0.08966325272557345
   00090_GLU    00094_ARG  0.41504135463380054
   00090_GLU    00091_GLU  10.300630977136159
   00090_GLU    00093_SER  0.19000967587676992
   00091_GLU    00095_PHE  0.07307376143238078
   00091_GLU    00092_TYR  7.8067320630238
   00091_GLU    00094_ARG  1.1186865350511925
   00091_GLU    00093_SER  0.15428120080295804
   00091_GLU    00096_GLU  0.1170517070467184
   00092_TYR    00095_PHE  0.08783318554473993
   00092_TYR    00094_ARG  0.20980166177325862
   00092_TYR    00098_NME  0.0004780566635558316
   00092_TYR    00097_ALA  0.0025812720328099448
   00092_TYR    00093_SER  7.2522970333106
   00092_TYR    00096_GLU  0.3224778442889092
   00093_SER    00095_PHE  0.03179056491691233
   00093_SER    00094_ARG  9.312838859426611
   00093_SER    00098_NME  0.001166335806971843
   00093_SER    00097_ALA  0.0022300630309033623
   00093_SER    00096_GLU  0.12798508411102433
   00094_ARG    00095_PHE  7.319745589757906
   00094_ARG    00098_NME  0.013912692430818186
   00094_ARG    00097_ALA  0.02681604736292743
   00094_ARG    00096_GLU  0.3786614190453403
   00095_PHE    00098_NME  0.001039336625786772
   00095_PHE    00097_ALA  0.009801692233041635
   00095_PHE    00096_GLU  10.11375649034333
   00096_GLU    00097_ALA  6.3885632778666075
   00096_GLU    00098_NME  0.049320352351272904
   00097_ALA    00098_NME  10.221487612261091
