   00001_ACE    00046_GLY  0.000214454704432
   00001_ACE    00002_ILE  9.41225125063
   00001_ACE    00087_TYR  0.00156460334298
   00001_ACE    00049_ARG  0.0389210903238
   00001_ACE    00004_ARG  0.0361452583394
   00001_ACE    00007_ARG  0.0246841980892
   00001_ACE    00003_PRO  0.0131167430233
   00001_ACE    00089_PRO  0.000124364367597
   00001_ACE    00047_GLU  0.0314446430246
   00002_ILE    00046_GLY  0.000317718466812
   00002_ILE    00048_LEU  0.000688402477046
   00002_ILE    00088_LYS  0.0281800860186
   00002_ILE    00051_GLY  0.000447293917972
   00002_ILE    00085_ALA  0.000544453599387
   00002_ILE    00036_ILE  7.51714767601e-05
   00002_ILE    00004_ARG  0.113955955761
   00002_ILE    00007_ARG  0.0652340004368
   00002_ILE    00009_ILE  0.000117694614168
   00002_ILE    00005_GLU  0.0641903428607
   00002_ILE    00047_GLU  0.0644371449091
   00002_ILE    00045_SER  0.000257519080729
   00002_ILE    00087_TYR  0.0391241304165
   00002_ILE    00086_GLN  0.00260315082603
   00002_ILE    00050_LYS  0.0140822530697
   00002_ILE    00052_ASP  0.0599718461989
   00002_ILE    00006_PRO  0.000672037117837
   00002_ILE    00003_PRO  7.81569271405
   00002_ILE    00089_PRO  0.00048641027298
   00002_ILE    00049_ARG  0.123039876632
   00003_PRO    00088_LYS  0.0172938567
   00003_PRO    00087_TYR  0.0136763373884
   00003_PRO    00086_GLN  0.00767482319418
   00003_PRO    00085_ALA  0.00140417917912
   00003_PRO    00047_GLU  0.0377386461412
   00003_PRO    00004_ARG  7.66890965968
   00003_PRO    00052_ASP  0.0278718212903
   00003_PRO    00007_ARG  0.0612273990886
   00003_PRO    00006_PRO  0.00246534034369
   00003_PRO    00008_ARG  0.00783311656573
   00003_PRO    00009_ILE  0.000278464275608
   00003_PRO    00005_GLU  0.0876856420079
   00003_PRO    00049_ARG  0.0326006930822
   00004_ARG    00088_LYS  0.504953887905
   00004_ARG    00087_TYR  0.237846018357
   00004_ARG    00089_PRO  0.0623510859293
   00004_ARG    00086_GLN  0.206742997109
   00004_ARG    00090_GLU  1.24695206799
   00004_ARG    00085_ALA  0.0268435391425
   00004_ARG    00007_ARG  0.531619917872
   00004_ARG    00006_PRO  0.0217039973367
   00004_ARG    00055_LEU  0.0241226578091
   00004_ARG    00005_GLU  9.141862313
   00004_ARG    00091_GLU  0.330354437798
   00005_GLU    00084_ILE  0.0233215929936
   00005_GLU    00088_LYS  0.165284834998
   00005_GLU    00087_TYR  0.0845068881039
   00005_GLU    00086_GLN  0.184783536912
   00005_GLU    00085_ALA  0.046187939388
   00005_GLU    00007_ARG  0.468989024485
   00005_GLU    00006_PRO  6.59542593713
   00005_GLU    00055_LEU  0.0297655835969
   00005_GLU    00008_ARG  0.184789275613
   00006_PRO    00084_ILE  0.00199445892629
   00006_PRO    00088_LYS  0.0190646751007
   00006_PRO    00087_TYR  0.00282686372926
   00006_PRO    00063_ARG  0.0164520355122
   00006_PRO    00086_GLN  0.045312253047
   00006_PRO    00085_ALA  0.0159548998627
   00006_PRO    00052_ASP  0.0213797748109
   00006_PRO    00007_ARG  7.27770783804
   00006_PRO    00055_LEU  0.01215881037
   00006_PRO    00009_ILE  0.000905236815876
   00006_PRO    00008_ARG  0.0273733687138
   00006_PRO    00053_GLN  0.00134722335889
   00007_ARG    00084_ILE  0.0610444242747
   00007_ARG    00046_GLY  0.0503033253905
   00007_ARG    00048_LEU  0.131915533703
   00007_ARG    00054_ILE  0.0318193644408
   00007_ARG    00088_LYS  0.333141369026
   00007_ARG    00033_ILE  0.0299869385722
   00007_ARG    00051_GLY  0.0542232546496
   00007_ARG    00085_ALA  0.211241701903
   00007_ARG    00036_ILE  0.0278882928021
   00007_ARG    00083_ILE  0.044778299489
   00007_ARG    00055_LEU  0.040085737405
   00007_ARG    00009_ILE  0.0697662659876
   00007_ARG    00082_THR  0.0331512022921
   00007_ARG    00053_GLN  0.131789578455
   00007_ARG    00087_TYR  0.225222116892
   00007_ARG    00086_GLN  0.296814877261
   00007_ARG    00047_GLU  1.27891855085
   00007_ARG    00052_ASP  1.39469036813
   00007_ARG    00008_ARG  6.86223503443
   00007_ARG    00049_ARG  1.19953582649
   00008_ARG    00084_ILE  0.0682128454282
   00008_ARG    00048_LEU  0.0379330314174
   00008_ARG    00059_GLY  0.0304394536431
   00008_ARG    00081_VAL  0.0567368579445
   00008_ARG    00085_ALA  0.0457242615725
   00008_ARG    00083_ILE  0.101053870217
   00008_ARG    00009_ILE  6.6756260094
   00008_ARG    00080_THR  0.0815957208065
   00008_ARG    00082_THR  0.159881606871
   00008_ARG    00047_GLU  0.28984230949
   00008_ARG    00010_VAL  0.110044390948
   00008_ARG    00056_SER  0.0644887832086
   00008_ARG    00063_ARG  0.221892885804
   00008_ARG    00058_ASN  0.102337529922
   00009_ILE    00084_ILE  0.0050082769653
   00009_ILE    00046_GLY  0.000478815519612
   00009_ILE    00048_LEU  0.0242891169309
   00009_ILE    00054_ILE  0.000272740607951
   00009_ILE    00056_SER  0.000873475850228
   00009_ILE    00081_VAL  0.00839015158507
   00009_ILE    00033_ILE  0.000171832950667
   00009_ILE    00085_ALA  0.00741646223757
   00009_ILE    00057_VAL  0.000710205179191
   00009_ILE    00083_ILE  0.143735179061
   00009_ILE    00055_LEU  0.000516515427015
   00009_ILE    00018_LEU  0.000675223799874
   00009_ILE    00042_ALA  0.000711441685828
   00009_ILE    00082_THR  0.0164240313576
   00009_ILE    00047_GLU  0.0767781421877
   00009_ILE    00011_ILE  0.0189095880326
   00009_ILE    00045_SER  0.00538497952407
   00009_ILE    00087_TYR  0.000328186059243
   00009_ILE    00012_HIE  0.0017930890185
   00009_ILE    00086_GLN  0.000894987312631
   00009_ILE    00052_ASP  0.0506610627484
   00009_ILE    00010_VAL  9.11042277203
   00009_ILE    00041_PRO  0.000768563278203
   00009_ILE    00020_PHE  0.000337512848859
   00009_ILE    00049_ARG  0.0284425719507
   00010_VAL    00084_ILE  0.000815513414305
   00010_VAL    00048_LEU  0.000977566583343
   00010_VAL    00081_VAL  0.0169713371695
   00010_VAL    00083_ILE  0.00669190618405
   00010_VAL    00080_THR  0.00788690666018
   00010_VAL    00018_LEU  0.000917109804456
   00010_VAL    00042_ALA  0.0008101082225
   00010_VAL    00082_THR  0.0210950235661
   00010_VAL    00058_ASN  0.000988529693054
   00010_VAL    00011_ILE  7.61797424492
   00010_VAL    00045_SER  0.00450683648768
   00010_VAL    00012_HIE  0.0111787679895
   00010_VAL    00079_GLN  0.00128824490276
   00010_VAL    00047_GLU  0.0432059320351
   00010_VAL    00041_PRO  0.00163043395811
   00011_ILE    00046_GLY  0.000306695919383
   00011_ILE    00043_ASP  0.0226348519775
   00011_ILE    00033_ILE  8.48151094573e-05
   00011_ILE    00013_ARG  0.0743851221988
   00011_ILE    00085_ALA  0.000188012641604
   00011_ILE    00036_ILE  0.000115616533881
   00011_ILE    00082_THR  0.00527379481759
   00011_ILE    00042_ALA  0.00611229533319
   00011_ILE    00017_GLY  0.00104754055889
   00011_ILE    00045_SER  0.00783827116628
   00011_ILE    00044_LEU  0.00107138366147
   00011_ILE    00012_HIE  8.84366814274
   00011_ILE    00047_GLU  0.0241484402151
   00011_ILE    00014_GLY  0.00222847187106
   00011_ILE    00019_GLY  0.000421083854033
   00011_ILE    00048_LEU  0.0178907633444
   00011_ILE    00054_ILE  9.39320798114e-05
   00011_ILE    00016_THR  0.00146684954945
   00011_ILE    00081_VAL  0.0718044691148
   00011_ILE    00040_GLY  0.00113416357349
   00011_ILE    00057_VAL  0.000273736220097
   00011_ILE    00083_ILE  0.014853778177
   00011_ILE    00018_LEU  0.0152336525104
   00011_ILE    00080_THR  0.0364148964393
   00011_ILE    00074_LEU  0.000464893374816
   00011_ILE    00058_ASN  0.00111045076882
   00011_ILE    00077_ALA  0.000688612311604
   00011_ILE    00079_GLN  0.00732190239096
   00011_ILE    00078_GLY  0.0024948934894
   00011_ILE    00041_PRO  0.0220374111245
   00011_ILE    00020_PHE  0.000542746795207
   00012_HIE    00016_THR  0.0101822675588
   00012_HIE    00081_VAL  0.00695842122869
   00012_HIE    00013_ARG  7.6574897154
   00012_HIE    00042_ALA  0.00200224293331
   00012_HIE    00018_LEU  0.0036888608891
   00012_HIE    00080_THR  0.0434440836876
   00012_HIE    00047_GLU  0.0254849374194
   00012_HIE    00015_SER  0.0075998314879
   00012_HIE    00017_GLY  0.0026485549387
   00012_HIE    00045_SER  0.00415840838879
   00012_HIE    00044_LEU  0.00318794721627
   00012_HIE    00079_GLN  0.045484233753
   00012_HIE    00078_GLY  0.00520629501529
   00012_HIE    00014_GLY  0.0501479195234
   00012_HIE    00041_PRO  0.009423565865
   00013_ARG    00019_GLY  0.051646644144
   00013_ARG    00075_LYS  0.35246449917
   00013_ARG    00016_THR  0.347568944759
   00013_ARG    00081_VAL  0.0917382297821
   00013_ARG    00040_GLY  0.0255813963051
   00013_ARG    00057_VAL  0.0377699952059
   00013_ARG    00073_ALA  0.0319828266183
   00013_ARG    00083_ILE  0.0309227689947
   00013_ARG    00018_LEU  0.165110241962
   00013_ARG    00071_ALA  0.0176521181747
   00013_ARG    00080_THR  0.135510069994
   00013_ARG    00074_LEU  0.0794805762736
   00013_ARG    00042_ALA  0.0384064820932
   00013_ARG    00077_ALA  0.278548614358
   00013_ARG    00015_SER  0.165053980758
   00013_ARG    00017_GLY  0.108383867214
   00013_ARG    00044_LEU  0.027572051592
   00013_ARG    00076_ASN  0.147816525599
   00013_ARG    00079_GLN  0.260522381581
   00013_ARG    00058_ASN  0.179499681885
   00013_ARG    00078_GLY  0.245190518081
   00013_ARG    00014_GLY  9.07172486782
   00013_ARG    00041_PRO  0.0337998105801
   00013_ARG    00020_PHE  0.0432198950707
   00014_GLY    00015_SER  8.35498532883
   00014_GLY    00017_GLY  0.00209833287237
   00014_GLY    00016_THR  0.0451107720916
   00014_GLY    00081_VAL  0.000941669742032
   00014_GLY    00079_GLN  0.0919996440751
   00014_GLY    00078_GLY  0.00802318912711
   00014_GLY    00041_PRO  0.000832265864379
   00014_GLY    00018_LEU  0.00125093013162
   00014_GLY    00080_THR  0.00467330823921
   00014_GLY    00074_LEU  0.000330414334315
   00014_GLY    00077_ALA  0.00162072340161
   00015_SER    00017_GLY  0.0112442389193
   00015_SER    00078_GLY  0.00272939783449
   00015_SER    00075_LYS  0.0334113669876
   00015_SER    00016_THR  9.06024806455
   00015_SER    00074_LEU  0.000409048953372
   00015_SER    00079_GLN  0.0212986506423
   00015_SER    00077_ALA  0.000929390893182
   00016_THR    00019_GLY  0.00354106741405
   00016_THR    00075_LYS  0.0404618069288
   00016_THR    00039_GLY  0.00118450798563
   00016_THR    00081_VAL  0.000614172318573
   00016_THR    00040_GLY  0.00295343661619
   00016_THR    00037_LEU  0.00105793320658
   00016_THR    00018_LEU  0.0143536960739
   00016_THR    00074_LEU  0.00102984189667
   00016_THR    00017_GLY  7.10207218471
   00016_THR    00044_LEU  0.000677616990909
   00016_THR    00079_GLN  0.0064988123955
   00016_THR    00041_PRO  0.00531251787436
   00017_GLY    00019_GLY  0.0399196392807
   00017_GLY    00074_LEU  0.00112945560983
   00017_GLY    00075_LYS  0.0262195599225
   00017_GLY    00081_VAL  0.000624313972971
   00017_GLY    00040_GLY  0.00234997663323
   00017_GLY    00037_LEU  0.00242753059036
   00017_GLY    00018_LEU  6.52496625089
   00017_GLY    00041_PRO  0.0198920767235
   00017_GLY    00071_ALA  0.000188699975546
   00017_GLY    00042_ALA  0.00256944366552
   00017_GLY    00020_PHE  0.00303847604602
   00018_LEU    00033_ILE  0.000413057289282
   00018_LEU    00036_ILE  0.00125630079638
   00018_LEU    00037_LEU  0.00324760869714
   00018_LEU    00071_ALA  0.000397099867486
   00018_LEU    00082_THR  0.000787167102079
   00018_LEU    00021_ASN  0.00264212929301
   00018_LEU    00045_SER  0.00139836425046
   00018_LEU    00044_LEU  0.000866476030674
   00018_LEU    00022_ILE  0.000599354876926
   00018_LEU    00076_ASN  0.00112027135455
   00018_LEU    00043_ASP  0.0321327617656
   00018_LEU    00047_GLU  0.0198689075436
   00018_LEU    00070_ALA  0.000554958509404
   00018_LEU    00019_GLY  8.39752866566
   00018_LEU    00048_LEU  0.00134074718548
   00018_LEU    00054_ILE  0.000252116929026
   00018_LEU    00075_LYS  0.0262500294917
   00018_LEU    00081_VAL  0.0201832336864
   00018_LEU    00040_GLY  0.00469867789739
   00018_LEU    00057_VAL  0.000565872378631
   00018_LEU    00073_ALA  0.00108591735439
   00018_LEU    00083_ILE  0.00362940830047
   00018_LEU    00042_ALA  0.0219976672898
   00018_LEU    00074_LEU  0.0240010327912
   00018_LEU    00058_ASN  0.000895328656396
   00018_LEU    00077_ALA  0.00244169976665
   00018_LEU    00080_THR  0.0010911025382
   00018_LEU    00079_GLN  0.00182627046299
   00018_LEU    00078_GLY  0.00149848434133
   00018_LEU    00041_PRO  0.0199694939804
   00018_LEU    00020_PHE  0.033607266429
   00019_GLY    00048_LEU  0.00107969404131
   00019_GLY    00039_GLY  0.00127286834888
   00019_GLY    00033_ILE  0.000774947006037
   00019_GLY    00036_ILE  0.00878307788141
   00019_GLY    00037_LEU  0.0526988476899
   00019_GLY    00042_ALA  0.0049844226124
   00019_GLY    00074_LEU  0.00114856713196
   00019_GLY    00021_ASN  0.00956951214971
   00019_GLY    00038_ALA  0.00234333059655
   00019_GLY    00044_LEU  0.000809942665523
   00019_GLY    00022_ILE  0.000942173421045
   00019_GLY    00043_ASP  0.0240454301098
   00019_GLY    00035_PHE  0.00721353368652
   00019_GLY    00041_PRO  0.00241732039996
   00019_GLY    00020_PHE  7.8128302579
   00019_GLY    00040_GLY  0.00456265253302
   00020_PHE    00033_ILE  0.0126300140839
   00020_PHE    00023_VAL  0.00119426015147
   00020_PHE    00085_ALA  0.000294483215717
   00020_PHE    00036_ILE  0.0155249793875
   00020_PHE    00037_LEU  0.00889426266501
   00020_PHE    00082_THR  0.000421941424763
   00020_PHE    00021_ASN  7.60063209462
   00020_PHE    00032_PHE  0.0019572518015
   00020_PHE    00045_SER  0.00113121171203
   00020_PHE    00022_ILE  0.0216165007363
   00020_PHE    00043_ASP  0.0312238490904
   00020_PHE    00047_GLU  0.0259595539757
   00020_PHE    00070_ALA  0.0011763373499
   00020_PHE    00049_ARG  0.025514674585
   00020_PHE    00048_LEU  0.00674979313258
   00020_PHE    00054_ILE  0.00302613818504
   00020_PHE    00071_ALA  0.000779336096756
   00020_PHE    00081_VAL  0.000503330984071
   00020_PHE    00040_GLY  0.00177647591316
   00020_PHE    00062_LEU  0.000256937036547
   00020_PHE    00057_VAL  0.000546089023427
   00020_PHE    00067_HID  0.000504577111196
   00020_PHE    00083_ILE  0.00264896364252
   00020_PHE    00031_ILE  0.000724893322395
   00020_PHE    00034_SER  0.00370536354667
   00020_PHE    00042_ALA  0.0309193216711
   00020_PHE    00074_LEU  0.0179308710193
   00020_PHE    00077_ALA  0.000419369989311
   00020_PHE    00050_LYS  0.0336557074013
   00020_PHE    00052_ASP  0.0514914755358
   00020_PHE    00041_PRO  0.00136662657499
   00020_PHE    00035_PHE  0.0251121792853
   00021_ASN    00048_LEU  0.00125880081011
   00021_ASN    00054_ILE  0.000873530326281
   00021_ASN    00071_ALA  0.00130296760579
   00021_ASN    00092_TYR  0.0038228784115
   00021_ASN    00033_ILE  0.0143871808768
   00021_ASN    00034_SER  0.0885410970053
   00021_ASN    00023_VAL  0.00831171898578
   00021_ASN    00067_HID  0.00186871082901
   00021_ASN    00036_ILE  0.00863264704275
   00021_ASN    00024_GLY  0.00151763251791
   00021_ASN    00095_PHE  0.00154725830008
   00021_ASN    00031_ILE  0.00158848776445
   00021_ASN    00098_NME  0.000304863653031
   00021_ASN    00037_LEU  0.00567920195843
   00021_ASN    00074_LEU  0.00188640592855
   00021_ASN    00032_PHE  0.0097308380156
   00021_ASN    00022_ILE  6.80253005163
   00021_ASN    00050_LYS  0.123437235297
   00021_ASN    00097_ALA  0.000478578063977
   00021_ASN    00035_PHE  0.0800852267167
   00022_ILE    00092_TYR  0.00157918628994
   00022_ILE    00025_GLY  0.000957060153074
   00022_ILE    00033_ILE  0.0107251425734
   00022_ILE    00023_VAL  6.66363769346
   00022_ILE    00036_ILE  0.000757331400994
   00022_ILE    00024_GLY  0.0052479029771
   00022_ILE    00065_ALA  0.000519408464496
   00022_ILE    00053_GLN  0.00123774520192
   00022_ILE    00032_PHE  0.0348938454987
   00022_ILE    00070_ALA  0.00706625141203
   00022_ILE    00072_ILE  0.000487832145123
   00022_ILE    00068_GLU  0.0343234561646
   00022_ILE    00048_LEU  0.000355354256278
   00022_ILE    00054_ILE  0.0029201882205
   00022_ILE    00071_ALA  0.00204374346937
   00022_ILE    00030_GLY  0.00120955673788
   00022_ILE    00066_SER  0.0014873863482
   00022_ILE    00057_VAL  0.000282046508372
   00022_ILE    00067_HID  0.0120777318014
   00022_ILE    00073_ALA  0.000364547443147
   00022_ILE    00083_ILE  0.00014107078683
   00022_ILE    00031_ILE  0.0192597164962
   00022_ILE    00069_GLN  0.00106516015563
   00022_ILE    00034_SER  0.035528156189
   00022_ILE    00074_LEU  0.00750764691274
   00022_ILE    00062_LEU  0.000389027815492
   00022_ILE    00052_ASP  0.0230064642152
   00022_ILE    00035_PHE  0.00360330817074
   00023_VAL    00054_ILE  0.000763900835852
   00023_VAL    00030_GLY  0.00879794681983
   00023_VAL    00092_TYR  0.00947328769766
   00023_VAL    00025_GLY  0.00850847088661
   00023_VAL    00033_ILE  0.00613694053034
   00023_VAL    00098_NME  0.000202922098989
   00023_VAL    00051_GLY  0.000880846406904
   00023_VAL    00067_HID  0.00627033923826
   00023_VAL    00097_ALA  0.000361742507725
   00023_VAL    00029_GLU  0.0812822050513
   00023_VAL    00095_PHE  0.0249413662333
   00023_VAL    00031_ILE  0.0158643446304
   00023_VAL    00034_SER  0.0211550896403
   00023_VAL    00024_GLY  6.69775246156
   00023_VAL    00065_ALA  0.00121734876659
   00023_VAL    00053_GLN  0.00273730061171
   00023_VAL    00032_PHE  0.107693634698
   00023_VAL    00035_PHE  0.000667269660557
   00023_VAL    00068_GLU  0.0338653613914
   00023_VAL    00094_ARG  0.0680754454751
   00023_VAL    00050_LYS  0.0536473477485
   00023_VAL    00052_ASP  0.0291594334173
   00023_VAL    00070_ALA  0.00097430738682
   00023_VAL    00066_SER  0.00259121862649
   00023_VAL    00026_GLU  0.0360514481479
   00023_VAL    00096_GLU  0.0493763357995
   00024_GLY    00095_PHE  0.0130267350553
   00024_GLY    00030_GLY  0.0146046806085
   00024_GLY    00092_TYR  0.00118812046813
   00024_GLY    00025_GLY  7.27530563417
   00024_GLY    00026_GLU  0.0726678054045
   00024_GLY    00028_GLY  0.00175270582008
   00024_GLY    00067_HID  0.0378111814921
   00024_GLY    00029_GLU  0.156449278676
   00024_GLY    00031_ILE  0.00745898648643
   00024_GLY    00069_GLN  0.00143832550796
   00024_GLY    00034_SER  0.00159037432366
   00024_GLY    00065_ALA  0.00400129481353
   00024_GLY    00053_GLN  0.0025841625626
   00024_GLY    00032_PHE  0.00676211641342
   00024_GLY    00094_ARG  0.0695616065772
   00024_GLY    00070_ALA  0.000828327676098
   00024_GLY    00068_GLU  0.0394065863089
   00024_GLY    00066_SER  0.00826465016353
   00025_GLY    00095_PHE  0.0010202644635
   00025_GLY    00064_ASN  0.00359114342732
   00025_GLY    00030_GLY  0.0292031878016
   00025_GLY    00066_SER  0.0242551581872
   00025_GLY    00028_GLY  0.00822958817095
   00025_GLY    00067_HID  0.0274922717953
   00025_GLY    00029_GLU  0.187506582755
   00025_GLY    00031_ILE  0.0211578415745
   00025_GLY    00069_GLN  0.001473240759
   00025_GLY    00065_ALA  0.0142131798891
   00025_GLY    00053_GLN  0.0023496868643
   00025_GLY    00062_LEU  0.000971554942157
   00025_GLY    00063_ARG  0.0196712369414
   00025_GLY    00094_ARG  0.0501004104664
   00025_GLY    00027_ASP  0.0707589520045
   00025_GLY    00032_PHE  0.00137575115696
   00025_GLY    00068_GLU  0.0224025793841
   00025_GLY    00026_GLU  8.59109233671
   00025_GLY    00070_ALA  0.000634002085977
   00026_GLU    00095_PHE  0.034543869429
   00026_GLU    00064_ASN  0.0866070332514
   00026_GLU    00030_GLY  0.0487616316023
   00026_GLU    00066_SER  0.10405078618
   00026_GLU    00028_GLY  0.0889102920992
   00026_GLU    00067_HID  0.0617200922868
   00026_GLU    00029_GLU  0.466086461691
   00026_GLU    00031_ILE  0.0265859702822
   00026_GLU    00069_GLN  0.0588214200732
   00026_GLU    00065_ALA  0.0341174358713
   00026_GLU    00032_PHE  0.0260208263776
   00026_GLU    00094_ARG  0.313013734172
   00026_GLU    00027_ASP  9.46361393636
   00026_GLU    00068_GLU  0.127514905911
   00027_ASP    00064_ASN  0.101393792882
   00027_ASP    00030_GLY  0.0341973835411
   00027_ASP    00063_ARG  0.136772326039
   00027_ASP    00066_SER  0.0759929501726
   00027_ASP    00094_ARG  0.315263173709
   00027_ASP    00028_GLY  8.51416524251
   00027_ASP    00067_HID  0.034597585644
   00027_ASP    00029_GLU  0.267483634837
   00027_ASP    00069_GLN  0.0471590836397
   00027_ASP    00065_ALA  0.0250118113673
   00028_GLY    00064_ASN  0.0385307536945
   00028_GLY    00030_GLY  0.035159867436
   00028_GLY    00063_ARG  0.0370531052521
   00028_GLY    00066_SER  0.00286087882926
   00028_GLY    00094_ARG  0.0531989563374
   00028_GLY    00067_HID  0.000695536538508
   00028_GLY    00029_GLU  10.0153775142
   00028_GLY    00031_ILE  0.00157251995995
   00028_GLY    00032_PHE  0.000732196491297
   00028_GLY    00069_GLN  0.000759516981359
   00028_GLY    00088_LYS  0.0320398542407
   00028_GLY    00065_ALA  0.00714113307714
   00028_GLY    00053_GLN  0.00567230034804
   00028_GLY    00062_LEU  0.00139031845036
   00029_GLU    00095_PHE  0.123854380105
   00029_GLU    00064_ASN  0.0825828524004
   00029_GLU    00030_GLY  8.49729834254
   00029_GLU    00066_SER  0.0649586303939
   00029_GLU    00067_HID  0.062017766757
   00029_GLU    00031_ILE  0.0434150368008
   00029_GLU    00088_LYS  0.174352454613
   00029_GLU    00065_ALA  0.0417681131698
   00029_GLU    00053_GLN  0.247778697626
   00029_GLU    00062_LEU  0.0315861664428
   00029_GLU    00063_ARG  0.1518034085
   00029_GLU    00094_ARG  1.16478094966
   00029_GLU    00086_GLN  0.0654434920458
   00029_GLU    00032_PHE  0.0740352209035
   00029_GLU    00055_LEU  0.0265128422331
   00029_GLU    00091_GLU  0.211849590447
   00030_GLY    00054_ILE  0.00375015000828
   00030_GLY    00064_ASN  0.0104243235204
   00030_GLY    00092_TYR  0.00110128709485
   00030_GLY    00066_SER  0.00551744674117
   00030_GLY    00067_HID  0.00291152558733
   00030_GLY    00095_PHE  0.00184566347979
   00030_GLY    00031_ILE  6.63416287456
   00030_GLY    00088_LYS  0.0296058265379
   00030_GLY    00065_ALA  0.0108496291282
   00030_GLY    00053_GLN  0.0290882622574
   00030_GLY    00032_PHE  0.0196257658106
   00030_GLY    00063_ARG  0.0361888868816
   00030_GLY    00094_ARG  0.0701096177377
   00030_GLY    00086_GLN  0.00112002559926
   00030_GLY    00062_LEU  0.00422249085291
   00030_GLY    00055_LEU  0.000806441159734
   00030_GLY    00091_GLU  0.0276097204474
   00030_GLY    00070_ALA  0.00101081269839
   00031_ILE    00064_ASN  0.00181765403934
   00031_ILE    00092_TYR  0.00130972852585
   00031_ILE    00033_ILE  0.00578200697766
   00031_ILE    00054_ILE  0.0730096129867
   00031_ILE    00055_LEU  0.0021845536181
   00031_ILE    00088_LYS  0.0521182588457
   00031_ILE    00065_ALA  0.0113378524728
   00031_ILE    00053_GLN  0.0396723189279
   00031_ILE    00032_PHE  7.35644342574
   00031_ILE    00070_ALA  0.0208010226813
   00031_ILE    00068_GLU  0.0256954834082
   00031_ILE    00095_PHE  0.00118440996906
   00031_ILE    00071_ALA  0.000533716146377
   00031_ILE    00066_SER  0.00486607661465
   00031_ILE    00057_VAL  0.000556836609423
   00031_ILE    00067_HID  0.0189760460277
   00031_ILE    00073_ALA  0.000287990977702
   00031_ILE    00083_ILE  0.000336098298785
   00031_ILE    00069_GLN  0.00143709321309
   00031_ILE    00034_SER  0.00152711110566
   00031_ILE    00074_LEU  0.000430846920463
   00031_ILE    00062_LEU  0.0105569949006
   00031_ILE    00056_SER  0.00143826209563
   00031_ILE    00063_ARG  0.0230079365398
   00031_ILE    00094_ARG  0.0423956957197
   00031_ILE    00052_ASP  0.0578992264369
   00031_ILE    00061_ASP  0.0311359126712
   00032_PHE    00095_PHE  0.00988958694316
   00032_PHE    00088_LYS  0.0901012440057
   00032_PHE    00092_TYR  0.0284143325203
   00032_PHE    00033_ILE  7.22706113366
   00032_PHE    00051_GLY  0.00815060639751
   00032_PHE    00090_GLU  0.0349448813757
   00032_PHE    00067_HID  0.000802437292326
   00032_PHE    00085_ALA  0.000523761634123
   00032_PHE    00054_ILE  0.00957590396319
   00032_PHE    00055_LEU  0.00108711045397
   00032_PHE    00034_SER  0.0219803761089
   00032_PHE    00091_GLU  0.0783724623848
   00032_PHE    00065_ALA  0.00114181407003
   00032_PHE    00053_GLN  0.051182339622
   00032_PHE    00035_PHE  0.00247409623933
   00032_PHE    00066_SER  0.00128415202574
   00032_PHE    00087_TYR  0.00114354611667
   00032_PHE    00094_ARG  0.0920923429374
   00032_PHE    00063_ARG  0.0292541549295
   00032_PHE    00086_GLN  0.00267574779522
   00032_PHE    00050_LYS  0.0644774979084
   00032_PHE    00052_ASP  0.0873857174284
   00032_PHE    00089_PRO  0.000955230250474
   00032_PHE    00049_ARG  0.0204594220454
   00032_PHE    00093_SER  0.00157827850877
   00032_PHE    00096_GLU  0.0493958744155
   00033_ILE    00084_ILE  0.000433653130159
   00033_ILE    00048_LEU  0.0154887057538
   00033_ILE    00054_ILE  0.0276308312495
   00033_ILE    00092_TYR  0.0120390697632
   00033_ILE    00051_GLY  0.0253922294891
   00033_ILE    00085_ALA  0.000383687539797
   00033_ILE    00036_ILE  0.0174890805816
   00033_ILE    00083_ILE  0.000256344657111
   00033_ILE    00034_SER  7.10399736538
   00033_ILE    00037_LEU  0.000502408618071
   00033_ILE    00042_ALA  0.000547947141883
   00033_ILE    00074_LEU  0.000267006192144
   00033_ILE    00053_GLN  0.00872746407096
   00033_ILE    00049_ARG  0.039471325759
   00033_ILE    00057_VAL  0.000189997552484
   00033_ILE    00087_TYR  0.00135381870095
   00033_ILE    00095_PHE  0.00125934851425
   00033_ILE    00086_GLN  0.00143430980616
   00033_ILE    00050_LYS  0.117809851036
   00033_ILE    00052_ASP  0.117646982129
   00033_ILE    00070_ALA  0.000377142069452
   00033_ILE    00035_PHE  0.0106961249219
   00033_ILE    00096_GLU  0.0538546837736
   00034_SER    00095_PHE  0.00367594912136
   00034_SER    00092_TYR  0.0372306223322
   00034_SER    00051_GLY  0.00214207005881
   00034_SER    00036_ILE  0.00330262304918
   00034_SER    00052_ASP  0.0568680850137
   00034_SER    00096_GLU  0.156620114251
   00034_SER    00054_ILE  0.000452055242626
   00034_SER    00098_NME  0.000599193888916
   00034_SER    00050_LYS  0.215426447407
   00034_SER    00097_ALA  0.000929551902306
   00034_SER    00049_ARG  0.0343218855786
   00034_SER    00035_PHE  8.11491858564
   00035_PHE    00038_ALA  0.00236091641036
   00035_PHE    00048_LEU  0.00166708171003
   00035_PHE    00092_TYR  0.00297227830145
   00035_PHE    00051_GLY  0.00109145267586
   00035_PHE    00050_LYS  0.0790589020888
   00035_PHE    00098_NME  9.70027943278e-05
   00035_PHE    00037_LEU  0.0248113849073
   00035_PHE    00042_ALA  0.00137648382819
   00035_PHE    00036_ILE  7.57910584589
   00035_PHE    00097_ALA  0.000196137028642
   00035_PHE    00049_ARG  0.0477324364133
   00035_PHE    00096_GLU  0.0512802010587
   00036_ILE    00046_GLY  0.000432305574101
   00036_ILE    00048_LEU  0.00794154801638
   00036_ILE    00054_ILE  0.000112532594386
   00036_ILE    00039_GLY  0.001989064373
   00036_ILE    00040_GLY  0.00306454522431
   00036_ILE    00051_GLY  0.000374084676217
   00036_ILE    00037_LEU  6.70712844806
   00036_ILE    00042_ALA  0.0100647490925
   00036_ILE    00047_GLU  0.024584600046
   00036_ILE    00038_ALA  0.0175224842714
   00036_ILE    00045_SER  0.0010728196787
   00036_ILE    00044_LEU  0.000824789857596
   00036_ILE    00043_ASP  0.101726552826
   00036_ILE    00050_LYS  0.0737782808684
   00036_ILE    00052_ASP  0.0397142863142
   00036_ILE    00041_PRO  0.00071775670083
   00036_ILE    00049_ARG  0.0678479029597
   00037_LEU    00038_ALA  8.30415102047
   00037_LEU    00044_LEU  0.00223847250313
   00037_LEU    00039_GLY  0.0196557113009
   00037_LEU    00040_GLY  0.0330092338828
   00037_LEU    00043_ASP  0.118775980294
   00037_LEU    00041_PRO  0.00163748055229
   00037_LEU    00042_ALA  0.00457907411275
   00038_ALA    00044_LEU  0.00282393521789
   00038_ALA    00039_GLY  8.40125954422
   00038_ALA    00040_GLY  0.0535108830803
   00038_ALA    00043_ASP  0.112181836683
   00038_ALA    00042_ALA  0.00163490392018
   00039_GLY    00044_LEU  0.0174597746127
   00039_GLY    00040_GLY  9.97179104475
   00039_GLY    00043_ASP  0.110432529802
   00039_GLY    00041_PRO  0.00256653645108
   00039_GLY    00042_ALA  0.00301143796777
   00040_GLY    00046_GLY  0.000766123860453
   00040_GLY    00045_SER  0.00796472269988
   00040_GLY    00044_LEU  0.0482475133041
   00040_GLY    00043_ASP  0.162122030271
   00040_GLY    00041_PRO  6.07075542292
   00040_GLY    00042_ALA  0.0367560965826
   00041_PRO    00046_GLY  0.00181235972871
   00041_PRO    00048_LEU  0.00184098634723
   00041_PRO    00045_SER  0.0396607132456
   00041_PRO    00044_LEU  0.0235163469594
   00041_PRO    00081_VAL  0.000992612896779
   00041_PRO    00043_ASP  0.042491582183
   00041_PRO    00083_ILE  0.000420088039982
   00041_PRO    00042_ALA  8.49645508776
   00041_PRO    00074_LEU  0.000330481429355
   00041_PRO    00047_GLU  0.0112673481178
   00042_ALA    00046_GLY  0.00775372924651
   00042_ALA    00048_LEU  0.0228401435392
   00042_ALA    00045_SER  0.15115665333
   00042_ALA    00044_LEU  0.01574140404
   00042_ALA    00081_VAL  0.000470103661795
   00042_ALA    00043_ASP  8.31689456382
   00042_ALA    00047_GLU  0.0209986512964
   00042_ALA    00083_ILE  0.000486543465173
   00042_ALA    00049_ARG  0.0317834180822
   00043_ASP    00046_GLY  0.11896611561
   00043_ASP    00048_LEU  0.0820899844537
   00043_ASP    00045_SER  0.217534067361
   00043_ASP    00044_LEU  7.92825636329
   00043_ASP    00049_ARG  0.385545835542
   00043_ASP    00047_GLU  0.156881571381
   00044_LEU    00046_GLY  0.0230134213361
   00044_LEU    00045_SER  8.67873643405
   00044_LEU    00047_GLU  0.0359988799034
   00045_SER    00046_GLY  9.88263619862
   00045_SER    00048_LEU  0.042724804214
   00045_SER    00047_GLU  0.17680852047
   00045_SER    00083_ILE  0.00130438545024
   00045_SER    00049_ARG  0.108579703633
   00046_GLY    00048_LEU  0.0114345766709
   00046_GLY    00047_GLU  9.48633523238
   00046_GLY    00049_ARG  0.0945410630617
   00047_GLU    00048_LEU  9.50957481087
   00047_GLU    00087_TYR  0.133744731727
   00047_GLU    00085_ALA  0.0509539167161
   00047_GLU    00052_ASP  0.378885227339
   00047_GLU    00083_ILE  0.0331643618753
   00047_GLU    00049_ARG  0.97101664395
   00048_LEU    00084_ILE  0.001264477859
   00048_LEU    00054_ILE  0.00101503155806
   00048_LEU    00081_VAL  0.000526714845407
   00048_LEU    00057_VAL  0.000257301128107
   00048_LEU    00085_ALA  0.00311604709563
   00048_LEU    00083_ILE  0.00786585122115
   00048_LEU    00055_LEU  0.000371895261428
   00048_LEU    00074_LEU  0.000307508654807
   00048_LEU    00082_THR  0.000671366763827
   00048_LEU    00053_GLN  0.00167043458713
   00048_LEU    00087_TYR  0.00216407615117
   00048_LEU    00086_GLN  0.00180154032947
   00048_LEU    00050_LYS  0.0435991247312
   00048_LEU    00052_ASP  0.152503161638
   00048_LEU    00049_ARG  6.76771871135
   00049_ARG    00054_ILE  0.0207194424048
   00049_ARG    00088_LYS  0.212000769185
   00049_ARG    00087_TYR  0.274957155469
   00049_ARG    00092_TYR  0.0743253841583
   00049_ARG    00086_GLN  0.0867066151345
   00049_ARG    00051_GLY  0.0579771427911
   00049_ARG    00085_ALA  0.0381920548012
   00049_ARG    00050_LYS  8.38102045679
   00049_ARG    00052_ASP  0.823183734116
   00049_ARG    00089_PRO  0.0169624926593
   00049_ARG    00053_GLN  0.068868343143
   00050_LYS    00095_PHE  0.0803635117066
   00050_LYS    00088_LYS  0.115416456518
   00050_LYS    00087_TYR  0.0465143799082
   00050_LYS    00092_TYR  0.383608744427
   00050_LYS    00097_ALA  0.0584959996468
   00050_LYS    00051_GLY  6.44862886397
   00050_LYS    00052_ASP  0.301594190206
   00050_LYS    00098_NME  0.0253033297603
   00050_LYS    00089_PRO  0.0228724727847
   00050_LYS    00093_SER  0.096275586561
   00050_LYS    00096_GLU  1.1051391317
   00051_GLY    00095_PHE  0.00101941346738
   00051_GLY    00088_LYS  0.0807368147993
   00051_GLY    00092_TYR  0.0214431964165
   00051_GLY    00090_GLU  0.0297393105713
   00051_GLY    00053_GLN  0.0139490389355
   00051_GLY    00087_TYR  0.015389041701
   00051_GLY    00089_PRO  0.00386300443551
   00051_GLY    00086_GLN  0.00802325019341
   00051_GLY    00052_ASP  8.04560335166
   00051_GLY    00091_GLU  0.0262001883494
   00051_GLY    00093_SER  0.00186003524873
   00051_GLY    00096_GLU  0.0600666848696
   00052_ASP    00084_ILE  0.0563504249794
   00052_ASP    00054_ILE  0.0748869343858
   00052_ASP    00088_LYS  0.20669949173
   00052_ASP    00087_TYR  0.30548922918
   00052_ASP    00092_TYR  0.104205104767
   00052_ASP    00086_GLN  0.252692460615
   00052_ASP    00085_ALA  0.110836390738
   00052_ASP    00083_ILE  0.0485451551852
   00052_ASP    00055_LEU  0.0487389720276
   00052_ASP    00089_PRO  0.0204999665378
   00052_ASP    00053_GLN  6.9011948146
   00053_GLN    00084_ILE  0.00955469358815
   00053_GLN    00054_ILE  6.55920199871
   00053_GLN    00064_ASN  0.00965718853831
   00053_GLN    00092_TYR  0.00355538099868
   00053_GLN    00085_ALA  0.0313093490649
   00053_GLN    00095_PHE  0.00164503644897
   00053_GLN    00055_LEU  0.041743476244
   00053_GLN    00088_LYS  0.48950155494
   00053_GLN    00065_ALA  0.00500223663739
   00053_GLN    00091_GLU  0.152772083365
   00053_GLN    00062_LEU  0.0128764254853
   00053_GLN    00056_SER  0.00752045209918
   00053_GLN    00087_TYR  0.00854595117813
   00053_GLN    00063_ARG  0.283763228527
   00053_GLN    00094_ARG  0.17425025424
   00053_GLN    00086_GLN  0.0764193414594
   00053_GLN    00083_ILE  0.00194329446195
   00053_GLN    00089_PRO  0.00129320227385
   00054_ILE    00084_ILE  0.00927488603369
   00054_ILE    00064_ASN  0.00177498761118
   00054_ILE    00081_VAL  0.000256318009149
   00054_ILE    00071_ALA  0.000416053799214
   00054_ILE    00057_VAL  0.0207171737233
   00054_ILE    00067_HID  0.000537995732483
   00054_ILE    00085_ALA  0.00810510674239
   00054_ILE    00073_ALA  0.000497590051452
   00054_ILE    00083_ILE  0.011702526738
   00054_ILE    00055_LEU  6.13231617655
   00054_ILE    00088_LYS  0.0613259446864
   00054_ILE    00074_LEU  0.000669507178305
   00054_ILE    00082_THR  0.000595551223795
   00054_ILE    00062_LEU  0.0369767545424
   00054_ILE    00056_SER  0.0121730280088
   00054_ILE    00065_ALA  0.00164026868682
   00054_ILE    00060_VAL  0.00145333146105
   00054_ILE    00063_ARG  0.0503172289486
   00054_ILE    00086_GLN  0.00681247546583
   00054_ILE    00070_ALA  0.00135903932998
   00054_ILE    00061_ASP  0.0486699862395
   00055_LEU    00084_ILE  0.0703716350634
   00055_LEU    00064_ASN  0.00219470995381
   00055_LEU    00088_LYS  0.0900395386292
   00055_LEU    00057_VAL  0.00431750720457
   00055_LEU    00085_ALA  0.0156855987996
   00055_LEU    00083_ILE  0.00240771080445
   00055_LEU    00059_GLY  0.00170813106876
   00055_LEU    00065_ALA  0.00127271490398
   00055_LEU    00062_LEU  0.052408549061
   00055_LEU    00056_SER  7.3633412436
   00055_LEU    00087_TYR  0.00101916226125
   00055_LEU    00060_VAL  0.006300325956
   00055_LEU    00063_ARG  0.121265778117
   00055_LEU    00086_GLN  0.0283344647358
   00055_LEU    00061_ASP  0.09757031067
   00056_SER    00084_ILE  0.0870545443096
   00056_SER    00059_GLY  0.0353407210333
   00056_SER    00081_VAL  0.00168949859094
   00056_SER    00057_VAL  7.02586294962
   00056_SER    00085_ALA  0.00407443219839
   00056_SER    00073_ALA  0.00256361981442
   00056_SER    00083_ILE  0.0172694418571
   00056_SER    00074_LEU  0.00207214265316
   00056_SER    00082_THR  0.00918382262503
   00056_SER    00058_ASN  0.0100913978549
   00056_SER    00062_LEU  0.0179548463815
   00056_SER    00060_VAL  0.154322876087
   00056_SER    00063_ARG  0.118700784974
   00056_SER    00086_GLN  0.00179836088212
   00056_SER    00070_ALA  0.00186409340351
   00056_SER    00061_ASP  0.0980744986608
   00057_VAL    00084_ILE  0.00459560823626
   00057_VAL    00059_GLY  0.0394737173929
   00057_VAL    00081_VAL  0.00497938504965
   00057_VAL    00061_ASP  0.0460557840911
   00057_VAL    00085_ALA  0.00076319594427
   00057_VAL    00073_ALA  0.0217331332964
   00057_VAL    00083_ILE  0.025640341478
   00057_VAL    00069_GLN  0.00426096405115
   00057_VAL    00071_ALA  0.000873102612307
   00057_VAL    00080_THR  0.000689540512136
   00057_VAL    00074_LEU  0.0193561321193
   00057_VAL    00082_THR  0.0147489993389
   00057_VAL    00058_ASN  7.19725169453
   00057_VAL    00062_LEU  0.0244881077474
   00057_VAL    00065_ALA  0.000423911718484
   00057_VAL    00060_VAL  0.0566160683235
   00057_VAL    00063_ARG  0.0397524590837
   00057_VAL    00076_ASN  0.00370286345633
   00057_VAL    00078_GLY  0.00100716185625
   00057_VAL    00077_ALA  0.00164874862895
   00057_VAL    00072_ILE  0.00191413246794
   00057_VAL    00075_LYS  0.031434554517
   00057_VAL    00070_ALA  0.00270509278196
   00058_ASN    00084_ILE  0.000758806130508
   00058_ASN    00075_LYS  0.133128152492
   00058_ASN    00081_VAL  0.0273270296149
   00058_ASN    00073_ALA  0.0269224414708
   00058_ASN    00083_ILE  0.00433629949143
   00058_ASN    00059_GLY  7.29310147923
   00058_ASN    00080_THR  0.00815905655291
   00058_ASN    00074_LEU  0.00485678542424
   00058_ASN    00082_THR  0.05479697497
   00058_ASN    00077_ALA  0.0294771408389
   00058_ASN    00060_VAL  0.0405918662724
   00058_ASN    00076_ASN  0.0744306816536
   00058_ASN    00079_GLN  0.00263605181594
   00058_ASN    00078_GLY  0.0161891986054
   00058_ASN    00062_LEU  0.000605742495747
   00058_ASN    00072_ILE  0.00713137505208
   00058_ASN    00070_ALA  0.00132016871223
   00059_GLY    00084_ILE  0.000862018604569
   00059_GLY    00060_VAL  9.03186935515
   00059_GLY    00081_VAL  0.000816061830967
   00059_GLY    00076_ASN  0.00141783499529
   00059_GLY    00073_ALA  0.0014284245585
   00059_GLY    00083_ILE  0.00125199347301
   00059_GLY    00062_LEU  0.00164306598926
   00059_GLY    00061_ASP  0.0718662196616
   00059_GLY    00082_THR  0.00598877009132
   00059_GLY    00077_ALA  0.000327313799888
   00059_GLY    00063_ARG  0.0350705038912
   00060_VAL    00084_ILE  0.00096871699686
   00060_VAL    00072_ILE  0.00171701997506
   00060_VAL    00073_ALA  0.0099472061721
   00060_VAL    00083_ILE  0.00101246499962
   00060_VAL    00069_GLN  0.0161243213564
   00060_VAL    00065_ALA  0.00121063955878
   00060_VAL    00082_THR  0.00173893062479
   00060_VAL    00062_LEU  0.0329859802118
   00060_VAL    00074_LEU  0.00132348924984
   00060_VAL    00063_ARG  0.0508958869738
   00060_VAL    00076_ASN  0.00275789070661
   00060_VAL    00077_ALA  0.000473679293
   00060_VAL    00061_ASP  6.81058421536
   00060_VAL    00070_ALA  0.0015487947256
   00061_ASP    00084_ILE  0.0344038325723
   00061_ASP    00064_ASN  0.32338514526
   00061_ASP    00063_ARG  1.02084730261
   00061_ASP    00073_ALA  0.0317354911084
   00061_ASP    00070_ALA  0.0420439901499
   00061_ASP    00069_GLN  0.158332992582
   00061_ASP    00065_ALA  0.0806226200129
   00061_ASP    00062_LEU  6.79604764043
   00062_LEU    00084_ILE  0.001330284137
   00062_LEU    00064_ASN  0.0478465762859
   00062_LEU    00066_SER  0.0041609834964
   00062_LEU    00067_HID  0.000761115945043
   00062_LEU    00073_ALA  0.00251885685826
   00062_LEU    00083_ILE  0.000563511695333
   00062_LEU    00069_GLN  0.0154301656861
   00062_LEU    00071_ALA  0.00084470126026
   00062_LEU    00065_ALA  0.0763714489884
   00062_LEU    00074_LEU  0.000881885553772
   00062_LEU    00063_ARG  7.91641316695
   00062_LEU    00070_ALA  0.0214313364716
   00062_LEU    00072_ILE  0.000815300020113
   00062_LEU    00068_GLU  0.0303755617045
   00063_ARG    00084_ILE  0.0437276627651
   00063_ARG    00065_ALA  0.0819589402269
   00063_ARG    00088_LYS  0.385011046351
   00063_ARG    00064_ASN  8.23229402152
   00063_ARG    00086_GLN  0.126917701958
   00063_ARG    00091_GLU  0.141982236207
   00064_ASN    00069_GLN  0.00403923041416
   00064_ASN    00066_SER  0.0134816772248
   00064_ASN    00065_ALA  8.94521458695
   00065_ALA    00071_ALA  0.00113246011017
   00065_ALA    00066_SER  7.24628522002
   00065_ALA    00067_HID  0.0119671524738
   00065_ALA    00073_ALA  0.000453425967922
   00065_ALA    00070_ALA  0.00450311658378
   00065_ALA    00069_GLN  0.0171241902988
   00065_ALA    00068_GLU  0.0322679939367
   00066_SER    00071_ALA  0.00609426314647
   00066_SER    00067_HID  7.11265406429
   00066_SER    00070_ALA  0.0255966005805
   00066_SER    00069_GLN  0.0870786836112
   00066_SER    00072_ILE  0.00227520160892
   00066_SER    00068_GLU  0.195709487782
   00067_HID    00095_PHE  0.000368767465529
   00067_HID    00071_ALA  0.0287327403351
   00067_HID    00073_ALA  0.000702355195962
   00067_HID    00070_ALA  0.0269717466443
   00067_HID    00069_GLN  0.0203552526158
   00067_HID    00072_ILE  0.00300511656786
   00067_HID    00074_LEU  0.000564973756324
   00067_HID    00068_GLU  9.18798101947
   00068_GLU    00071_ALA  0.117295277591
   00068_GLU    00073_ALA  0.052463035181
   00068_GLU    00070_ALA  0.0845133996783
   00068_GLU    00069_GLN  9.31718445161
   00068_GLU    00072_ILE  0.155381374643
   00068_GLU    00075_LYS  0.158868048707
   00068_GLU    00074_LEU  0.0390617509713
   00069_GLN    00075_LYS  0.102478439357
   00069_GLN    00076_ASN  0.0126635227174
   00069_GLN    00073_ALA  0.0319410953778
   00069_GLN    00070_ALA  8.00805290904
   00069_GLN    00072_ILE  0.0421870631435
   00069_GLN    00071_ALA  0.0281656964232
   00069_GLN    00074_LEU  0.00744894065534
   00070_ALA    00075_LYS  0.0385964479256
   00070_ALA    00076_ASN  0.00268699481278
   00070_ALA    00073_ALA  0.0309603029489
   00070_ALA    00083_ILE  0.000318838572493
   00070_ALA    00072_ILE  0.022758567833
   00070_ALA    00071_ALA  8.34760551238
   00070_ALA    00074_LEU  0.0446960609535
   00071_ALA    00075_LYS  0.0938351757979
   00071_ALA    00076_ASN  0.0100440241051
   00071_ALA    00073_ALA  0.0165607605141
   00071_ALA    00072_ILE  8.62057321171
   00071_ALA    00074_LEU  0.0254211864811
   00071_ALA    00077_ALA  0.000766578908782
   00072_ILE    00075_LYS  0.0987014909255
   00072_ILE    00076_ASN  0.112446290289
   00072_ILE    00073_ALA  7.55098688137
   00072_ILE    00074_LEU  0.0223760638743
   00072_ILE    00077_ALA  0.00321393961781
   00073_ALA    00075_LYS  0.0770469111984
   00073_ALA    00081_VAL  0.00119944826394
   00073_ALA    00076_ASN  0.0348874130797
   00073_ALA    00078_GLY  0.00146372984687
   00073_ALA    00074_LEU  7.69651930151
   00073_ALA    00077_ALA  0.0188989078216
   00074_LEU    00084_ILE  0.000306740007065
   00074_LEU    00075_LYS  8.0837963972
   00074_LEU    00081_VAL  0.00138853695049
   00074_LEU    00076_ASN  0.0261141863214
   00074_LEU    00079_GLN  0.000885704103399
   00074_LEU    00078_GLY  0.00169709186716
   00074_LEU    00083_ILE  0.000851866185445
   00074_LEU    00082_THR  0.000966703914224
   00074_LEU    00080_THR  0.000722169654589
   00074_LEU    00077_ALA  0.037996293956
   00075_LYS    00078_GLY  0.0246209130999
   00075_LYS    00081_VAL  0.0196768448667
   00075_LYS    00076_ASN  8.21663107457
   00075_LYS    00077_ALA  0.096664853141
   00076_ASN    00078_GLY  0.0199171748247
   00076_ASN    00081_VAL  0.00187126776142
   00076_ASN    00080_THR  0.00207078785227
   00076_ASN    00077_ALA  9.85241710706
   00077_ALA    00083_ILE  0.000309531707669
   00077_ALA    00081_VAL  0.0245658208621
   00077_ALA    00079_GLN  0.00919507671963
   00077_ALA    00078_GLY  7.49548220455
   00077_ALA    00080_THR  0.00560759439711
   00077_ALA    00082_THR  0.000872917086323
   00078_GLY    00081_VAL  0.0091673697802
   00078_GLY    00080_THR  0.0570602172862
   00078_GLY    00082_THR  0.00254580243648
   00078_GLY    00079_GLN  8.48731704002
   00079_GLN    00081_VAL  0.00507949425261
   00079_GLN    00080_THR  9.82814671037
   00080_THR    00081_VAL  7.1967896412
   00080_THR    00083_ILE  0.000828695562764
   00080_THR    00082_THR  0.0056188002374
   00081_VAL    00084_ILE  0.00103630390012
   00081_VAL    00083_ILE  0.0201104221265
   00081_VAL    00082_THR  7.0995144841
   00082_THR    00084_ILE  0.00682457774307
   00082_THR    00083_ILE  6.68954912304
   00083_ILE    00084_ILE  7.20164240239
   00083_ILE    00086_GLN  0.00155802941291
   00083_ILE    00085_ALA  0.0079366584388
   00084_ILE    00086_GLN  0.00639032619238
   00084_ILE    00085_ALA  6.90053193624
   00085_ALA    00086_GLN  6.69948857995
   00085_ALA    00088_LYS  0.0432057065737
   00085_ALA    00087_TYR  0.00641041897454
   00086_GLN    00088_LYS  0.584141110774
   00086_GLN    00087_TYR  6.93090902554
   00086_GLN    00091_GLU  0.142871308773
   00086_GLN    00089_PRO  0.00190513484298
   00087_TYR    00088_LYS  8.15810996832
   00087_TYR    00092_TYR  0.00344016366568
   00087_TYR    00089_PRO  0.041415544635
   00087_TYR    00090_GLU  0.186464811144
   00087_TYR    00091_GLU  0.0688442864311
   00088_LYS    00095_PHE  0.0199689161013
   00088_LYS    00092_TYR  0.0822782290541
   00088_LYS    00091_GLU  0.385505049633
   00088_LYS    00094_ARG  0.261677150101
   00088_LYS    00090_GLU  0.323956826214
   00088_LYS    00089_PRO  7.22664807783
   00088_LYS    00093_SER  0.0357269603102
   00089_PRO    00095_PHE  0.000744933840272
   00089_PRO    00092_TYR  0.039580772704
   00089_PRO    00094_ARG  0.0247769348881
   00089_PRO    00090_GLU  10.7592038384
   00089_PRO    00091_GLU  0.0472022866068
   00089_PRO    00093_SER  0.0760919714307
   00089_PRO    00096_GLU  0.0191439775062
   00090_GLU    00095_PHE  0.0258045029098
   00090_GLU    00092_TYR  0.0884750576819
   00090_GLU    00094_ARG  0.279351397935
   00090_GLU    00091_GLU  12.1859347478
   00090_GLU    00093_SER  0.128550969622
   00091_GLU    00095_PHE  0.0796017734623
   00091_GLU    00092_TYR  8.41485640055
   00091_GLU    00094_ARG  0.564424193334
   00091_GLU    00093_SER  0.138697553131
   00091_GLU    00096_GLU  0.0914161180185
   00092_TYR    00095_PHE  0.104370760852
   00092_TYR    00094_ARG  0.182706314365
   00092_TYR    00098_NME  0.00114651898663
   00092_TYR    00097_ALA  0.00541750105569
   00092_TYR    00093_SER  7.82994425097
   00092_TYR    00096_GLU  0.367294564846
   00093_SER    00095_PHE  0.0314954658866
   00093_SER    00094_ARG  9.88527307986
   00093_SER    00098_NME  0.00310365868368
   00093_SER    00097_ALA  0.0256726433678
   00093_SER    00096_GLU  0.144419628666
   00094_ARG    00095_PHE  8.49465691213
   00094_ARG    00098_NME  0.0208205668281
   00094_ARG    00097_ALA  0.0438557559915
   00094_ARG    00096_GLU  0.335575186369
   00095_PHE    00098_NME  0.0301647086206
   00095_PHE    00097_ALA  0.0235664988223
   00095_PHE    00096_GLU  9.61265012059
   00096_GLU    00097_ALA  8.66094991826
   00096_GLU    00098_NME  0.0784781178113
   00097_ALA    00098_NME  14.6463975527
